[
  {
    "temp": 290.0528564453125,
    "load": 83803,
    "rate": 6.839234679937363,
    "requestedRate": 6.236275321151818,
    "time": 80
  },
  {
    "temp": 290.02203369140625,
    "load": 78869,
    "rate": 6.876170275211334,
    "requestedRate": 6.236275321151818,
    "time": 299
  },
  {
    "temp": 289.96539306640625,
    "load": 79710,
    "rate": 6.803571664094925,
    "requestedRate": 6.236275321151818,
    "time": 475
  },
  {
    "temp": 289.90289306640625,
    "load": 82302,
    "rate": 6.81861123919487,
    "requestedRate": 6.236275321151818,
    "time": 673
  },
  {
    "temp": 289.8468017578125,
    "load": 84134,
    "rate": 6.8644227790832515,
    "requestedRate": 6.236275321151818,
    "time": 869
  },
  {
    "temp": 289.65838623046875,
    "load": 90610,
    "rate": 6.841149487495422,
    "requestedRate": 6.236275321151818,
    "time": 1063
  },
  {
    "temp": 289.5039367675781,
    "load": 100625,
    "rate": 6.813245115280151,
    "requestedRate": 6.236275321151818,
    "time": 1235
  },
  {
    "temp": 289.4050598144531,
    "load": 113695,
    "rate": 6.72717071056366,
    "requestedRate": 6.236275321151818,
    "time": 1423
  },
  {
    "temp": 289.341796875,
    "load": 119183,
    "rate": 6.821060503721237,
    "requestedRate": 6.236275321151818,
    "time": 1602
  },
  {
    "temp": 289.3013000488281,
    "load": 129427,
    "rate": 6.783286052942276,
    "requestedRate": 6.236275321151818,
    "time": 1802
  },
  {
    "temp": 289.2868957519531,
    "load": 137454,
    "rate": 6.885262202024459,
    "requestedRate": 6.236275321151818,
    "time": 1962
  },
  {
    "temp": 289.0798034667969,
    "load": 141099,
    "rate": 6.832102428674697,
    "requestedRate": 6.236275321151818,
    "time": 2158
  },
  {
    "temp": 288.8286437988281,
    "load": 147721,
    "rate": 6.8627301120758055,
    "requestedRate": 6.236275321151818,
    "time": 2334
  },
  {
    "temp": 288.66790771484375,
    "load": 151800,
    "rate": 6.990128817558288,
    "requestedRate": 6.236275321151818,
    "time": 2532
  },
  {
    "temp": 288.5650329589844,
    "load": 156331,
    "rate": 6.975563875436783,
    "requestedRate": 6.236275321151818,
    "time": 2730
  },
  {
    "temp": 288.2281188964844,
    "load": 158852,
    "rate": 7.047496504783631,
    "requestedRate": 6.236275321151818,
    "time": 2936
  },
  {
    "temp": 288.0895080566406,
    "load": 161210,
    "rate": 6.965140864849091,
    "requestedRate": 6.236275321151818,
    "time": 3132
  },
  {
    "temp": 287.81890869140625,
    "load": 163208,
    "rate": 6.97155434846878,
    "requestedRate": 6.236275321151818,
    "time": 3299
  },
  {
    "temp": 287.7197570800781,
    "load": 164630,
    "rate": 6.882208979129791,
    "requestedRate": 6.236275321151818,
    "time": 3495
  },
  {
    "temp": 287.38214111328125,
    "load": 165196,
    "rate": 6.941056430339813,
    "requestedRate": 6.236275321151818,
    "time": 3671
  },
  {
    "temp": 287.1322021484375,
    "load": 167057,
    "rate": 6.899631836414337,
    "requestedRate": 6.236275321151818,
    "time": 3833
  },
  {
    "temp": 286.84515380859375,
    "load": 165453,
    "rate": 6.822941440343857,
    "requestedRate": 6.236275321151818,
    "time": 4015
  },
  {
    "temp": 286.6442565917969,
    "load": 162263,
    "rate": 6.814902591705322,
    "requestedRate": 6.236275321151818,
    "time": 4202
  },
  {
    "temp": 286.35498046875,
    "load": 156475,
    "rate": 6.8694695484638215,
    "requestedRate": 6.236275321151818,
    "time": 4361
  },
  {
    "temp": 286.0003967285156,
    "load": 146792,
    "rate": 6.877975112199783,
    "requestedRate": 6.236275321151818,
    "time": 4516
  },
  {
    "temp": 285.79901123046875,
    "load": 136323,
    "rate": 6.832830873727798,
    "requestedRate": 6.236275321151818,
    "time": 4715
  },
  {
    "temp": 285.509033203125,
    "load": 132886,
    "rate": 6.852876749038696,
    "requestedRate": 6.236275321151818,
    "time": 4910
  },
  {
    "temp": 285.1200866699219,
    "load": 126261,
    "rate": 6.770412458181381,
    "requestedRate": 6.236275321151818,
    "time": 5117
  },
  {
    "temp": 284.7695007324219,
    "load": 128720,
    "rate": 6.845923969745636,
    "requestedRate": 6.236275321151818,
    "time": 5289
  },
  {
    "temp": 284.41802978515625,
    "load": 126372,
    "rate": 6.7771782875061035,
    "requestedRate": 6.236275321151818,
    "time": 5493
  },
  {
    "temp": 284.01519775390625,
    "load": 125005,
    "rate": 6.878177018165588,
    "requestedRate": 6.236275321151818,
    "time": 5675
  },
  {
    "temp": 283.67266845703125,
    "load": 125813,
    "rate": 6.838636000156402,
    "requestedRate": 6.236275321151818,
    "time": 5841
  },
  {
    "temp": 283.42852783203125,
    "load": 124809,
    "rate": 6.871973358392715,
    "requestedRate": 6.236275321151818,
    "time": 6039
  },
  {
    "temp": 283.07696533203125,
    "load": 124512,
    "rate": 6.986962984800338,
    "requestedRate": 6.236275321151818,
    "time": 6247
  },
  {
    "temp": 282.64862060546875,
    "load": 124871,
    "rate": 7.007337012290955,
    "requestedRate": 6.236275321151818,
    "time": 6446
  },
  {
    "temp": 282.30670166015625,
    "load": 124417,
    "rate": 7.013328648805619,
    "requestedRate": 6.236275321151818,
    "time": 6633
  },
  {
    "temp": 281.92694091796875,
    "load": 125383,
    "rate": 6.936638252735138,
    "requestedRate": 6.236275321151818,
    "time": 6786
  },
  {
    "temp": 281.5059509277344,
    "load": 126120,
    "rate": 7.02722540974617,
    "requestedRate": 6.236275321151818,
    "time": 6977
  },
  {
    "temp": 281.0718688964844,
    "load": 127259,
    "rate": 6.9387210953235625,
    "requestedRate": 6.236275321151818,
    "time": 7165
  },
  {
    "temp": 280.662353515625,
    "load": 128115,
    "rate": 6.924174188375473,
    "requestedRate": 6.236275321151818,
    "time": 7367
  },
  {
    "temp": 280.5167541503906,
    "load": 128885,
    "rate": 6.912279771566391,
    "requestedRate": 6.236275321151818,
    "time": 7558
  },
  {
    "temp": 280.08355712890625,
    "load": 129825,
    "rate": 6.8912617564201355,
    "requestedRate": 6.236275321151818,
    "time": 7759
  },
  {
    "temp": 279.71319580078125,
    "load": 133799,
    "rate": 6.841128373146057,
    "requestedRate": 6.236275321151818,
    "time": 7949
  },
  {
    "temp": 279.34576416015625,
    "load": 134620,
    "rate": 6.916123023033142,
    "requestedRate": 6.236275321151818,
    "time": 8149
  },
  {
    "temp": 279.04852294921875,
    "load": 136692,
    "rate": 6.827828532457351,
    "requestedRate": 6.236275321151818,
    "time": 8354
  },
  {
    "temp": 278.6968688964844,
    "load": 140945,
    "rate": 6.85220064997673,
    "requestedRate": 6.236275321151818,
    "time": 8548
  },
  {
    "temp": 278.40972900390625,
    "load": 143412,
    "rate": 6.828888208866119,
    "requestedRate": 6.236275321151818,
    "time": 8738
  },
  {
    "temp": 278.0645446777344,
    "load": 145020,
    "rate": 6.869755471944809,
    "requestedRate": 6.236275321151818,
    "time": 8948
  },
  {
    "temp": 277.7504577636719,
    "load": 146255,
    "rate": 6.8121115386486055,
    "requestedRate": 6.236275321151818,
    "time": 9147
  },
  {
    "temp": 277.4190673828125,
    "load": 149488,
    "rate": 6.8888248085975645,
    "requestedRate": 6.236275321151818,
    "time": 9328
  },
  {
    "temp": 277.0827941894531,
    "load": 154524,
    "rate": 6.811190425157547,
    "requestedRate": 6.236275321151818,
    "time": 9503
  },
  {
    "temp": 276.76824951171875,
    "load": 156359,
    "rate": 6.846070890426636,
    "requestedRate": 6.236275321151818,
    "time": 9679
  },
  {
    "temp": 276.3682861328125,
    "load": 158788,
    "rate": 6.961408903598786,
    "requestedRate": 6.236275321151818,
    "time": 9874
  },
  {
    "temp": 276.2122802734375,
    "load": 160084,
    "rate": 6.873347110748291,
    "requestedRate": 6.236275321151818,
    "time": 10076
  },
  {
    "temp": 275.8385925292969,
    "load": 160196,
    "rate": 7.040768065452576,
    "requestedRate": 6.236275321151818,
    "time": 10281
  },
  {
    "temp": 275.5249328613281,
    "load": 162032,
    "rate": 7.0017329120635985,
    "requestedRate": 6.236275321151818,
    "time": 10470
  },
  {
    "temp": 275.1255187988281,
    "load": 163307,
    "rate": 7.039776130914688,
    "requestedRate": 6.236275321151818,
    "time": 10641
  },
  {
    "temp": 274.84503173828125,
    "load": 165424,
    "rate": 6.940330624580383,
    "requestedRate": 6.236275321151818,
    "time": 10828
  },
  {
    "temp": 274.4420166015625,
    "load": 169042,
    "rate": 6.90631848692894,
    "requestedRate": 6.236275321151818,
    "time": 11020
  },
  {
    "temp": 274.0909729003906,
    "load": 171064,
    "rate": 6.93512109875679,
    "requestedRate": 6.236275321151818,
    "time": 11172
  },
  {
    "temp": 273.8937072753906,
    "load": 171243,
    "rate": 6.772621546983719,
    "requestedRate": 6.236275321151818,
    "time": 11359
  },
  {
    "temp": 273.5475769042969,
    "load": 171664,
    "rate": 6.8252195906639095,
    "requestedRate": 6.236275321151818,
    "time": 11542
  },
  {
    "temp": 273.16461181640625,
    "load": 174315,
    "rate": 6.82998087644577,
    "requestedRate": 6.236275321151818,
    "time": 11740
  },
  {
    "temp": 272.8263854980469,
    "load": 175225,
    "rate": 6.799669908285141,
    "requestedRate": 6.236275321151818,
    "time": 11904
  },
  {
    "temp": 272.6336975097656,
    "load": 174531,
    "rate": 6.841720894575119,
    "requestedRate": 6.236275321151818,
    "time": 12100
  },
  {
    "temp": 272.2630920410156,
    "load": 174025,
    "rate": 6.83465462565422,
    "requestedRate": 6.236275321151818,
    "time": 12269
  },
  {
    "temp": 271.8955383300781,
    "load": 173395,
    "rate": 6.785424760580063,
    "requestedRate": 6.236275321151818,
    "time": 12480
  },
  {
    "temp": 271.4864501953125,
    "load": 173463,
    "rate": 6.792323434352874,
    "requestedRate": 6.236275321151818,
    "time": 12654
  },
  {
    "temp": 271.17498779296875,
    "load": 173590,
    "rate": 6.833609025478363,
    "requestedRate": 6.236275321151818,
    "time": 12833
  },
  {
    "temp": 270.75213623046875,
    "load": 174300,
    "rate": 6.854268096685409,
    "requestedRate": 6.236275321151818,
    "time": 13012
  },
  {
    "temp": 270.38836669921875,
    "load": 175654,
    "rate": 6.752519806623459,
    "requestedRate": 6.236275321151818,
    "time": 13205
  },
  {
    "temp": 270.18658447265625,
    "load": 176285,
    "rate": 6.8806007695198055,
    "requestedRate": 6.236275321151818,
    "time": 13371
  },
  {
    "temp": 269.7718505859375,
    "load": 177376,
    "rate": 6.862252399921418,
    "requestedRate": 6.236275321151818,
    "time": 13569
  },
  {
    "temp": 269.4071044921875,
    "load": 178513,
    "rate": 6.893272458314896,
    "requestedRate": 6.236275321151818,
    "time": 13738
  },
  {
    "temp": 268.95013427734375,
    "load": 179242,
    "rate": 7.04449738740921,
    "requestedRate": 6.236275321151818,
    "time": 13913
  },
  {
    "temp": 268.6576843261719,
    "load": 179445,
    "rate": 7.005973377227783,
    "requestedRate": 6.236275321151818,
    "time": 14101
  },
  {
    "temp": 268.4605407714844,
    "load": 180936,
    "rate": 6.956954215764999,
    "requestedRate": 6.236275321151818,
    "time": 14282
  },
  {
    "temp": 268.12078857421875,
    "load": 181317,
    "rate": 7.028634352684021,
    "requestedRate": 6.236275321151818,
    "time": 14479
  },
  {
    "temp": 267.6798400878906,
    "load": 181286,
    "rate": 6.963538373708725,
    "requestedRate": 6.236275321151818,
    "time": 14666
  },
  {
    "temp": 267.2486572265625,
    "load": 182004,
    "rate": 7.034112646579742,
    "requestedRate": 6.236275321151818,
    "time": 14855
  },
  {
    "temp": 266.898193359375,
    "load": 183837,
    "rate": 6.933633856773376,
    "requestedRate": 6.236275321151818,
    "time": 15027
  },
  {
    "temp": 266.4503479003906,
    "load": 183969,
    "rate": 6.905782270431518,
    "requestedRate": 6.236275321151818,
    "time": 15209
  },
  {
    "temp": 266.2911071777344,
    "load": 184485,
    "rate": 6.876246374845505,
    "requestedRate": 6.236275321151818,
    "time": 15370
  },
  {
    "temp": 265.83831787109375,
    "load": 185259,
    "rate": 6.823212847709656,
    "requestedRate": 6.236275321151818,
    "time": 15558
  },
  {
    "temp": 265.4243469238281,
    "load": 184155,
    "rate": 6.952255833148956,
    "requestedRate": 6.236275321151818,
    "time": 15748
  },
  {
    "temp": 264.9358825683594,
    "load": 183216,
    "rate": 6.9049847638607025,
    "requestedRate": 6.236275321151818,
    "time": 16011
  },
  {
    "temp": 264.52392578125,
    "load": 182428,
    "rate": 6.779968460798264,
    "requestedRate": 6.236275321151818,
    "time": 16194
  },
  {
    "temp": 264.0367431640625,
    "load": 181911,
    "rate": 6.880203995704651,
    "requestedRate": 6.236275321151818,
    "time": 16390
  },
  {
    "temp": 263.5759582519531,
    "load": 182468,
    "rate": 6.9305476427078245,
    "requestedRate": 6.236275321151818,
    "time": 16559
  },
  {
    "temp": 263.20654296875,
    "load": 184122,
    "rate": 6.836109316349029,
    "requestedRate": 6.236275321151818,
    "time": 16735
  },
  {
    "temp": 262.9510192871094,
    "load": 184478,
    "rate": 6.8568462467193605,
    "requestedRate": 6.236275321151818,
    "time": 16909
  },
  {
    "temp": 262.52099609375,
    "load": 185702,
    "rate": 6.857015601396561,
    "requestedRate": 6.236275321151818,
    "time": 17090
  },
  {
    "temp": 262.0843505859375,
    "load": 186309,
    "rate": 6.893133895397186,
    "requestedRate": 6.236275321151818,
    "time": 17269
  },
  {
    "temp": 261.606201171875,
    "load": 186724,
    "rate": 6.98062252163887,
    "requestedRate": 6.236275321151818,
    "time": 17465
  },
  {
    "temp": 261.24432373046875,
    "load": 186318,
    "rate": 6.962796732187271,
    "requestedRate": 6.236275321151818,
    "time": 17632
  },
  {
    "temp": 261.00872802734375,
    "load": 186408,
    "rate": 7.048984186649323,
    "requestedRate": 6.236275321151818,
    "time": 17832
  },
  {
    "temp": 260.62213134765625,
    "load": 187104,
    "rate": 7.077397062778473,
    "requestedRate": 6.236275321151818,
    "time": 18014
  },
  {
    "temp": 260.25164794921875,
    "load": 187195,
    "rate": 6.972014025449753,
    "requestedRate": 6.236275321151818,
    "time": 18183
  },
  {
    "temp": 259.8504943847656,
    "load": 188371,
    "rate": 6.992606674432754,
    "requestedRate": 6.236275321151818,
    "time": 18375
  },
  {
    "temp": 259.50262451171875,
    "load": 190112,
    "rate": 6.922217592000961,
    "requestedRate": 6.236275321151818,
    "time": 18567
  },
  {
    "temp": 259.20709228515625,
    "load": 191843,
    "rate": 7.024626585245132,
    "requestedRate": 6.236275321151818,
    "time": 18747
  },
  {
    "temp": 259.0108947753906,
    "load": 194102,
    "rate": 6.901391365528107,
    "requestedRate": 6.236275321151818,
    "time": 18924
  },
  {
    "temp": 258.7283630371094,
    "load": 196427,
    "rate": 6.741377148628235,
    "requestedRate": 6.236275321151818,
    "time": 19098
  },
  {
    "temp": 258.38348388671875,
    "load": 198547,
    "rate": 6.9087875461578365,
    "requestedRate": 6.236275321151818,
    "time": 19265
  },
  {
    "temp": 258.2380676269531,
    "load": 201063,
    "rate": 6.949770938158035,
    "requestedRate": 6.236275321151818,
    "time": 19424
  },
  {
    "temp": 257.9056701660156,
    "load": 200849,
    "rate": 6.870124533176422,
    "requestedRate": 6.236275321151818,
    "time": 19580
  },
  {
    "temp": 257.5835876464844,
    "load": 200162,
    "rate": 6.8247418785095215,
    "requestedRate": 6.236275321151818,
    "time": 19749
  },
  {
    "temp": 257.4386901855469,
    "load": 200864,
    "rate": 6.835438055992126,
    "requestedRate": 6.236275321151818,
    "time": 19919
  },
  {
    "temp": 257.06597900390625,
    "load": 201053,
    "rate": 6.811962418556213,
    "requestedRate": 6.236275321151818,
    "time": 20084
  },
  {
    "temp": 256.9334716796875,
    "load": 201708,
    "rate": 6.753434761762619,
    "requestedRate": 6.236275321151818,
    "time": 20255
  },
  {
    "temp": 256.57861328125,
    "load": 201786,
    "rate": 6.789665665626526,
    "requestedRate": 6.236275321151818,
    "time": 20428
  },
  {
    "temp": 256.2603454589844,
    "load": 201830,
    "rate": 6.815030597448349,
    "requestedRate": 6.236275321151818,
    "time": 20603
  },
  {
    "temp": 255.93820190429688,
    "load": 202201,
    "rate": 6.731769679784775,
    "requestedRate": 6.236275321151818,
    "time": 20794
  },
  {
    "temp": 255.61355590820312,
    "load": 202595,
    "rate": 6.769931666851043,
    "requestedRate": 6.236275321151818,
    "time": 20951
  },
  {
    "temp": 255.42977905273438,
    "load": 202995,
    "rate": 6.9444505620002746,
    "requestedRate": 6.236275321151818,
    "time": 21137
  },
  {
    "temp": 255.12411499023438,
    "load": 203679,
    "rate": 6.896684185266495,
    "requestedRate": 6.236275321151818,
    "time": 21288
  },
  {
    "temp": 254.92430114746094,
    "load": 203690,
    "rate": 6.972945696115493,
    "requestedRate": 6.236275321151818,
    "time": 21443
  },
  {
    "temp": 254.58645629882812,
    "load": 204025,
    "rate": 7.016062957048416,
    "requestedRate": 6.236275321151818,
    "time": 21650
  },
  {
    "temp": 254.25633239746094,
    "load": 206879,
    "rate": 6.9524260675907135,
    "requestedRate": 6.236275321151818,
    "time": 21823
  },
  {
    "temp": 253.88101196289062,
    "load": 209218,
    "rate": 6.960968581438064,
    "requestedRate": 6.236275321151818,
    "time": 22011
  },
  {
    "temp": 253.5314483642578,
    "load": 210360,
    "rate": 6.969253764152527,
    "requestedRate": 6.236275321151818,
    "time": 22197
  },
  {
    "temp": 253.1846923828125,
    "load": 210591,
    "rate": 6.886311761140823,
    "requestedRate": 6.236275321151818,
    "time": 22382
  },
  {
    "temp": 253.00823974609375,
    "load": 211025,
    "rate": 6.9056428277492525,
    "requestedRate": 6.236275321151818,
    "time": 22568
  },
  {
    "temp": 252.66302490234375,
    "load": 211145,
    "rate": 6.750833297967911,
    "requestedRate": 6.236275321151818,
    "time": 22798
  },
  {
    "temp": 252.13710021972656,
    "load": 211926,
    "rate": 6.770962311029434,
    "requestedRate": 6.236275321151818,
    "time": 23024
  },
  {
    "temp": 251.80018615722656,
    "load": 212188,
    "rate": 6.827413283586502,
    "requestedRate": 6.236275321151818,
    "time": 23233
  },
  {
    "temp": 251.4888916015625,
    "load": 212664,
    "rate": 6.839288785457611,
    "requestedRate": 6.236275321151818,
    "time": 23415
  },
  {
    "temp": 251.12562561035156,
    "load": 214018,
    "rate": 6.9460609710216525,
    "requestedRate": 6.236275321151818,
    "time": 23600
  },
  {
    "temp": 250.76553344726562,
    "load": 215603,
    "rate": 6.874473649263382,
    "requestedRate": 6.236275321151818,
    "time": 23808
  },
  {
    "temp": 250.61724853515625,
    "load": 216554,
    "rate": 6.804122836589813,
    "requestedRate": 6.236275321151818,
    "time": 23973
  },
  {
    "temp": 250.2397003173828,
    "load": 216915,
    "rate": 6.917999120950698,
    "requestedRate": 6.236275321151818,
    "time": 24159
  },
  {
    "temp": 249.85223388671875,
    "load": 217605,
    "rate": 6.8380588746070865,
    "requestedRate": 6.236275321151818,
    "time": 24332
  },
  {
    "temp": 249.49490356445312,
    "load": 218764,
    "rate": 6.85533833026886,
    "requestedRate": 6.236275321151818,
    "time": 24525
  },
  {
    "temp": 249.10218811035156,
    "load": 219314,
    "rate": 6.8649260044097895,
    "requestedRate": 6.236275321151818,
    "time": 24723
  },
  {
    "temp": 248.73236083984375,
    "load": 219635,
    "rate": 6.934963181018829,
    "requestedRate": 6.236275321151818,
    "time": 24908
  },
  {
    "temp": 248.53504943847656,
    "load": 221209,
    "rate": 6.944976221323013,
    "requestedRate": 6.236275321151818,
    "time": 25098
  },
  {
    "temp": 248.15980529785156,
    "load": 222461,
    "rate": 6.99937998175621,
    "requestedRate": 6.236275321151818,
    "time": 25281
  },
  {
    "temp": 247.8467559814453,
    "load": 222737,
    "rate": 7.075609381198883,
    "requestedRate": 6.236275321151818,
    "time": 25443
  },
  {
    "temp": 247.4823455810547,
    "load": 223730,
    "rate": 7.067833582162857,
    "requestedRate": 6.236275321151818,
    "time": 25637
  },
  {
    "temp": 247.08509826660156,
    "load": 224224,
    "rate": 7.011064134836197,
    "requestedRate": 6.236275321151818,
    "time": 25815
  },
  {
    "temp": 246.68504333496094,
    "load": 226897,
    "rate": 6.952623134851455,
    "requestedRate": 6.236275321151818,
    "time": 26020
  },
  {
    "temp": 246.5326690673828,
    "load": 227508,
    "rate": 6.888572756052017,
    "requestedRate": 6.236275321151818,
    "time": 26206
  },
  {
    "temp": 246.1492156982422,
    "load": 228624,
    "rate": 6.932042362689971,
    "requestedRate": 6.236275321151818,
    "time": 26379
  },
  {
    "temp": 245.7397918701172,
    "load": 230370,
    "rate": 6.779276086091995,
    "requestedRate": 6.236275321151818,
    "time": 26561
  },
  {
    "temp": 245.36839294433594,
    "load": 230400,
    "rate": 6.81024071931839,
    "requestedRate": 6.236275321151818,
    "time": 26770
  },
  {
    "temp": 244.98489379882812,
    "load": 230333,
    "rate": 6.817223410606384,
    "requestedRate": 6.236275321151818,
    "time": 26942
  },
  {
    "temp": 244.8080291748047,
    "load": 234129,
    "rate": 6.7578476607799525,
    "requestedRate": 6.236275321151818,
    "time": 27119
  },
  {
    "temp": 244.4257354736328,
    "load": 237010,
    "rate": 6.886316599845886,
    "requestedRate": 6.236275321151818,
    "time": 27306
  },
  {
    "temp": 244.05349731445312,
    "load": 237085,
    "rate": 6.803950402736664,
    "requestedRate": 6.236275321151818,
    "time": 27578
  },
  {
    "temp": 243.504150390625,
    "load": 238304,
    "rate": 6.858648444414139,
    "requestedRate": 6.236275321151818,
    "time": 27774
  },
  {
    "temp": 243.1356201171875,
    "load": 238465,
    "rate": 6.797948209047317,
    "requestedRate": 6.236275321151818,
    "time": 27954
  },
  {
    "temp": 242.73570251464844,
    "load": 238007,
    "rate": 6.835428378582001,
    "requestedRate": 6.236275321151818,
    "time": 28151
  },
  {
    "temp": 242.55300903320312,
    "load": 238411,
    "rate": 6.792466835975647,
    "requestedRate": 6.236275321151818,
    "time": 28317
  },
  {
    "temp": 242.16233825683594,
    "load": 243798,
    "rate": 6.866006355285644,
    "requestedRate": 6.236275321151818,
    "time": 28504
  },
  {
    "temp": 241.7847442626953,
    "load": 238878,
    "rate": 6.805260812044144,
    "requestedRate": 6.236275321151818,
    "time": 28690
  },
  {
    "temp": 241.37904357910156,
    "load": 239374,
    "rate": 6.950103489160537,
    "requestedRate": 6.236275321151818,
    "time": 28879
  },
  {
    "temp": 240.9553680419922,
    "load": 244364,
    "rate": 7.030341535806656,
    "requestedRate": 6.236275321151818,
    "time": 29075
  },
  {
    "temp": 240.5775909423828,
    "load": 247658,
    "rate": 7.145770604610443,
    "requestedRate": 6.236275321151818,
    "time": 29271
  },
  {
    "temp": 240.39454650878906,
    "load": 248212,
    "rate": 7.045799878835678,
    "requestedRate": 6.236275321151818,
    "time": 29441
  },
  {
    "temp": 240.06346130371094,
    "load": 250983,
    "rate": 7.022167203426361,
    "requestedRate": 6.236275321151818,
    "time": 29633
  },
  {
    "temp": 239.7638397216797,
    "load": 251905,
    "rate": 6.969408602714538,
    "requestedRate": 6.236275321151818,
    "time": 29837
  },
  {
    "temp": 239.4337615966797,
    "load": 252391,
    "rate": 6.934667140245438,
    "requestedRate": 6.236275321151818,
    "time": 30019
  },
  {
    "temp": 239.1516571044922,
    "load": 252505,
    "rate": 6.844343032836914,
    "requestedRate": 6.236275321151818,
    "time": 30209
  },
  {
    "temp": 238.84963989257812,
    "load": 252633,
    "rate": 6.7414972364902495,
    "requestedRate": 6.236275321151818,
    "time": 30378
  },
  {
    "temp": 238.67477416992188,
    "load": 253767,
    "rate": 6.703968679904937,
    "requestedRate": 6.236275321151818,
    "time": 30558
  },
  {
    "temp": 238.4229736328125,
    "load": 253495,
    "rate": 6.823274871110916,
    "requestedRate": 6.236275321151818,
    "time": 30721
  },
  {
    "temp": 238.1234893798828,
    "load": 255237,
    "rate": 6.752325378656387,
    "requestedRate": 6.236275321151818,
    "time": 30903
  },
  {
    "temp": 237.82720947265625,
    "load": 259335,
    "rate": 6.797261552810669,
    "requestedRate": 6.236275321151818,
    "time": 31080
  },
  {
    "temp": 237.51614379882812,
    "load": 261177,
    "rate": 6.925457324981689,
    "requestedRate": 6.236275321151818,
    "time": 31269
  },
  {
    "temp": 237.33807373046875,
    "load": 257914,
    "rate": 6.82509818315506,
    "requestedRate": 6.236275321151818,
    "time": 31475
  },
  {
    "temp": 237.0647735595703,
    "load": 261428,
    "rate": 6.834227499961853,
    "requestedRate": 6.236275321151818,
    "time": 31681
  },
  {
    "temp": 236.61839294433594,
    "load": 263788,
    "rate": 6.893032722473144,
    "requestedRate": 6.236275321151818,
    "time": 31872
  },
  {
    "temp": 236.4849090576172,
    "load": 265445,
    "rate": 6.8262278008461,
    "requestedRate": 6.236275321151818,
    "time": 32050
  },
  {
    "temp": 236.1712188720703,
    "load": 265427,
    "rate": 6.799946594238281,
    "requestedRate": 6.236275321151818,
    "time": 32233
  },
  {
    "temp": 235.83212280273438,
    "load": 265540,
    "rate": 6.788990886211395,
    "requestedRate": 6.236275321151818,
    "time": 32411
  },
  {
    "temp": 235.510498046875,
    "load": 266034,
    "rate": 6.7545841741561885,
    "requestedRate": 6.236275321151818,
    "time": 32615
  },
  {
    "temp": 235.18321228027344,
    "load": 267601,
    "rate": 6.957068145275116,
    "requestedRate": 6.236275321151818,
    "time": 32816
  },
  {
    "temp": 234.85227966308594,
    "load": 271494,
    "rate": 7.057201187610626,
    "requestedRate": 6.236275321151818,
    "time": 33004
  },
  {
    "temp": 234.66712951660156,
    "load": 275001,
    "rate": 7.083999695777893,
    "requestedRate": 6.236275321151818,
    "time": 33196
  },
  {
    "temp": 234.34991455078125,
    "load": 277295,
    "rate": 7.009583930969238,
    "requestedRate": 6.236275321151818,
    "time": 33397
  },
  {
    "temp": 234.05917358398438,
    "load": 279463,
    "rate": 6.92065337061882,
    "requestedRate": 6.236275321151818,
    "time": 33582
  },
  {
    "temp": 233.76849365234375,
    "load": 281710,
    "rate": 6.807308464050293,
    "requestedRate": 6.236275321151818,
    "time": 33748
  },
  {
    "temp": 233.47451782226562,
    "load": 283570,
    "rate": 6.8404091656208035,
    "requestedRate": 6.236275321151818,
    "time": 33928
  },
  {
    "temp": 233.1514129638672,
    "load": 286799,
    "rate": 6.85585519194603,
    "requestedRate": 6.236275321151818,
    "time": 34103
  },
  {
    "temp": 232.9859161376953,
    "load": 287743,
    "rate": 6.781449984312057,
    "requestedRate": 6.236275321151818,
    "time": 34269
  },
  {
    "temp": 232.64974975585938,
    "load": 288876,
    "rate": 6.693073675632477,
    "requestedRate": 6.236275321151818,
    "time": 34450
  },
  {
    "temp": 232.3300018310547,
    "load": 289799,
    "rate": 6.689629837274551,
    "requestedRate": 6.236275321151818,
    "time": 34628
  },
  {
    "temp": 232.02076721191406,
    "load": 291634,
    "rate": 6.790766690969467,
    "requestedRate": 6.236275321151818,
    "time": 34805
  },
  {
    "temp": 231.86209106445312,
    "load": 293174,
    "rate": 6.738382869958877,
    "requestedRate": 6.236275321151818,
    "time": 34965
  },
  {
    "temp": 231.53912353515625,
    "load": 295260,
    "rate": 6.710272632837295,
    "requestedRate": 6.236275321151818,
    "time": 35159
  },
  {
    "temp": 231.21096801757812,
    "load": 296770,
    "rate": 6.674745980501175,
    "requestedRate": 6.236275321151818,
    "time": 35338
  },
  {
    "temp": 230.89297485351562,
    "load": 297907,
    "rate": 6.767093106508255,
    "requestedRate": 6.236275321151818,
    "time": 35501
  },
  {
    "temp": 230.7405548095703,
    "load": 299565,
    "rate": 6.828449646234512,
    "requestedRate": 6.236275321151818,
    "time": 35687
  },
  {
    "temp": 230.4130859375,
    "load": 302463,
    "rate": 6.862988322973251,
    "requestedRate": 6.236275321151818,
    "time": 35846
  },
  {
    "temp": 230.06517028808594,
    "load": 302372,
    "rate": 6.764807918071747,
    "requestedRate": 6.236275321151818,
    "time": 36051
  },
  {
    "temp": 229.75477600097656,
    "load": 304741,
    "rate": 6.914209975004196,
    "requestedRate": 6.236275321151818,
    "time": 36225
  },
  {
    "temp": 229.41778564453125,
    "load": 306444,
    "rate": 6.909514671564102,
    "requestedRate": 6.236275321151818,
    "time": 36416
  },
  {
    "temp": 229.2398681640625,
    "load": 306755,
    "rate": 6.898986089229584,
    "requestedRate": 6.236275321151818,
    "time": 36615
  },
  {
    "temp": 228.9161834716797,
    "load": 309573,
    "rate": 7.03729607462883,
    "requestedRate": 6.236275321151818,
    "time": 36822
  },
  {
    "temp": 228.5875701904297,
    "load": 313180,
    "rate": 7.015239497423172,
    "requestedRate": 6.236275321151818,
    "time": 36987
  },
  {
    "temp": 228.2557830810547,
    "load": 315903,
    "rate": 7.041497830152512,
    "requestedRate": 6.236275321151818,
    "time": 37168
  },
  {
    "temp": 227.92196655273438,
    "load": 320537,
    "rate": 6.996366348266601,
    "requestedRate": 6.236275321151818,
    "time": 37335
  },
  {
    "temp": 227.77328491210938,
    "load": 325695,
    "rate": 6.843254764080047,
    "requestedRate": 6.236275321151818,
    "time": 37520
  },
  {
    "temp": 227.437744140625,
    "load": 329209,
    "rate": 6.823402436971664,
    "requestedRate": 6.236275321151818,
    "time": 37707
  },
  {
    "temp": 227.1015167236328,
    "load": 330327,
    "rate": 6.714401367902756,
    "requestedRate": 6.236275321151818,
    "time": 37885
  },
  {
    "temp": 226.76487731933594,
    "load": 330812,
    "rate": 6.616346329450607,
    "requestedRate": 6.236275321151818,
    "time": 38071
  },
  {
    "temp": 226.427978515625,
    "load": 330792,
    "rate": 6.745772892236709,
    "requestedRate": 6.236275321151818,
    "time": 38259
  },
  {
    "temp": 226.0908660888672,
    "load": 332393,
    "rate": 6.7370904958248135,
    "requestedRate": 6.236275321151818,
    "time": 38457
  },
  {
    "temp": 225.753662109375,
    "load": 333715,
    "rate": 6.843752270936966,
    "requestedRate": 6.236275321151818,
    "time": 38651
  },
  {
    "temp": 225.38267517089844,
    "load": 334355,
    "rate": 6.792049387693405,
    "requestedRate": 6.236275321151818,
    "time": 38815
  },
  {
    "temp": 225.20201110839844,
    "load": 336334,
    "rate": 6.777087231874466,
    "requestedRate": 6.236275321151818,
    "time": 38995
  },
  {
    "temp": 224.84739685058594,
    "load": 338184,
    "rate": 6.81229364991188,
    "requestedRate": 6.236275321151818,
    "time": 39196
  },
  {
    "temp": 224.4720001220703,
    "load": 340716,
    "rate": 6.771530199050903,
    "requestedRate": 6.236275321151818,
    "time": 39393
  },
  {
    "temp": 224.123779296875,
    "load": 343224,
    "rate": 6.817522090673447,
    "requestedRate": 6.236275321151818,
    "time": 39587
  },
  {
    "temp": 223.79293823242188,
    "load": 345635,
    "rate": 6.741479201316833,
    "requestedRate": 6.236275321151818,
    "time": 39762
  },
  {
    "temp": 223.43275451660156,
    "load": 348775,
    "rate": 6.832693630456924,
    "requestedRate": 6.236275321151818,
    "time": 39942
  },
  {
    "temp": 223.23719787597656,
    "load": 349371,
    "rate": 6.793142935037613,
    "requestedRate": 6.236275321151818,
    "time": 40136
  },
  {
    "temp": 222.8881378173828,
    "load": 348441,
    "rate": 6.819620329141617,
    "requestedRate": 6.236275321151818,
    "time": 40317
  },
  {
    "temp": 222.5432891845703,
    "load": 351129,
    "rate": 6.925778439044953,
    "requestedRate": 6.236275321151818,
    "time": 40495
  },
  {
    "temp": 222.20111083984375,
    "load": 353778,
    "rate": 6.878765140771866,
    "requestedRate": 6.236275321151818,
    "time": 40674
  },
  {
    "temp": 221.8775177001953,
    "load": 355873,
    "rate": 6.9802319061756135,
    "requestedRate": 6.236275321151818,
    "time": 40854
  },
  {
    "temp": 221.7230987548828,
    "load": 359401,
    "rate": 6.974820034503937,
    "requestedRate": 6.236275321151818,
    "time": 41022
  },
  {
    "temp": 221.3927764892578,
    "load": 364900,
    "rate": 6.888276715278625,
    "requestedRate": 6.236275321151818,
    "time": 41163
  },
  {
    "temp": 221.20034790039062,
    "load": 367166,
    "rate": 6.7230692481994625,
    "requestedRate": 6.236275321151818,
    "time": 41339
  },
  {
    "temp": 220.85577392578125,
    "load": 368464,
    "rate": 6.941861854791641,
    "requestedRate": 6.236275321151818,
    "time": 41524
  },
  {
    "temp": 220.52557373046875,
    "load": 374343,
    "rate": 6.819673994779587,
    "requestedRate": 6.236275321151818,
    "time": 41707
  },
  {
    "temp": 220.20831298828125,
    "load": 380230,
    "rate": 6.670327363014221,
    "requestedRate": 6.236275321151818,
    "time": 41886
  },
  {
    "temp": 219.9131622314453,
    "load": 380614,
    "rate": 6.763139884471893,
    "requestedRate": 6.236275321151818,
    "time": 42061
  },
  {
    "temp": 219.739990234375,
    "load": 376627,
    "rate": 6.719895057678222,
    "requestedRate": 6.236275321151818,
    "time": 42265
  },
  {
    "temp": 219.439453125,
    "load": 380691,
    "rate": 6.782042945623398,
    "requestedRate": 6.236275321151818,
    "time": 42467
  },
  {
    "temp": 219.15499877929688,
    "load": 391602,
    "rate": 6.751661156415939,
    "requestedRate": 6.236275321151818,
    "time": 42649
  },
  {
    "temp": 218.88084411621094,
    "load": 394145,
    "rate": 6.751429778337479,
    "requestedRate": 6.236275321151818,
    "time": 42812
  },
  {
    "temp": 218.61328125,
    "load": 399782,
    "rate": 6.8174020028114315,
    "requestedRate": 6.236275321151818,
    "time": 42998
  },
  {
    "temp": 218.34994506835938,
    "load": 406017,
    "rate": 6.755600302219391,
    "requestedRate": 6.236275321151818,
    "time": 43214
  },
  {
    "temp": 218.0893096923828,
    "load": 407639,
    "rate": 6.839009020328522,
    "requestedRate": 6.236275321151818,
    "time": 43416
  },
  {
    "temp": 217.79969787597656,
    "load": 411661,
    "rate": 6.728467483520507,
    "requestedRate": 6.236275321151818,
    "time": 43577
  },
  {
    "temp": 217.6654510498047,
    "load": 418720,
    "rate": 6.800576065778732,
    "requestedRate": 6.236275321151818,
    "time": 43764
  },
  {
    "temp": 217.3749237060547,
    "load": 413074,
    "rate": 6.839188052415848,
    "requestedRate": 6.236275321151818,
    "time": 43976
  },
  {
    "temp": 217.0968780517578,
    "load": 416424,
    "rate": 6.850295959711075,
    "requestedRate": 6.236275321151818,
    "time": 44123
  },
  {
    "temp": 216.82681274414062,
    "load": 433310,
    "rate": 6.914451030492782,
    "requestedRate": 6.236275321151818,
    "time": 44295
  },
  {
    "temp": 216.7080535888672,
    "load": 446106,
    "rate": 7.012862813472748,
    "requestedRate": 6.236275321151818,
    "time": 44480
  },
  {
    "temp": 216.44491577148438,
    "load": 454167,
    "rate": 6.986168117523193,
    "requestedRate": 6.236275321151818,
    "time": 44681
  },
  {
    "temp": 216.14602661132812,
    "load": 462510,
    "rate": 7.006093465089798,
    "requestedRate": 6.236275321151818,
    "time": 44878
  },
  {
    "temp": 215.80636596679688,
    "load": 459609,
    "rate": 6.860846096277236,
    "requestedRate": 6.236275321151818,
    "time": 45044
  },
  {
    "temp": 215.44825744628906,
    "load": 450665,
    "rate": 6.823350970745087,
    "requestedRate": 6.236275321151818,
    "time": 45205
  },
  {
    "temp": 215.29818725585938,
    "load": 468966,
    "rate": 6.782821977138519,
    "requestedRate": 6.236275321151818,
    "time": 45370
  },
  {
    "temp": 215.00021362304688,
    "load": 490643,
    "rate": 6.73354460477829,
    "requestedRate": 6.236275321151818,
    "time": 45558
  },
  {
    "temp": 214.7071533203125,
    "load": 492119,
    "rate": 6.648528996706009,
    "requestedRate": 6.236275321151818,
    "time": 45727
  },
  {
    "temp": 214.41473388671875,
    "load": 498781,
    "rate": 6.738750611543655,
    "requestedRate": 6.236275321151818,
    "time": 45921
  },
  {
    "temp": 214.10986328125,
    "load": 511260,
    "rate": 6.6719223761558535,
    "requestedRate": 6.236275321151818,
    "time": 46091
  },
  {
    "temp": 213.97161865234375,
    "load": 509062,
    "rate": 6.659177666902542,
    "requestedRate": 6.236275321151818,
    "time": 46273
  },
  {
    "temp": 213.6804656982422,
    "load": 502120,
    "rate": 6.82815668463707,
    "requestedRate": 6.236275321151818,
    "time": 46463
  },
  {
    "temp": 213.40200805664062,
    "load": 506944,
    "rate": 6.777671395540238,
    "requestedRate": 6.236275321151818,
    "time": 46662
  },
  {
    "temp": 213.10610961914062,
    "load": 519283,
    "rate": 6.799756125211716,
    "requestedRate": 6.236275321151818,
    "time": 46840
  },
  {
    "temp": 212.81182861328125,
    "load": 534537,
    "rate": 6.737547973394394,
    "requestedRate": 6.236275321151818,
    "time": 47062
  },
  {
    "temp": 212.5186004638672,
    "load": 535770,
    "rate": 6.808666820526123,
    "requestedRate": 6.236275321151818,
    "time": 47263
  },
  {
    "temp": 212.2388153076172,
    "load": 545187,
    "rate": 6.699984666109085,
    "requestedRate": 6.236275321151818,
    "time": 47469
  },
  {
    "temp": 211.95742797851562,
    "load": 564451,
    "rate": 6.727929507493973,
    "requestedRate": 6.236275321151818,
    "time": 47663
  },
  {
    "temp": 211.65452575683594,
    "load": 593059,
    "rate": 6.619460256099701,
    "requestedRate": 6.236275321151818,
    "time": 47846
  },
  {
    "temp": 211.3685760498047,
    "load": 626235,
    "rate": 6.730660296678543,
    "requestedRate": 6.236275321151818,
    "time": 48033
  },
  {
    "temp": 211.06785583496094,
    "load": 639181,
    "rate": 6.878180097341537,
    "requestedRate": 6.236275321151818,
    "time": 48232
  },
  {
    "temp": 210.75772094726562,
    "load": 635014,
    "rate": 6.96607869386673,
    "requestedRate": 6.236275321151818,
    "time": 48442
  },
  {
    "temp": 210.46713256835938,
    "load": 639500,
    "rate": 6.925246181488037,
    "requestedRate": 6.236275321151818,
    "time": 48637
  },
  {
    "temp": 210.341064453125,
    "load": 636998,
    "rate": 6.79497944355011,
    "requestedRate": 6.236275321151818,
    "time": 48794
  },
  {
    "temp": 210.04183959960938,
    "load": 636057,
    "rate": 6.807089402675628,
    "requestedRate": 6.236275321151818,
    "time": 48982
  },
  {
    "temp": 209.73265075683594,
    "load": 638057,
    "rate": 6.721388897895813,
    "requestedRate": 6.236275321151818,
    "time": 49178
  },
  {
    "temp": 209.44265747070312,
    "load": 634131,
    "rate": 6.664187926054001,
    "requestedRate": 6.236275321151818,
    "time": 49400
  },
  {
    "temp": 209.1649627685547,
    "load": 626356,
    "rate": 6.55408583164215,
    "requestedRate": 6.236275321151818,
    "time": 49597
  },
  {
    "temp": 208.8644256591797,
    "load": 622501,
    "rate": 6.610504692792892,
    "requestedRate": 6.236275321151818,
    "time": 49767
  },
  {
    "temp": 208.5697479248047,
    "load": 630923,
    "rate": 6.737126126289367,
    "requestedRate": 6.236275321151818,
    "time": 49950
  },
  {
    "temp": 208.41380310058594,
    "load": 636768,
    "rate": 6.791704519987106,
    "requestedRate": 6.236275321151818,
    "time": 50139
  },
  {
    "temp": 208.13807678222656,
    "load": 637245,
    "rate": 6.663260214328766,
    "requestedRate": 6.236275321151818,
    "time": 50320
  },
  {
    "temp": 207.83880615234375,
    "load": 661286,
    "rate": 3.115815063714981,
    "requestedRate": 6.236275321151818,
    "time": 50491
  },
  {
    "temp": 207.5065460205078,
    "load": 415896,
    "rate": 4.518275456428528,
    "requestedRate": 6.236275321151818,
    "time": 50687
  },
  {
    "temp": 207.19923400878906,
    "load": 455857,
    "rate": 6.025843080282211,
    "requestedRate": 6.236275321151818,
    "time": 50866
  },
  {
    "temp": 206.9002227783203,
    "load": 414785,
    "rate": 6.521673545837403,
    "requestedRate": 6.236275321151818,
    "time": 51063
  },
  {
    "temp": 206.77117919921875,
    "load": 424788,
    "rate": 6.674861669540405,
    "requestedRate": 6.236275321151818,
    "time": 51235
  },
  {
    "temp": 206.4420623779297,
    "load": 457223,
    "rate": 6.709506357908249,
    "requestedRate": 6.236275321151818,
    "time": 51406
  },
  {
    "temp": 206.1393280029297,
    "load": 490341,
    "rate": 6.874457373619079,
    "requestedRate": 6.236275321151818,
    "time": 51591
  },
  {
    "temp": 205.8534698486328,
    "load": 500230,
    "rate": 6.781953209638595,
    "requestedRate": 6.236275321151818,
    "time": 51768
  },
  {
    "temp": 205.5579376220703,
    "load": 509973,
    "rate": 6.843132916688919,
    "requestedRate": 6.236275321151818,
    "time": 51952
  },
  {
    "temp": 205.40310668945312,
    "load": 502622,
    "rate": 6.892301198244095,
    "requestedRate": 6.236275321151818,
    "time": 52128
  }
]