[
  {
    "temp": 289.2257995605469,
    "load": 72889,
    "rate": 0.4144728360325098,
    "requestedRate": 0.41575168807678786,
    "time": 100
  },
  {
    "temp": 289.2270812988281,
    "load": 72461,
    "rate": 0.4766926172375679,
    "requestedRate": 0.41575168807678786,
    "time": 302
  },
  {
    "temp": 289.2279052734375,
    "load": 72302,
    "rate": 0.5229323275387288,
    "requestedRate": 0.41575168807678786,
    "time": 503
  },
  {
    "temp": 289.2284240722656,
    "load": 72005,
    "rate": 0.5193971586227417,
    "requestedRate": 0.41575168807678786,
    "time": 721
  },
  {
    "temp": 289.2288818359375,
    "load": 71913,
    "rate": 0.46225755035877225,
    "requestedRate": 0.41575168807678786,
    "time": 932
  },
  {
    "temp": 289.2290344238281,
    "load": 71913,
    "rate": 0.41317105941474436,
    "requestedRate": 0.41575168807678786,
    "time": 1135
  },
  {
    "temp": 289.2290954589844,
    "load": 72027,
    "rate": 0.36752032399177553,
    "requestedRate": 0.41575168807678786,
    "time": 1328
  },
  {
    "temp": 289.22918701171875,
    "load": 72039,
    "rate": 0.37887723214924335,
    "requestedRate": 0.41575168807678786,
    "time": 1519
  },
  {
    "temp": 289.229248046875,
    "load": 71877,
    "rate": 0.39380010098218915,
    "requestedRate": 0.41575168807678786,
    "time": 1728
  },
  {
    "temp": 289.2292785644531,
    "load": 71383,
    "rate": 0.3942149924486876,
    "requestedRate": 0.41575168807678786,
    "time": 1950
  },
  {
    "temp": 289.2292785644531,
    "load": 71846,
    "rate": 0.4177555949985981,
    "requestedRate": 0.41575168807678786,
    "time": 2142
  },
  {
    "temp": 289.2292785644531,
    "load": 71913,
    "rate": 0.4625342912971973,
    "requestedRate": 0.41575168807678786,
    "time": 2342
  },
  {
    "temp": 289.2292785644531,
    "load": 71755,
    "rate": 0.4976151779294014,
    "requestedRate": 0.41575168807678786,
    "time": 2541
  },
  {
    "temp": 289.2292785644531,
    "load": 71519,
    "rate": 0.5492273354530335,
    "requestedRate": 0.41575168807678786,
    "time": 2758
  },
  {
    "temp": 289.2292785644531,
    "load": 71483,
    "rate": 0.4910740734636784,
    "requestedRate": 0.41575168807678786,
    "time": 2965
  },
  {
    "temp": 289.2292785644531,
    "load": 71512,
    "rate": 0.42448180742561814,
    "requestedRate": 0.41575168807678786,
    "time": 3172
  },
  {
    "temp": 289.2292785644531,
    "load": 71528,
    "rate": 0.38181866995990277,
    "requestedRate": 0.41575168807678786,
    "time": 3364
  },
  {
    "temp": 289.1869201660156,
    "load": 71661,
    "rate": 0.3742071944475174,
    "requestedRate": 0.41575168807678786,
    "time": 3569
  },
  {
    "temp": 289.1344299316406,
    "load": 71639,
    "rate": 0.3719491137564182,
    "requestedRate": 0.41575168807678786,
    "time": 3795
  },
  {
    "temp": 288.9398498535156,
    "load": 71521,
    "rate": 0.38916808560490607,
    "requestedRate": 0.41575168807678786,
    "time": 4068
  },
  {
    "temp": 288.6676940917969,
    "load": 71514,
    "rate": 0.4627573116123676,
    "requestedRate": 0.41575168807678786,
    "time": 4281
  },
  {
    "temp": 288.5649108886719,
    "load": 71483,
    "rate": 0.4919454802572727,
    "requestedRate": 0.41575168807678786,
    "time": 4500
  },
  {
    "temp": 288.4991149902344,
    "load": 71385,
    "rate": 0.5030365620553493,
    "requestedRate": 0.41575168807678786,
    "time": 4707
  },
  {
    "temp": 288.45703125,
    "load": 71478,
    "rate": 0.5217192421853543,
    "requestedRate": 0.41575168807678786,
    "time": 4909
  },
  {
    "temp": 288.3877258300781,
    "load": 71420,
    "rate": 0.4513872619718313,
    "requestedRate": 0.41575168807678786,
    "time": 5121
  },
  {
    "temp": 288.1146545410156,
    "load": 71262,
    "rate": 0.4094118254631758,
    "requestedRate": 0.41575168807678786,
    "time": 5329
  },
  {
    "temp": 287.9059753417969,
    "load": 71217,
    "rate": 0.39775112360715864,
    "requestedRate": 0.41575168807678786,
    "time": 5517
  },
  {
    "temp": 287.7724304199219,
    "load": 71272,
    "rate": 0.37552590653300283,
    "requestedRate": 0.41575168807678786,
    "time": 5730
  },
  {
    "temp": 287.68695068359375,
    "load": 71275,
    "rate": 0.3716840022057295,
    "requestedRate": 0.41575168807678786,
    "time": 5938
  },
  {
    "temp": 287.4712829589844,
    "load": 71817,
    "rate": 0.4015699616074562,
    "requestedRate": 0.41575168807678786,
    "time": 6140
  },
  {
    "temp": 287.1892395019531,
    "load": 71951,
    "rate": 0.42727995358407495,
    "requestedRate": 0.41575168807678786,
    "time": 6349
  },
  {
    "temp": 287.00872802734375,
    "load": 71867,
    "rate": 0.4884361544251442,
    "requestedRate": 0.41575168807678786,
    "time": 6565
  },
  {
    "temp": 286.8932189941406,
    "load": 71893,
    "rate": 0.5407714784145355,
    "requestedRate": 0.41575168807678786,
    "time": 6776
  },
  {
    "temp": 286.615966796875,
    "load": 71877,
    "rate": 0.5334526620805263,
    "requestedRate": 0.41575168807678786,
    "time": 6974
  },
  {
    "temp": 286.33685302734375,
    "load": 71872,
    "rate": 0.4520431539416313,
    "requestedRate": 0.41575168807678786,
    "time": 7178
  },
  {
    "temp": 286.1582336425781,
    "load": 71900,
    "rate": 0.38609372086822985,
    "requestedRate": 0.41575168807678786,
    "time": 7392
  },
  {
    "temp": 285.6169738769531,
    "load": 71882,
    "rate": 0.36697264306247235,
    "requestedRate": 0.41575168807678786,
    "time": 7588
  },
  {
    "temp": 285.39251708984375,
    "load": 72008,
    "rate": 0.3672809455543756,
    "requestedRate": 0.41575168807678786,
    "time": 7777
  },
  {
    "temp": 285.2488708496094,
    "load": 72036,
    "rate": 0.3702433052659035,
    "requestedRate": 0.41575168807678786,
    "time": 7990
  },
  {
    "temp": 284.894287109375,
    "load": 72144,
    "rate": 0.41042572662234306,
    "requestedRate": 0.41575168807678786,
    "time": 8209
  },
  {
    "temp": 284.625,
    "load": 72209,
    "rate": 0.4663240970671177,
    "requestedRate": 0.41575168807678786,
    "time": 8426
  },
  {
    "temp": 284.4102783203125,
    "load": 72203,
    "rate": 0.4938516001403332,
    "requestedRate": 0.41575168807678786,
    "time": 8634
  },
  {
    "temp": 284.1119079589844,
    "load": 71907,
    "rate": 0.5321869558095932,
    "requestedRate": 0.41575168807678786,
    "time": 8855
  },
  {
    "temp": 283.81927490234375,
    "load": 71681,
    "rate": 0.49624291017651556,
    "requestedRate": 0.41575168807678786,
    "time": 9063
  },
  {
    "temp": 283.63201904296875,
    "load": 71621,
    "rate": 0.43829290129244325,
    "requestedRate": 0.41575168807678786,
    "time": 9254
  },
  {
    "temp": 283.308837890625,
    "load": 71706,
    "rate": 0.41206874191761017,
    "requestedRate": 0.41575168807678786,
    "time": 9836
  },
  {
    "temp": 282.3173522949219,
    "load": 72438,
    "rate": 0.38343221314251424,
    "requestedRate": 0.41575168807678786,
    "time": 10033
  },
  {
    "temp": 282.0608215332031,
    "load": 71854,
    "rate": 0.3986794951558113,
    "requestedRate": 0.41575168807678786,
    "time": 10262
  },
  {
    "temp": 281.69329833984375,
    "load": 71775,
    "rate": 0.4681610454618931,
    "requestedRate": 0.41575168807678786,
    "time": 10483
  },
  {
    "temp": 281.3564453125,
    "load": 71890,
    "rate": 0.5353000576794147,
    "requestedRate": 0.41575168807678786,
    "time": 10678
  },
  {
    "temp": 281.1408386230469,
    "load": 71950,
    "rate": 0.5411509318649769,
    "requestedRate": 0.41575168807678786,
    "time": 10878
  },
  {
    "temp": 280.73944091796875,
    "load": 72345,
    "rate": 0.5188630865514279,
    "requestedRate": 0.41575168807678786,
    "time": 11078
  },
  {
    "temp": 280.4496154785156,
    "load": 72526,
    "rate": 0.434607567563653,
    "requestedRate": 0.41575168807678786,
    "time": 11269
  },
  {
    "temp": 280.1151123046875,
    "load": 72364,
    "rate": 0.3933250556141138,
    "requestedRate": 0.41575168807678786,
    "time": 11485
  },
  {
    "temp": 279.8265075683594,
    "load": 72497,
    "rate": 0.38928712874650956,
    "requestedRate": 0.41575168807678786,
    "time": 11704
  },
  {
    "temp": 279.61077880859375,
    "load": 72575,
    "rate": 0.3879649800807238,
    "requestedRate": 0.41575168807678786,
    "time": 11934
  },
  {
    "temp": 279.1825866699219,
    "load": 72585,
    "rate": 0.40889125227928164,
    "requestedRate": 0.41575168807678786,
    "time": 12143
  },
  {
    "temp": 278.97515869140625,
    "load": 72550,
    "rate": 0.42892398610711097,
    "requestedRate": 0.41575168807678786,
    "time": 12357
  },
  {
    "temp": 278.64990234375,
    "load": 72459,
    "rate": 0.46126858502626417,
    "requestedRate": 0.41575168807678786,
    "time": 12569
  },
  {
    "temp": 278.4417724609375,
    "load": 72445,
    "rate": 0.49540202021598817,
    "requestedRate": 0.41575168807678786,
    "time": 12760
  },
  {
    "temp": 278.1905517578125,
    "load": 72350,
    "rate": 0.5200529131293297,
    "requestedRate": 0.41575168807678786,
    "time": 12959
  },
  {
    "temp": 277.92425537109375,
    "load": 72327,
    "rate": 0.5122786536812782,
    "requestedRate": 0.41575168807678786,
    "time": 13171
  },
  {
    "temp": 277.6917419433594,
    "load": 72366,
    "rate": 0.47416901260614397,
    "requestedRate": 0.41575168807678786,
    "time": 13374
  },
  {
    "temp": 277.3815002441406,
    "load": 72267,
    "rate": 0.39743251137435437,
    "requestedRate": 0.41575168807678786,
    "time": 13587
  },
  {
    "temp": 277.18292236328125,
    "load": 72086,
    "rate": 0.3738990844041109,
    "requestedRate": 0.41575168807678786,
    "time": 13804
  },
  {
    "temp": 276.8819885253906,
    "load": 72076,
    "rate": 0.37906712383031843,
    "requestedRate": 0.41575168807678786,
    "time": 14025
  },
  {
    "temp": 276.6645812988281,
    "load": 72053,
    "rate": 0.38441161103546617,
    "requestedRate": 0.41575168807678786,
    "time": 14219
  },
  {
    "temp": 276.3764343261719,
    "load": 72148,
    "rate": 0.45960101880133153,
    "requestedRate": 0.41575168807678786,
    "time": 14441
  },
  {
    "temp": 275.99176025390625,
    "load": 72156,
    "rate": 0.49576420828700063,
    "requestedRate": 0.41575168807678786,
    "time": 14659
  },
  {
    "temp": 275.6726379394531,
    "load": 72181,
    "rate": 0.5109162282943726,
    "requestedRate": 0.41575168807678786,
    "time": 14882
  },
  {
    "temp": 275.4187316894531,
    "load": 72066,
    "rate": 0.5412929038703441,
    "requestedRate": 0.41575168807678786,
    "time": 15108
  },
  {
    "temp": 275.1320495605469,
    "load": 72088,
    "rate": 0.4683396376669407,
    "requestedRate": 0.41575168807678786,
    "time": 15336
  },
  {
    "temp": 274.8492126464844,
    "load": 71909,
    "rate": 0.41225582934916016,
    "requestedRate": 0.41575168807678786,
    "time": 15544
  },
  {
    "temp": 274.5502624511719,
    "load": 71815,
    "rate": 0.39294301785528657,
    "requestedRate": 0.41575168807678786,
    "time": 15756
  },
  {
    "temp": 274.25335693359375,
    "load": 71889,
    "rate": 0.3944483225047588,
    "requestedRate": 0.41575168807678786,
    "time": 15949
  },
  {
    "temp": 274.0633544921875,
    "load": 72025,
    "rate": 0.39771879225969314,
    "requestedRate": 0.41575168807678786,
    "time": 16142
  },
  {
    "temp": 273.7182312011719,
    "load": 72045,
    "rate": 0.3948398452252149,
    "requestedRate": 0.41575168807678786,
    "time": 16348
  },
  {
    "temp": 273.4973449707031,
    "load": 72085,
    "rate": 0.43739974781870844,
    "requestedRate": 0.41575168807678786,
    "time": 16556
  },
  {
    "temp": 273.1324768066406,
    "load": 72172,
    "rate": 0.49948517248034474,
    "requestedRate": 0.41575168807678786,
    "time": 16753
  },
  {
    "temp": 272.8989562988281,
    "load": 72084,
    "rate": 0.5057118161022663,
    "requestedRate": 0.41575168807678786,
    "time": 16958
  },
  {
    "temp": 272.41326904296875,
    "load": 72115,
    "rate": 0.5636646567285061,
    "requestedRate": 0.41575168807678786,
    "time": 17188
  },
  {
    "temp": 272.12200927734375,
    "load": 72015,
    "rate": 0.47431758284568787,
    "requestedRate": 0.41575168807678786,
    "time": 17388
  },
  {
    "temp": 271.8052673339844,
    "load": 71910,
    "rate": 0.42280934751033783,
    "requestedRate": 0.41575168807678786,
    "time": 17586
  },
  {
    "temp": 271.5404357910156,
    "load": 71911,
    "rate": 0.3974144762009382,
    "requestedRate": 0.41575168807678786,
    "time": 17806
  },
  {
    "temp": 271.20953369140625,
    "load": 71933,
    "rate": 0.3795075009763241,
    "requestedRate": 0.41575168807678786,
    "time": 18003
  },
  {
    "temp": 270.9046325683594,
    "load": 71881,
    "rate": 0.4012472529709339,
    "requestedRate": 0.41575168807678786,
    "time": 18231
  },
  {
    "temp": 270.6101379394531,
    "load": 71736,
    "rate": 0.4437524726986885,
    "requestedRate": 0.41575168807678786,
    "time": 18451
  },
  {
    "temp": 270.390625,
    "load": 71470,
    "rate": 0.45573335386812686,
    "requestedRate": 0.41575168807678786,
    "time": 18673
  },
  {
    "temp": 270.0514221191406,
    "load": 71321,
    "rate": 0.509284649938345,
    "requestedRate": 0.41575168807678786,
    "time": 18894
  },
  {
    "temp": 269.6253967285156,
    "load": 71242,
    "rate": 0.5131750237941742,
    "requestedRate": 0.41575168807678786,
    "time": 19108
  },
  {
    "temp": 269.3133544921875,
    "load": 71176,
    "rate": 0.5228558979928494,
    "requestedRate": 0.41575168807678786,
    "time": 19326
  },
  {
    "temp": 268.9646301269531,
    "load": 71248,
    "rate": 0.44141766004264354,
    "requestedRate": 0.41575168807678786,
    "time": 19543
  },
  {
    "temp": 268.6669616699219,
    "load": 71411,
    "rate": 0.40552752748131754,
    "requestedRate": 0.41575168807678786,
    "time": 19751
  },
  {
    "temp": 268.3274230957031,
    "load": 71374,
    "rate": 0.3841523554176092,
    "requestedRate": 0.41575168807678786,
    "time": 19964
  },
  {
    "temp": 268.0356140136719,
    "load": 71380,
    "rate": 0.38192031025886536,
    "requestedRate": 0.41575168807678786,
    "time": 20188
  },
  {
    "temp": 267.72467041015625,
    "load": 71447,
    "rate": 0.3818176252394915,
    "requestedRate": 0.41575168807678786,
    "time": 20392
  },
  {
    "temp": 267.42633056640625,
    "load": 71478,
    "rate": 0.43656663827598097,
    "requestedRate": 0.41575168807678786,
    "time": 20587
  },
  {
    "temp": 267.1112060546875,
    "load": 71508,
    "rate": 0.4614503113925457,
    "requestedRate": 0.41575168807678786,
    "time": 20797
  },
  {
    "temp": 266.8101806640625,
    "load": 71455,
    "rate": 0.5058015520870686,
    "requestedRate": 0.41575168807678786,
    "time": 20985
  },
  {
    "temp": 266.4685363769531,
    "load": 71609,
    "rate": 0.5480562588572502,
    "requestedRate": 0.41575168807678786,
    "time": 21210
  },
  {
    "temp": 266.04010009765625,
    "load": 71579,
    "rate": 0.4978309951722622,
    "requestedRate": 0.41575168807678786,
    "time": 21412
  },
  {
    "temp": 265.67767333984375,
    "load": 71483,
    "rate": 0.42485210582613947,
    "requestedRate": 0.41575168807678786,
    "time": 21634
  },
  {
    "temp": 265.38360595703125,
    "load": 71551,
    "rate": 0.3943483317643404,
    "requestedRate": 0.41575168807678786,
    "time": 21868
  },
  {
    "temp": 265.0339660644531,
    "load": 71651,
    "rate": 0.38860316678881646,
    "requestedRate": 0.41575168807678786,
    "time": 22061
  },
  {
    "temp": 264.6612243652344,
    "load": 71785,
    "rate": 0.4109524856507778,
    "requestedRate": 0.41575168807678786,
    "time": 22302
  },
  {
    "temp": 264.34814453125,
    "load": 71794,
    "rate": 0.3900463930517435,
    "requestedRate": 0.41575168807678786,
    "time": 22508
  },
  {
    "temp": 263.9490661621094,
    "load": 71803,
    "rate": 0.4415334865450859,
    "requestedRate": 0.41575168807678786,
    "time": 22706
  },
  {
    "temp": 263.6688537597656,
    "load": 71888,
    "rate": 0.47308679223060607,
    "requestedRate": 0.41575168807678786,
    "time": 22930
  },
  {
    "temp": 263.14263916015625,
    "load": 71966,
    "rate": 0.47298809364438055,
    "requestedRate": 0.41575168807678786,
    "time": 23130
  },
  {
    "temp": 262.8050537109375,
    "load": 72013,
    "rate": 0.5239910142123699,
    "requestedRate": 0.41575168807678786,
    "time": 23336
  },
  {
    "temp": 262.4896545410156,
    "load": 72137,
    "rate": 0.5136083628237247,
    "requestedRate": 0.41575168807678786,
    "time": 23567
  },
  {
    "temp": 262.06427001953125,
    "load": 72041,
    "rate": 0.4232530787587166,
    "requestedRate": 0.41575168807678786,
    "time": 23759
  },
  {
    "temp": 261.7920227050781,
    "load": 71907,
    "rate": 0.3974485945701599,
    "requestedRate": 0.41575168807678786,
    "time": 23981
  },
  {
    "temp": 261.3942565917969,
    "load": 72145,
    "rate": 0.3616529817134142,
    "requestedRate": 0.41575168807678786,
    "time": 24204
  },
  {
    "temp": 261.13970947265625,
    "load": 72136,
    "rate": 0.38766462296247484,
    "requestedRate": 0.41575168807678786,
    "time": 24430
  },
  {
    "temp": 260.6158752441406,
    "load": 72192,
    "rate": 0.43128502674400804,
    "requestedRate": 0.41575168807678786,
    "time": 24643
  },
  {
    "temp": 260.304443359375,
    "load": 72315,
    "rate": 0.48863932505249974,
    "requestedRate": 0.41575168807678786,
    "time": 24846
  },
  {
    "temp": 260.04833984375,
    "load": 72327,
    "rate": 0.499082955121994,
    "requestedRate": 0.41575168807678786,
    "time": 25070
  },
  {
    "temp": 259.7386169433594,
    "load": 72209,
    "rate": 0.4981851553916931,
    "requestedRate": 0.41575168807678786,
    "time": 25281
  },
  {
    "temp": 259.52215576171875,
    "load": 72152,
    "rate": 0.5084763112664222,
    "requestedRate": 0.41575168807678786,
    "time": 25478
  },
  {
    "temp": 259.2196044921875,
    "load": 72070,
    "rate": 0.47323173344135283,
    "requestedRate": 0.41575168807678786,
    "time": 25720
  },
  {
    "temp": 259.003173828125,
    "load": 72165,
    "rate": 0.3965029026567936,
    "requestedRate": 0.41575168807678786,
    "time": 25952
  },
  {
    "temp": 258.62396240234375,
    "load": 72277,
    "rate": 0.38893148392438887,
    "requestedRate": 0.41575168807678786,
    "time": 26168
  },
  {
    "temp": 258.3166809082031,
    "load": 72352,
    "rate": 0.37582307450473307,
    "requestedRate": 0.41575168807678786,
    "time": 26353
  },
  {
    "temp": 258.09722900390625,
    "load": 72106,
    "rate": 0.37983196914196016,
    "requestedRate": 0.41575168807678786,
    "time": 26551
  },
  {
    "temp": 257.94073486328125,
    "load": 71875,
    "rate": 0.4252134691178799,
    "requestedRate": 0.41575168807678786,
    "time": 26763
  },
  {
    "temp": 257.5668640136719,
    "load": 71904,
    "rate": 0.4636653386056423,
    "requestedRate": 0.41575168807678786,
    "time": 26954
  },
  {
    "temp": 257.3120422363281,
    "load": 71972,
    "rate": 0.5023245576024056,
    "requestedRate": 0.41575168807678786,
    "time": 27173
  },
  {
    "temp": 257.1033935546875,
    "load": 72082,
    "rate": 0.5397246135771274,
    "requestedRate": 0.41575168807678786,
    "time": 27380
  },
  {
    "temp": 256.8514099121094,
    "load": 72159,
    "rate": 0.49306580543518064,
    "requestedRate": 0.41575168807678786,
    "time": 27588
  },
  {
    "temp": 256.6035461425781,
    "load": 72165,
    "rate": 0.4271662440150976,
    "requestedRate": 0.41575168807678786,
    "time": 27804
  },
  {
    "temp": 256.367431640625,
    "load": 72126,
    "rate": 0.3927083406597376,
    "requestedRate": 0.41575168807678786,
    "time": 28025
  },
  {
    "temp": 256.05230712890625,
    "load": 72167,
    "rate": 0.37527242437005043,
    "requestedRate": 0.41575168807678786,
    "time": 28224
  },
  {
    "temp": 255.82781982421875,
    "load": 72220,
    "rate": 0.39926684796810147,
    "requestedRate": 0.41575168807678786,
    "time": 28436
  },
  {
    "temp": 255.54290771484375,
    "load": 72312,
    "rate": 0.41418182641267776,
    "requestedRate": 0.41575168807678786,
    "time": 28639
  },
  {
    "temp": 255.3149871826172,
    "load": 72389,
    "rate": 0.4552957809716463,
    "requestedRate": 0.41575168807678786,
    "time": 28837
  },
  {
    "temp": 255.05064392089844,
    "load": 72441,
    "rate": 0.4736192697286606,
    "requestedRate": 0.41575168807678786,
    "time": 29059
  },
  {
    "temp": 254.7903289794922,
    "load": 72407,
    "rate": 0.46918811559677126,
    "requestedRate": 0.41575168807678786,
    "time": 29258
  },
  {
    "temp": 254.5508270263672,
    "load": 72437,
    "rate": 0.5141771855950356,
    "requestedRate": 0.41575168807678786,
    "time": 29480
  },
  {
    "temp": 254.12071228027344,
    "load": 72578,
    "rate": 0.473700757920742,
    "requestedRate": 0.41575168807678786,
    "time": 29699
  },
  {
    "temp": 253.79420471191406,
    "load": 72504,
    "rate": 0.424146204739809,
    "requestedRate": 0.41575168807678786,
    "time": 29899
  },
  {
    "temp": 253.5396728515625,
    "load": 72501,
    "rate": 0.39795146249234675,
    "requestedRate": 0.41575168807678786,
    "time": 30118
  },
  {
    "temp": 253.25831604003906,
    "load": 72498,
    "rate": 0.3655793709307909,
    "requestedRate": 0.41575168807678786,
    "time": 30319
  },
  {
    "temp": 253.0098876953125,
    "load": 72468,
    "rate": 0.3644520901143551,
    "requestedRate": 0.41575168807678786,
    "time": 30531
  },
  {
    "temp": 252.7552032470703,
    "load": 72432,
    "rate": 0.3999424521625042,
    "requestedRate": 0.41575168807678786,
    "time": 30744
  },
  {
    "temp": 252.46461486816406,
    "load": 72503,
    "rate": 0.4495343128591776,
    "requestedRate": 0.41575168807678786,
    "time": 30951
  },
  {
    "temp": 252.24220275878906,
    "load": 72561,
    "rate": 0.5065649127960205,
    "requestedRate": 0.41575168807678786,
    "time": 31161
  },
  {
    "temp": 251.9540252685547,
    "load": 72734,
    "rate": 0.5089646355807781,
    "requestedRate": 0.41575168807678786,
    "time": 31382
  },
  {
    "temp": 251.70579528808594,
    "load": 72553,
    "rate": 0.5051515710353851,
    "requestedRate": 0.41575168807678786,
    "time": 31592
  },
  {
    "temp": 251.428466796875,
    "load": 72561,
    "rate": 0.4472950921207666,
    "requestedRate": 0.41575168807678786,
    "time": 31808
  },
  {
    "temp": 251.0238494873047,
    "load": 72555,
    "rate": 0.3955656784772873,
    "requestedRate": 0.41575168807678786,
    "time": 32022
  },
  {
    "temp": 250.7596435546875,
    "load": 72529,
    "rate": 0.397862991169095,
    "requestedRate": 0.41575168807678786,
    "time": 32218
  },
  {
    "temp": 250.49485778808594,
    "load": 72618,
    "rate": 0.3957196922600269,
    "requestedRate": 0.41575168807678786,
    "time": 32440
  },
  {
    "temp": 250.21604919433594,
    "load": 72586,
    "rate": 0.379915876686573,
    "requestedRate": 0.41575168807678786,
    "time": 32645
  },
  {
    "temp": 249.91456604003906,
    "load": 72677,
    "rate": 0.3962334472686052,
    "requestedRate": 0.41575168807678786,
    "time": 32863
  },
  {
    "temp": 249.6259307861328,
    "load": 72589,
    "rate": 0.43081809170544144,
    "requestedRate": 0.41575168807678786,
    "time": 33077
  },
  {
    "temp": 249.31362915039062,
    "load": 72591,
    "rate": 0.4850606627762318,
    "requestedRate": 0.41575168807678786,
    "time": 33294
  },
  {
    "temp": 249.00894165039062,
    "load": 72712,
    "rate": 0.5375331200659275,
    "requestedRate": 0.41575168807678786,
    "time": 33485
  },
  {
    "temp": 248.71824645996094,
    "load": 72874,
    "rate": 0.49788334116339683,
    "requestedRate": 0.41575168807678786,
    "time": 33699
  },
  {
    "temp": 248.44107055664062,
    "load": 72869,
    "rate": 0.4298618426173925,
    "requestedRate": 0.41575168807678786,
    "time": 33910
  },
  {
    "temp": 248.19078063964844,
    "load": 72834,
    "rate": 0.37186014756560326,
    "requestedRate": 0.41575168807678786,
    "time": 34122
  },
  {
    "temp": 247.7512969970703,
    "load": 72901,
    "rate": 0.35800990417599676,
    "requestedRate": 0.41575168807678786,
    "time": 34364
  },
  {
    "temp": 247.43946838378906,
    "load": 72931,
    "rate": 0.3849359232187271,
    "requestedRate": 0.41575168807678786,
    "time": 34583
  },
  {
    "temp": 247.17611694335938,
    "load": 73067,
    "rate": 0.3999630166590214,
    "requestedRate": 0.41575168807678786,
    "time": 34799
  },
  {
    "temp": 246.88909912109375,
    "load": 73034,
    "rate": 0.461530424952507,
    "requestedRate": 0.41575168807678786,
    "time": 34996
  },
  {
    "temp": 246.55958557128906,
    "load": 73085,
    "rate": 0.49339032858610155,
    "requestedRate": 0.41575168807678786,
    "time": 35213
  },
  {
    "temp": 246.284912109375,
    "load": 73053,
    "rate": 0.4920417594909668,
    "requestedRate": 0.41575168807678786,
    "time": 35412
  },
  {
    "temp": 245.99066162109375,
    "load": 72983,
    "rate": 0.5172032457590103,
    "requestedRate": 0.41575168807678786,
    "time": 35613
  },
  {
    "temp": 245.73399353027344,
    "load": 73089,
    "rate": 0.4635279303789139,
    "requestedRate": 0.41575168807678786,
    "time": 35832
  },
  {
    "temp": 245.4740447998047,
    "load": 72999,
    "rate": 0.41256184995174405,
    "requestedRate": 0.41575168807678786,
    "time": 36049
  },
  {
    "temp": 245.02615356445312,
    "load": 73034,
    "rate": 0.3996397031843662,
    "requestedRate": 0.41575168807678786,
    "time": 36266
  },
  {
    "temp": 244.6929473876953,
    "load": 73154,
    "rate": 0.38313323065638544,
    "requestedRate": 0.41575168807678786,
    "time": 36460
  },
  {
    "temp": 244.41134643554688,
    "load": 72965,
    "rate": 0.3919768714159727,
    "requestedRate": 0.41575168807678786,
    "time": 36652
  },
  {
    "temp": 244.1354217529297,
    "load": 72952,
    "rate": 0.3972831713408232,
    "requestedRate": 0.41575168807678786,
    "time": 36854
  },
  {
    "temp": 243.81301879882812,
    "load": 72823,
    "rate": 0.408702212870121,
    "requestedRate": 0.41575168807678786,
    "time": 37055
  },
  {
    "temp": 243.52011108398438,
    "load": 72928,
    "rate": 0.47240871369838716,
    "requestedRate": 0.41575168807678786,
    "time": 37266
  },
  {
    "temp": 243.2369384765625,
    "load": 73123,
    "rate": 0.5112366275489331,
    "requestedRate": 0.41575168807678786,
    "time": 37478
  },
  {
    "temp": 242.9281463623047,
    "load": 73217,
    "rate": 0.5677866286039353,
    "requestedRate": 0.41575168807678786,
    "time": 37703
  },
  {
    "temp": 242.64849853515625,
    "load": 73276,
    "rate": 0.47459239929914476,
    "requestedRate": 0.41575168807678786,
    "time": 37913
  },
  {
    "temp": 242.35104370117188,
    "load": 73545,
    "rate": 0.3983752615749836,
    "requestedRate": 0.41575168807678786,
    "time": 38148
  },
  {
    "temp": 241.99664306640625,
    "load": 73024,
    "rate": 0.3895721999555826,
    "requestedRate": 0.41575168807678786,
    "time": 38330
  },
  {
    "temp": 241.67869567871094,
    "load": 72860,
    "rate": 0.38442183829843996,
    "requestedRate": 0.41575168807678786,
    "time": 38543
  },
  {
    "temp": 241.40231323242188,
    "load": 72751,
    "rate": 0.39697486884891986,
    "requestedRate": 0.41575168807678786,
    "time": 38755
  },
  {
    "temp": 241.07960510253906,
    "load": 72658,
    "rate": 0.4325042154639959,
    "requestedRate": 0.41575168807678786,
    "time": 38982
  },
  {
    "temp": 240.6473846435547,
    "load": 72608,
    "rate": 0.4602804444730282,
    "requestedRate": 0.41575168807678786,
    "time": 39199
  },
  {
    "temp": 240.36361694335938,
    "load": 72613,
    "rate": 0.48699383541941643,
    "requestedRate": 0.41575168807678786,
    "time": 39408
  },
  {
    "temp": 240.1111602783203,
    "load": 72622,
    "rate": 0.5147850479185581,
    "requestedRate": 0.41575168807678786,
    "time": 39595
  },
  {
    "temp": 239.82809448242188,
    "load": 72664,
    "rate": 0.4977759549021721,
    "requestedRate": 0.41575168807678786,
    "time": 39811
  },
  {
    "temp": 239.5794677734375,
    "load": 72618,
    "rate": 0.4586998099833727,
    "requestedRate": 0.41575168807678786,
    "time": 40027
  },
  {
    "temp": 239.36636352539062,
    "load": 72587,
    "rate": 0.4222944103181362,
    "requestedRate": 0.41575168807678786,
    "time": 40238
  },
  {
    "temp": 239.1085205078125,
    "load": 72767,
    "rate": 0.3840077991038561,
    "requestedRate": 0.41575168807678786,
    "time": 40444
  },
  {
    "temp": 238.8760223388672,
    "load": 72723,
    "rate": 0.37356953009963034,
    "requestedRate": 0.41575168807678786,
    "time": 40661
  },
  {
    "temp": 238.6732177734375,
    "load": 72837,
    "rate": 0.375550567433238,
    "requestedRate": 0.41575168807678786,
    "time": 40886
  },
  {
    "temp": 238.33265686035156,
    "load": 72807,
    "rate": 0.41360992446541783,
    "requestedRate": 0.41575168807678786,
    "time": 41101
  },
  {
    "temp": 238.0825653076172,
    "load": 72918,
    "rate": 0.5037047432363033,
    "requestedRate": 0.41575168807678786,
    "time": 41303
  },
  {
    "temp": 237.8415069580078,
    "load": 73165,
    "rate": 0.5279725536704063,
    "requestedRate": 0.41575168807678786,
    "time": 41551
  },
  {
    "temp": 237.5961456298828,
    "load": 73252,
    "rate": 0.5340898315608501,
    "requestedRate": 0.41575168807678786,
    "time": 41762
  },
  {
    "temp": 237.36825561523438,
    "load": 73341,
    "rate": 0.44406415678560734,
    "requestedRate": 0.41575168807678786,
    "time": 41981
  },
  {
    "temp": 237.01670837402344,
    "load": 73129,
    "rate": 0.3947462602704763,
    "requestedRate": 0.41575168807678786,
    "time": 42208
  },
  {
    "temp": 236.75448608398438,
    "load": 73054,
    "rate": 0.3839623262733221,
    "requestedRate": 0.41575168807678786,
    "time": 42398
  },
  {
    "temp": 236.51919555664062,
    "load": 73103,
    "rate": 0.3755732213705778,
    "requestedRate": 0.41575168807678786,
    "time": 42620
  },
  {
    "temp": 236.3146209716797,
    "load": 73052,
    "rate": 0.40206724852323533,
    "requestedRate": 0.41575168807678786,
    "time": 42835
  },
  {
    "temp": 236.06224060058594,
    "load": 73086,
    "rate": 0.43047748535871505,
    "requestedRate": 0.41575168807678786,
    "time": 43044
  },
  {
    "temp": 235.77923583984375,
    "load": 73025,
    "rate": 0.4478448624908924,
    "requestedRate": 0.41575168807678786,
    "time": 43244
  },
  {
    "temp": 235.5306396484375,
    "load": 72826,
    "rate": 0.5112243108451366,
    "requestedRate": 0.41575168807678786,
    "time": 43451
  },
  {
    "temp": 235.30068969726562,
    "load": 72677,
    "rate": 0.5165938438475132,
    "requestedRate": 0.41575168807678786,
    "time": 43660
  },
  {
    "temp": 235.04893493652344,
    "load": 73345,
    "rate": 0.5393876087665558,
    "requestedRate": 0.41575168807678786,
    "time": 43902
  },
  {
    "temp": 234.7798309326172,
    "load": 73606,
    "rate": 0.4820810651779175,
    "requestedRate": 0.41575168807678786,
    "time": 44127
  },
  {
    "temp": 234.4066162109375,
    "load": 74074,
    "rate": 0.4300317746400833,
    "requestedRate": 0.41575168807678786,
    "time": 44346
  },
  {
    "temp": 234.1831817626953,
    "load": 74350,
    "rate": 0.4029699694365263,
    "requestedRate": 0.41575168807678786,
    "time": 44564
  },
  {
    "temp": 233.9524688720703,
    "load": 74828,
    "rate": 0.3954516939818859,
    "requestedRate": 0.41575168807678786,
    "time": 44751
  },
  {
    "temp": 233.7001953125,
    "load": 74864,
    "rate": 0.39156310714781284,
    "requestedRate": 0.41575168807678786,
    "time": 44947
  },
  {
    "temp": 233.4442901611328,
    "load": 74019,
    "rate": 0.4149432076513767,
    "requestedRate": 0.41575168807678786,
    "time": 45162
  },
  {
    "temp": 233.18603515625,
    "load": 74084,
    "rate": 0.44400820925831797,
    "requestedRate": 0.41575168807678786,
    "time": 45371
  },
  {
    "temp": 232.96678161621094,
    "load": 74192,
    "rate": 0.5017887260019779,
    "requestedRate": 0.41575168807678786,
    "time": 45581
  },
  {
    "temp": 232.70497131347656,
    "load": 74477,
    "rate": 0.5485908257961273,
    "requestedRate": 0.41575168807678786,
    "time": 45776
  },
  {
    "temp": 232.46995544433594,
    "load": 74664,
    "rate": 0.49986402109265327,
    "requestedRate": 0.41575168807678786,
    "time": 45988
  },
  {
    "temp": 232.21493530273438,
    "load": 74460,
    "rate": 0.4365423072874546,
    "requestedRate": 0.41575168807678786,
    "time": 46194
  },
  {
    "temp": 231.98089599609375,
    "load": 74212,
    "rate": 0.39901419058442117,
    "requestedRate": 0.41575168807678786,
    "time": 46413
  },
  {
    "temp": 231.70962524414062,
    "load": 74272,
    "rate": 0.37771143414080144,
    "requestedRate": 0.41575168807678786,
    "time": 46629
  },
  {
    "temp": 231.45504760742188,
    "load": 74526,
    "rate": 0.41005237653851506,
    "requestedRate": 0.41575168807678786,
    "time": 46855
  },
  {
    "temp": 231.09832763671875,
    "load": 74942,
    "rate": 0.4026658458262682,
    "requestedRate": 0.41575168807678786,
    "time": 47056
  },
  {
    "temp": 230.83438110351562,
    "load": 74957,
    "rate": 0.4179473286867142,
    "requestedRate": 0.41575168807678786,
    "time": 47273
  },
  {
    "temp": 230.61146545410156,
    "load": 75025,
    "rate": 0.46712836682796477,
    "requestedRate": 0.41575168807678786,
    "time": 47485
  },
  {
    "temp": 230.34735107421875,
    "load": 75108,
    "rate": 0.4935496209561825,
    "requestedRate": 0.41575168807678786,
    "time": 47705
  },
  {
    "temp": 230.0872039794922,
    "load": 75300,
    "rate": 0.541048934161663,
    "requestedRate": 0.41575168807678786,
    "time": 47927
  },
  {
    "temp": 229.8228759765625,
    "load": 75729,
    "rate": 0.48746967807412145,
    "requestedRate": 0.41575168807678786,
    "time": 48135
  },
  {
    "temp": 229.4394073486328,
    "load": 76261,
    "rate": 0.415411214902997,
    "requestedRate": 0.41575168807678786,
    "time": 48384
  },
  {
    "temp": 229.1653594970703,
    "load": 76210,
    "rate": 0.38847881756722924,
    "requestedRate": 0.41575168807678786,
    "time": 48596
  },
  {
    "temp": 228.9359893798828,
    "load": 76002,
    "rate": 0.3668876358121633,
    "requestedRate": 0.41575168807678786,
    "time": 48803
  },
  {
    "temp": 228.66770935058594,
    "load": 75680,
    "rate": 0.3812368706613779,
    "requestedRate": 0.41575168807678786,
    "time": 49007
  },
  {
    "temp": 228.41505432128906,
    "load": 74492,
    "rate": 0.4062434358894825,
    "requestedRate": 0.41575168807678786,
    "time": 49239
  },
  {
    "temp": 228.14537048339844,
    "load": 75190,
    "rate": 0.45643493860960005,
    "requestedRate": 0.41575168807678786,
    "time": 49453
  },
  {
    "temp": 227.7572479248047,
    "load": 76146,
    "rate": 0.5268396918475627,
    "requestedRate": 0.41575168807678786,
    "time": 49655
  },
  {
    "temp": 227.5151824951172,
    "load": 76710,
    "rate": 0.4826797999441624,
    "requestedRate": 0.41575168807678786,
    "time": 49862
  },
  {
    "temp": 227.27255249023438,
    "load": 76562,
    "rate": 0.44329037636518476,
    "requestedRate": 0.41575168807678786,
    "time": 50064
  },
  {
    "temp": 226.99578857421875,
    "load": 76694,
    "rate": 0.4273000781983137,
    "requestedRate": 0.41575168807678786,
    "time": 50282
  },
  {
    "temp": 226.7241973876953,
    "load": 76910,
    "rate": 0.3958884420990944,
    "requestedRate": 0.41575168807678786,
    "time": 50505
  },
  {
    "temp": 226.45591735839844,
    "load": 77045,
    "rate": 0.40683994375169275,
    "requestedRate": 0.41575168807678786,
    "time": 50706
  },
  {
    "temp": 226.21336364746094,
    "load": 78017,
    "rate": 0.414067814424634,
    "requestedRate": 0.41575168807678786,
    "time": 50927
  },
  {
    "temp": 225.95352172851562,
    "load": 78145,
    "rate": 0.40606456875801084,
    "requestedRate": 0.41575168807678786,
    "time": 51157
  },
  {
    "temp": 225.56346130371094,
    "load": 78129,
    "rate": 0.44004767417907714,
    "requestedRate": 0.41575168807678786,
    "time": 51381
  },
  {
    "temp": 225.30816650390625,
    "load": 78295,
    "rate": 0.47172299221158026,
    "requestedRate": 0.41575168807678786,
    "time": 51602
  },
  {
    "temp": 225.0098114013672,
    "load": 78434,
    "rate": 0.5259606970846653,
    "requestedRate": 0.41575168807678786,
    "time": 51849
  },
  {
    "temp": 224.73789978027344,
    "load": 79008,
    "rate": 0.5383607035875321,
    "requestedRate": 0.41575168807678786,
    "time": 52052
  },
  {
    "temp": 224.4727783203125,
    "load": 79294,
    "rate": 0.4784072783589363,
    "requestedRate": 0.41575168807678786,
    "time": 52263
  },
  {
    "temp": 224.2322540283203,
    "load": 79648,
    "rate": 0.42737089924514293,
    "requestedRate": 0.41575168807678786,
    "time": 52465
  },
  {
    "temp": 223.9568328857422,
    "load": 79339,
    "rate": 0.3753072025626898,
    "requestedRate": 0.41575168807678786,
    "time": 52721
  },
  {
    "temp": 223.55325317382812,
    "load": 78959,
    "rate": 0.38136691085994245,
    "requestedRate": 0.41575168807678786,
    "time": 52936
  },
  {
    "temp": 223.27935791015625,
    "load": 79221,
    "rate": 0.39510017305612566,
    "requestedRate": 0.41575168807678786,
    "time": 53156
  },
  {
    "temp": 222.99609375,
    "load": 79415,
    "rate": 0.4125662487745285,
    "requestedRate": 0.41575168807678786,
    "time": 53374
  },
  {
    "temp": 222.73382568359375,
    "load": 80973,
    "rate": 0.48972077563405036,
    "requestedRate": 0.41575168807678786,
    "time": 53565
  },
  {
    "temp": 222.44451904296875,
    "load": 81930,
    "rate": 0.4924008134007454,
    "requestedRate": 0.41575168807678786,
    "time": 53759
  },
  {
    "temp": 222.18850708007812,
    "load": 81066,
    "rate": 0.5166974911093711,
    "requestedRate": 0.41575168807678786,
    "time": 53994
  },
  {
    "temp": 221.77401733398438,
    "load": 81083,
    "rate": 0.4921136802434921,
    "requestedRate": 0.41575168807678786,
    "time": 54216
  },
  {
    "temp": 221.4995880126953,
    "load": 80876,
    "rate": 0.4167086751759052,
    "requestedRate": 0.41575168807678786,
    "time": 54430
  },
  {
    "temp": 221.20248413085938,
    "load": 81121,
    "rate": 0.39996944993734357,
    "requestedRate": 0.41575168807678786,
    "time": 54646
  },
  {
    "temp": 220.9246063232422,
    "load": 81865,
    "rate": 0.3894271212816238,
    "requestedRate": 0.41575168807678786,
    "time": 54861
  },
  {
    "temp": 220.63880920410156,
    "load": 81863,
    "rate": 0.3870782873779535,
    "requestedRate": 0.41575168807678786,
    "time": 55078
  },
  {
    "temp": 220.38671875,
    "load": 81851,
    "rate": 0.4122089269012213,
    "requestedRate": 0.41575168807678786,
    "time": 55278
  },
  {
    "temp": 220.14247131347656,
    "load": 81957,
    "rate": 0.42412228614091874,
    "requestedRate": 0.41575168807678786,
    "time": 55488
  },
  {
    "temp": 219.9196319580078,
    "load": 81995,
    "rate": 0.47579239815473556,
    "requestedRate": 0.41575168807678786,
    "time": 55688
  },
  {
    "temp": 219.6977081298828,
    "load": 82585,
    "rate": 0.509609667956829,
    "requestedRate": 0.41575168807678786,
    "time": 55896
  },
  {
    "temp": 219.46356201171875,
    "load": 82770,
    "rate": 0.5265777419507504,
    "requestedRate": 0.41575168807678786,
    "time": 56089
  },
  {
    "temp": 219.2420654296875,
    "load": 83711,
    "rate": 0.49449289351701736,
    "requestedRate": 0.41575168807678786,
    "time": 56303
  },
  {
    "temp": 218.93006896972656,
    "load": 83628,
    "rate": 0.39108605481684205,
    "requestedRate": 0.41575168807678786,
    "time": 56524
  },
  {
    "temp": 218.69595336914062,
    "load": 82553,
    "rate": 0.3762729091197252,
    "requestedRate": 0.41575168807678786,
    "time": 56759
  },
  {
    "temp": 218.4540252685547,
    "load": 82577,
    "rate": 0.3729898477345705,
    "requestedRate": 0.41575168807678786,
    "time": 56997
  },
  {
    "temp": 218.23780822753906,
    "load": 82504,
    "rate": 0.36481287606060503,
    "requestedRate": 0.41575168807678786,
    "time": 57194
  },
  {
    "temp": 218.01754760742188,
    "load": 83118,
    "rate": 0.4198934778571129,
    "requestedRate": 0.41575168807678786,
    "time": 57396
  },
  {
    "temp": 217.81004333496094,
    "load": 85617,
    "rate": 0.4707262189686298,
    "requestedRate": 0.41575168807678786,
    "time": 57626
  },
  {
    "temp": 217.4886932373047,
    "load": 85733,
    "rate": 0.5054832972586155,
    "requestedRate": 0.41575168807678786,
    "time": 57852
  },
  {
    "temp": 217.27456665039062,
    "load": 85354,
    "rate": 0.5358355043828488,
    "requestedRate": 0.41575168807678786,
    "time": 58065
  },
  {
    "temp": 217.0838165283203,
    "load": 85396,
    "rate": 0.5033456893265247,
    "requestedRate": 0.41575168807678786,
    "time": 58306
  },
  {
    "temp": 216.86961364746094,
    "load": 84653,
    "rate": 0.42566904969513414,
    "requestedRate": 0.41575168807678786,
    "time": 58530
  },
  {
    "temp": 216.65066528320312,
    "load": 84883,
    "rate": 0.4003826918452978,
    "requestedRate": 0.41575168807678786,
    "time": 58718
  },
  {
    "temp": 216.4286651611328,
    "load": 85045,
    "rate": 0.38368907690048215,
    "requestedRate": 0.41575168807678786,
    "time": 58931
  },
  {
    "temp": 216.21493530273438,
    "load": 85027,
    "rate": 0.3888697079569101,
    "requestedRate": 0.41575168807678786,
    "time": 59132
  },
  {
    "temp": 215.98606872558594,
    "load": 84892,
    "rate": 0.37931637212634084,
    "requestedRate": 0.41575168807678786,
    "time": 59321
  },
  {
    "temp": 215.6681671142578,
    "load": 84176,
    "rate": 0.41828403107821943,
    "requestedRate": 0.41575168807678786,
    "time": 59525
  },
  {
    "temp": 215.41098022460938,
    "load": 84687,
    "rate": 0.48800704926252364,
    "requestedRate": 0.41575168807678786,
    "time": 59727
  },
  {
    "temp": 215.15426635742188,
    "load": 85388,
    "rate": 0.4814999257028103,
    "requestedRate": 0.41575168807678786,
    "time": 59934
  },
  {
    "temp": 214.8978729248047,
    "load": 85772,
    "rate": 0.5375199235975743,
    "requestedRate": 0.41575168807678786,
    "time": 60148
  },
  {
    "temp": 214.56695556640625,
    "load": 89942,
    "rate": 0.43998265407979487,
    "requestedRate": 0.41575168807678786,
    "time": 60352
  },
  {
    "temp": 214.33778381347656,
    "load": 99879,
    "rate": 0.40189968086779115,
    "requestedRate": 0.41575168807678786,
    "time": 60584
  },
  {
    "temp": 214.10923767089844,
    "load": 95885,
    "rate": 0.3771183628588915,
    "requestedRate": 0.41575168807678786,
    "time": 60786
  },
  {
    "temp": 213.881103515625,
    "load": 93126,
    "rate": 0.36669678188860416,
    "requestedRate": 0.41575168807678786,
    "time": 61002
  },
  {
    "temp": 213.66346740722656,
    "load": 91195,
    "rate": 0.3858158802241087,
    "requestedRate": 0.41575168807678786,
    "time": 61207
  },
  {
    "temp": 213.43206787109375,
    "load": 91490,
    "rate": 0.44432162538170816,
    "requestedRate": 0.41575168807678786,
    "time": 61391
  },
  {
    "temp": 213.21743774414062,
    "load": 92007,
    "rate": 0.4479320141673088,
    "requestedRate": 0.41575168807678786,
    "time": 61620
  },
  {
    "temp": 212.9879913330078,
    "load": 90608,
    "rate": 0.48803927063941954,
    "requestedRate": 0.41575168807678786,
    "time": 61855
  },
  {
    "temp": 212.6475830078125,
    "load": 90232,
    "rate": 0.5088861165940761,
    "requestedRate": 0.41575168807678786,
    "time": 62070
  },
  {
    "temp": 212.41348266601562,
    "load": 90069,
    "rate": 0.4933303396403789,
    "requestedRate": 0.41575168807678786,
    "time": 62299
  },
  {
    "temp": 212.19712829589844,
    "load": 90364,
    "rate": 0.4399394081532955,
    "requestedRate": 0.41575168807678786,
    "time": 62496
  },
  {
    "temp": 211.96656799316406,
    "load": 90640,
    "rate": 0.3946743120253086,
    "requestedRate": 0.41575168807678786,
    "time": 62706
  },
  {
    "temp": 211.76271057128906,
    "load": 90906,
    "rate": 0.38833844013512137,
    "requestedRate": 0.41575168807678786,
    "time": 62930
  },
  {
    "temp": 211.5299072265625,
    "load": 90786,
    "rate": 0.38399432770907876,
    "requestedRate": 0.41575168807678786,
    "time": 63136
  },
  {
    "temp": 211.288818359375,
    "load": 90360,
    "rate": 0.37686361603438856,
    "requestedRate": 0.41575168807678786,
    "time": 63352
  },
  {
    "temp": 211.0424041748047,
    "load": 90164,
    "rate": 0.4448119841516018,
    "requestedRate": 0.41575168807678786,
    "time": 63595
  },
  {
    "temp": 210.72015380859375,
    "load": 90754,
    "rate": 0.4664134481549263,
    "requestedRate": 0.41575168807678786,
    "time": 63819
  },
  {
    "temp": 210.49424743652344,
    "load": 91496,
    "rate": 0.501463378071785,
    "requestedRate": 0.41575168807678786,
    "time": 64049
  },
  {
    "temp": 210.16061401367188,
    "load": 92677,
    "rate": 0.4863533118367195,
    "requestedRate": 0.41575168807678786,
    "time": 64273
  },
  {
    "temp": 210.044677734375,
    "load": 91828,
    "rate": 0.39798569083213803,
    "requestedRate": 0.41575168807678786,
    "time": 64493
  },
  {
    "temp": 209.7180938720703,
    "load": 91459,
    "rate": 0.37911663807928564,
    "requestedRate": 0.41575168807678786,
    "time": 64699
  },
  {
    "temp": 209.4844970703125,
    "load": 91729,
    "rate": 0.3645384170114994,
    "requestedRate": 0.41575168807678786,
    "time": 64927
  },
  {
    "temp": 209.25314331054688,
    "load": 91403,
    "rate": 0.38458140559494497,
    "requestedRate": 0.41575168807678786,
    "time": 65138
  },
  {
    "temp": 209.00274658203125,
    "load": 93122,
    "rate": 0.4122920371592045,
    "requestedRate": 0.41575168807678786,
    "time": 65366
  },
  {
    "temp": 208.76060485839844,
    "load": 93777,
    "rate": 0.43504269361495973,
    "requestedRate": 0.41575168807678786,
    "time": 65593
  },
  {
    "temp": 208.42001342773438,
    "load": 93684,
    "rate": 0.47425325006246566,
    "requestedRate": 0.41575168807678786,
    "time": 65811
  },
  {
    "temp": 208.19320678710938,
    "load": 93834,
    "rate": 0.5013791406154633,
    "requestedRate": 0.41575168807678786,
    "time": 66014
  },
  {
    "temp": 207.95596313476562,
    "load": 94113,
    "rate": 0.5304334200918674,
    "requestedRate": 0.41575168807678786,
    "time": 66216
  },
  {
    "temp": 207.71200561523438,
    "load": 94704,
    "rate": 0.5343546956777573,
    "requestedRate": 0.41575168807678786,
    "time": 66426
  },
  {
    "temp": 207.46377563476562,
    "load": 96014,
    "rate": 0.46031137369573116,
    "requestedRate": 0.41575168807678786,
    "time": 66620
  },
  {
    "temp": 207.21279907226562,
    "load": 96303,
    "rate": 0.4090703943371773,
    "requestedRate": 0.41575168807678786,
    "time": 66837
  },
  {
    "temp": 206.9805450439453,
    "load": 95948,
    "rate": 0.38742326505482194,
    "requestedRate": 0.41575168807678786,
    "time": 67053
  },
  {
    "temp": 206.7500457763672,
    "load": 95010,
    "rate": 0.3772140922397375,
    "requestedRate": 0.41575168807678786,
    "time": 67274
  },
  {
    "temp": 206.52064514160156,
    "load": 94712,
    "rate": 0.4034274470061064,
    "requestedRate": 0.41575168807678786,
    "time": 67483
  },
  {
    "temp": 206.28172302246094,
    "load": 95767,
    "rate": 0.4491165896505117,
    "requestedRate": 0.41575168807678786,
    "time": 67708
  },
  {
    "temp": 205.9268341064453,
    "load": 96338,
    "rate": 0.5131153097748756,
    "requestedRate": 0.41575168807678786,
    "time": 67905
  },
  {
    "temp": 205.69699096679688,
    "load": 97898,
    "rate": 0.5337096633017063,
    "requestedRate": 0.41575168807678786,
    "time": 68119
  },
  {
    "temp": 205.56553649902344,
    "load": 97809,
    "rate": 0.5123767474293709,
    "requestedRate": 0.41575168807678786,
    "time": 68315
  },
  {
    "temp": 205.21629333496094,
    "load": 96515,
    "rate": 0.45828533090651036,
    "requestedRate": 0.41575168807678786,
    "time": 68528
  },
  {
    "temp": 204.9864044189453,
    "load": 96236,
    "rate": 0.40465592823922636,
    "requestedRate": 0.41575168807678786,
    "time": 68733
  },
  {
    "temp": 204.74716186523438,
    "load": 96047,
    "rate": 0.3817985178530216,
    "requestedRate": 0.41575168807678786,
    "time": 68967
  },
  {
    "temp": 204.501953125,
    "load": 96798,
    "rate": 0.4008776418864727,
    "requestedRate": 0.41575168807678786,
    "time": 69170
  },
  {
    "temp": 204.2657012939453,
    "load": 98320,
    "rate": 0.39741887502372264,
    "requestedRate": 0.41575168807678786,
    "time": 69378
  },
  {
    "temp": 204.03518676757812,
    "load": 97671,
    "rate": 0.4181880817562342,
    "requestedRate": 0.41575168807678786,
    "time": 69559
  },
  {
    "temp": 203.79556274414062,
    "load": 97566,
    "rate": 0.4573537977039814,
    "requestedRate": 0.41575168807678786,
    "time": 69745
  },
  {
    "temp": 203.56288146972656,
    "load": 97978,
    "rate": 0.4596529249101877,
    "requestedRate": 0.41575168807678786,
    "time": 69949
  },
  {
    "temp": 203.3346710205078,
    "load": 97652,
    "rate": 0.5047591410577297,
    "requestedRate": 0.41575168807678786,
    "time": 70145
  },
  {
    "temp": 203.0964813232422,
    "load": 98931,
    "rate": 0.5483024829626083,
    "requestedRate": 0.41575168807678786,
    "time": 70355
  },
  {
    "temp": 202.85195922851562,
    "load": 101226,
    "rate": 0.47180805444717405,
    "requestedRate": 0.41575168807678786,
    "time": 70555
  },
  {
    "temp": 202.60333251953125,
    "load": 100935,
    "rate": 0.4165570532530546,
    "requestedRate": 0.41575168807678786,
    "time": 70749
  },
  {
    "temp": 202.3521270751953,
    "load": 101051,
    "rate": 0.3855046360194683,
    "requestedRate": 0.41575168807678786,
    "time": 70974
  },
  {
    "temp": 202.11972045898438,
    "load": 101085,
    "rate": 0.3764115545153618,
    "requestedRate": 0.41575168807678786,
    "time": 71202
  },
  {
    "temp": 201.88909912109375,
    "load": 101914,
    "rate": 0.4047950135171413,
    "requestedRate": 0.41575168807678786,
    "time": 71417
  },
  {
    "temp": 201.65963745117188,
    "load": 103452,
    "rate": 0.43310561701655387,
    "requestedRate": 0.41575168807678786,
    "time": 71656
  },
  {
    "temp": 201.31295776367188,
    "load": 104222,
    "rate": 0.49835308045148846,
    "requestedRate": 0.41575168807678786,
    "time": 71891
  },
  {
    "temp": 201.06576538085938,
    "load": 105106,
    "rate": 0.49714395403862,
    "requestedRate": 0.41575168807678786,
    "time": 72182
  },
  {
    "temp": 200.67527770996094,
    "load": 105023,
    "rate": 0.5216787730157375,
    "requestedRate": 0.41575168807678786,
    "time": 72396
  },
  {
    "temp": 200.4392852783203,
    "load": 106167,
    "rate": 0.4560772043466568,
    "requestedRate": 0.41575168807678786,
    "time": 72614
  },
  {
    "temp": 200.209716796875,
    "load": 106810,
    "rate": 0.4002668928354978,
    "requestedRate": 0.41575168807678786,
    "time": 72850
  },
  {
    "temp": 199.9993438720703,
    "load": 106913,
    "rate": 0.41575096897780894,
    "requestedRate": 0.41575168807678786,
    "time": 73097
  },
  {
    "temp": 199.68734741210938,
    "load": 107917,
    "rate": 0.38466622039675713,
    "requestedRate": 0.41575168807678786,
    "time": 73311
  },
  {
    "temp": 199.46438598632812,
    "load": 106377,
    "rate": 0.4017746718227863,
    "requestedRate": 0.41575168807678786,
    "time": 73518
  },
  {
    "temp": 199.2479705810547,
    "load": 106468,
    "rate": 0.4355122954398394,
    "requestedRate": 0.41575168807678786,
    "time": 73719
  },
  {
    "temp": 199.0357666015625,
    "load": 107441,
    "rate": 0.45830212891101835,
    "requestedRate": 0.41575168807678786,
    "time": 73935
  },
  {
    "temp": 198.8262481689453,
    "load": 107623,
    "rate": 0.5234584267437458,
    "requestedRate": 0.41575168807678786,
    "time": 74157
  },
  {
    "temp": 198.51385498046875,
    "load": 109800,
    "rate": 0.537113307416439,
    "requestedRate": 0.41575168807678786,
    "time": 74386
  },
  {
    "temp": 198.30384826660156,
    "load": 108949,
    "rate": 0.5001659452915191,
    "requestedRate": 0.41575168807678786,
    "time": 74591
  },
  {
    "temp": 198.0957489013672,
    "load": 108267,
    "rate": 0.4378409772366285,
    "requestedRate": 0.41575168807678786,
    "time": 74796
  },
  {
    "temp": 197.9093475341797,
    "load": 108078,
    "rate": 0.3684096834808588,
    "requestedRate": 0.41575168807678786,
    "time": 75014
  },
  {
    "temp": 197.71632385253906,
    "load": 107321,
    "rate": 0.38293558605015277,
    "requestedRate": 0.41575168807678786,
    "time": 75248
  },
  {
    "temp": 197.50885009765625,
    "load": 108849,
    "rate": 0.4046262911707163,
    "requestedRate": 0.41575168807678786,
    "time": 75460
  },
  {
    "temp": 197.30235290527344,
    "load": 110324,
    "rate": 0.42609782494604587,
    "requestedRate": 0.41575168807678786,
    "time": 75648
  },
  {
    "temp": 197.09649658203125,
    "load": 109810,
    "rate": 0.4718077245354652,
    "requestedRate": 0.41575168807678786,
    "time": 75887
  },
  {
    "temp": 196.81866455078125,
    "load": 109889,
    "rate": 0.47445752039551736,
    "requestedRate": 0.41575168807678786,
    "time": 76116
  },
  {
    "temp": 196.5965118408203,
    "load": 109253,
    "rate": 0.5117245669662952,
    "requestedRate": 0.41575168807678786,
    "time": 76334
  },
  {
    "temp": 196.4236297607422,
    "load": 110487,
    "rate": 0.5271263851225376,
    "requestedRate": 0.41575168807678786,
    "time": 76548
  },
  {
    "temp": 196.22903442382812,
    "load": 111616,
    "rate": 0.45481963589787483,
    "requestedRate": 0.41575168807678786,
    "time": 76775
  },
  {
    "temp": 196.03077697753906,
    "load": 112252,
    "rate": 0.4181763698905706,
    "requestedRate": 0.41575168807678786,
    "time": 76994
  },
  {
    "temp": 195.8302001953125,
    "load": 111910,
    "rate": 0.3831996253877878,
    "requestedRate": 0.41575168807678786,
    "time": 77206
  },
  {
    "temp": 195.5147247314453,
    "load": 110174,
    "rate": 0.3887180310487747,
    "requestedRate": 0.41575168807678786,
    "time": 77855
  },
  {
    "temp": 194.91029357910156,
    "load": 114922,
    "rate": 0.50711998924613,
    "requestedRate": 0.41575168807678786,
    "time": 78056
  },
  {
    "temp": 194.7117919921875,
    "load": 116268,
    "rate": 0.51474215939641,
    "requestedRate": 0.41575168807678786,
    "time": 78263
  },
  {
    "temp": 194.51104736328125,
    "load": 114583,
    "rate": 0.5115510883927346,
    "requestedRate": 0.41575168807678786,
    "time": 78486
  },
  {
    "temp": 194.30886840820312,
    "load": 114083,
    "rate": 0.46876626849174496,
    "requestedRate": 0.41575168807678786,
    "time": 78702
  },
  {
    "temp": 194.1057586669922,
    "load": 114006,
    "rate": 0.3995208249986172,
    "requestedRate": 0.41575168807678786,
    "time": 78898
  },
  {
    "temp": 193.78868103027344,
    "load": 113546,
    "rate": 0.39673246622085573,
    "requestedRate": 0.41575168807678786,
    "time": 79121
  },
  {
    "temp": 193.58447265625,
    "load": 116000,
    "rate": 0.41025134079158304,
    "requestedRate": 0.41575168807678786,
    "time": 79365
  },
  {
    "temp": 193.3800811767578,
    "load": 117175,
    "rate": 0.39341066770255567,
    "requestedRate": 0.41575168807678786,
    "time": 79578
  },
  {
    "temp": 193.16737365722656,
    "load": 116555,
    "rate": 0.42166488379240036,
    "requestedRate": 0.41575168807678786,
    "time": 79791
  },
  {
    "temp": 192.94932556152344,
    "load": 116616,
    "rate": 0.4410097791999578,
    "requestedRate": 0.41575168807678786,
    "time": 79982
  },
  {
    "temp": 192.736083984375,
    "load": 116317,
    "rate": 0.4751603972911835,
    "requestedRate": 0.41575168807678786,
    "time": 80192
  },
  {
    "temp": 192.53408813476562,
    "load": 118139,
    "rate": 0.5213381391763687,
    "requestedRate": 0.41575168807678786,
    "time": 80390
  },
  {
    "temp": 192.32290649414062,
    "load": 120811,
    "rate": 0.5325653095543385,
    "requestedRate": 0.41575168807678786,
    "time": 80606
  },
  {
    "temp": 192.10585021972656,
    "load": 121523,
    "rate": 0.4736236135661602,
    "requestedRate": 0.41575168807678786,
    "time": 80833
  },
  {
    "temp": 191.78604125976562,
    "load": 121455,
    "rate": 0.4076662351191044,
    "requestedRate": 0.41575168807678786,
    "time": 81048
  },
  {
    "temp": 191.56570434570312,
    "load": 121249,
    "rate": 0.3681832540780306,
    "requestedRate": 0.41575168807678786,
    "time": 81246
  },
  {
    "temp": 191.3714599609375,
    "load": 121823,
    "rate": 0.37716804206371307,
    "requestedRate": 0.41575168807678786,
    "time": 81478
  },
  {
    "temp": 191.16319274902344,
    "load": 122703,
    "rate": 0.38586973831057547,
    "requestedRate": 0.41575168807678786,
    "time": 81675
  },
  {
    "temp": 190.96644592285156,
    "load": 123403,
    "rate": 0.44882722958922383,
    "requestedRate": 0.41575168807678786,
    "time": 81891
  },
  {
    "temp": 190.7667999267578,
    "load": 124432,
    "rate": 0.47594074845314027,
    "requestedRate": 0.41575168807678786,
    "time": 82111
  },
  {
    "temp": 190.5550994873047,
    "load": 124088,
    "rate": 0.48097327664494516,
    "requestedRate": 0.41575168807678786,
    "time": 82325
  },
  {
    "temp": 190.34588623046875,
    "load": 123509,
    "rate": 0.5005782799422741,
    "requestedRate": 0.41575168807678786,
    "time": 82540
  },
  {
    "temp": 190.12806701660156,
    "load": 125103,
    "rate": 0.5526706789433956,
    "requestedRate": 0.41575168807678786,
    "time": 82734
  },
  {
    "temp": 189.91494750976562,
    "load": 126332,
    "rate": 0.47553385734558107,
    "requestedRate": 0.41575168807678786,
    "time": 82959
  },
  {
    "temp": 189.61195373535156,
    "load": 127223,
    "rate": 0.42520115241408346,
    "requestedRate": 0.41575168807678786,
    "time": 83170
  },
  {
    "temp": 189.40444946289062,
    "load": 128356,
    "rate": 0.38788819313049316,
    "requestedRate": 0.41575168807678786,
    "time": 83401
  },
  {
    "temp": 189.19793701171875,
    "load": 126177,
    "rate": 0.38770025342702863,
    "requestedRate": 0.41575168807678786,
    "time": 83634
  },
  {
    "temp": 188.99208068847656,
    "load": 126509,
    "rate": 0.40666748240590095,
    "requestedRate": 0.41575168807678786,
    "time": 83854
  },
  {
    "temp": 188.6644287109375,
    "load": 126912,
    "rate": 0.439871638789773,
    "requestedRate": 0.41575168807678786,
    "time": 84054
  },
  {
    "temp": 188.4622802734375,
    "load": 127963,
    "rate": 0.5087092289328575,
    "requestedRate": 0.41575168807678786,
    "time": 84279
  },
  {
    "temp": 188.25917053222656,
    "load": 130595,
    "rate": 0.5125903652608395,
    "requestedRate": 0.41575168807678786,
    "time": 84522
  },
  {
    "temp": 188.0554962158203,
    "load": 130808,
    "rate": 0.5210373696684837,
    "requestedRate": 0.41575168807678786,
    "time": 84734
  },
  {
    "temp": 187.84323120117188,
    "load": 130702,
    "rate": 0.42953088618814944,
    "requestedRate": 0.41575168807678786,
    "time": 84951
  },
  {
    "temp": 187.62547302246094,
    "load": 129791,
    "rate": 0.3757732028514147,
    "requestedRate": 0.41575168807678786,
    "time": 85161
  },
  {
    "temp": 187.30709838867188,
    "load": 129708,
    "rate": 0.37424304485321047,
    "requestedRate": 0.41575168807678786,
    "time": 85385
  },
  {
    "temp": 187.08786010742188,
    "load": 131099,
    "rate": 0.3773828145861626,
    "requestedRate": 0.41575168807678786,
    "time": 85601
  },
  {
    "temp": 186.8636016845703,
    "load": 131761,
    "rate": 0.4391712912172079,
    "requestedRate": 0.41575168807678786,
    "time": 85821
  },
  {
    "temp": 186.66683959960938,
    "load": 133959,
    "rate": 0.4511471962183714,
    "requestedRate": 0.41575168807678786,
    "time": 86022
  },
  {
    "temp": 186.4467315673828,
    "load": 134452,
    "rate": 0.4667175717651844,
    "requestedRate": 0.41575168807678786,
    "time": 86250
  },
  {
    "temp": 186.23216247558594,
    "load": 134559,
    "rate": 0.49535671234130857,
    "requestedRate": 0.41575168807678786,
    "time": 86458
  },
  {
    "temp": 186.02113342285156,
    "load": 136188,
    "rate": 0.5078203918039799,
    "requestedRate": 0.41575168807678786,
    "time": 86678
  },
  {
    "temp": 185.81236267089844,
    "load": 137123,
    "rate": 0.4862479050457478,
    "requestedRate": 0.41575168807678786,
    "time": 86871
  },
  {
    "temp": 185.4795379638672,
    "load": 138424,
    "rate": 0.43994471423327924,
    "requestedRate": 0.41575168807678786,
    "time": 87094
  },
  {
    "temp": 185.2650909423828,
    "load": 140434,
    "rate": 0.39069769375026225,
    "requestedRate": 0.41575168807678786,
    "time": 87298
  },
  {
    "temp": 185.0438995361328,
    "load": 139415,
    "rate": 0.36572582423686983,
    "requestedRate": 0.41575168807678786,
    "time": 87494
  },
  {
    "temp": 184.82864379882812,
    "load": 139716,
    "rate": 0.3836884170770645,
    "requestedRate": 0.41575168807678786,
    "time": 87740
  },
  {
    "temp": 184.60691833496094,
    "load": 140724,
    "rate": 0.40882202580571175,
    "requestedRate": 0.41575168807678786,
    "time": 87967
  },
  {
    "temp": 184.39129638671875,
    "load": 141690,
    "rate": 0.4840096740424633,
    "requestedRate": 0.41575168807678786,
    "time": 88203
  },
  {
    "temp": 184.0861358642578,
    "load": 145290,
    "rate": 0.49223343819379806,
    "requestedRate": 0.41575168807678786,
    "time": 88406
  },
  {
    "temp": 183.8675994873047,
    "load": 144338,
    "rate": 0.5006178143620491,
    "requestedRate": 0.41575168807678786,
    "time": 88637
  },
  {
    "temp": 183.6642608642578,
    "load": 144998,
    "rate": 0.47174163222312926,
    "requestedRate": 0.41575168807678786,
    "time": 88845
  },
  {
    "temp": 183.45018005371094,
    "load": 146434,
    "rate": 0.40231077834963797,
    "requestedRate": 0.41575168807678786,
    "time": 89073
  },
  {
    "temp": 183.218994140625,
    "load": 147219,
    "rate": 0.38715262748301027,
    "requestedRate": 0.41575168807678786,
    "time": 89274
  },
  {
    "temp": 183.00755310058594,
    "load": 149398,
    "rate": 0.3825272378325462,
    "requestedRate": 0.41575168807678786,
    "time": 89469
  },
  {
    "temp": 182.77806091308594,
    "load": 150438,
    "rate": 0.3875155578553677,
    "requestedRate": 0.41575168807678786,
    "time": 89707
  },
  {
    "temp": 182.46084594726562,
    "load": 153370,
    "rate": 0.4127886367589235,
    "requestedRate": 0.41575168807678786,
    "time": 89932
  },
  {
    "temp": 182.24798583984375,
    "load": 155002,
    "rate": 0.42736487835645676,
    "requestedRate": 0.41575168807678786,
    "time": 90141
  },
  {
    "temp": 182.0380401611328,
    "load": 156182,
    "rate": 0.472004901766777,
    "requestedRate": 0.41575168807678786,
    "time": 90365
  },
  {
    "temp": 181.8299560546875,
    "load": 159885,
    "rate": 0.5152442300319672,
    "requestedRate": 0.41575168807678786,
    "time": 90574
  },
  {
    "temp": 181.60263061523438,
    "load": 162830,
    "rate": 0.5330327944457531,
    "requestedRate": 0.41575168807678786,
    "time": 90791
  },
  {
    "temp": 181.38340759277344,
    "load": 166784,
    "rate": 0.4632574027776718,
    "requestedRate": 0.41575168807678786,
    "time": 90993
  },
  {
    "temp": 181.14895629882812,
    "load": 170155,
    "rate": 0.40560340717434884,
    "requestedRate": 0.41575168807678786,
    "time": 91207
  },
  {
    "temp": 180.92518615722656,
    "load": 172469,
    "rate": 0.36981147833168504,
    "requestedRate": 0.41575168807678786,
    "time": 91412
  },
  {
    "temp": 180.61294555664062,
    "load": 176349,
    "rate": 0.37448102116584775,
    "requestedRate": 0.41575168807678786,
    "time": 91635
  },
  {
    "temp": 180.40196228027344,
    "load": 179791,
    "rate": 0.36036772817373275,
    "requestedRate": 0.41575168807678786,
    "time": 91839
  },
  {
    "temp": 180.20387268066406,
    "load": 181262,
    "rate": 0.4109793734550476,
    "requestedRate": 0.41575168807678786,
    "time": 92057
  },
  {
    "temp": 180.015625,
    "load": 186497,
    "rate": 0.44918614603579043,
    "requestedRate": 0.41575168807678786,
    "time": 92251
  },
  {
    "temp": 179.8336639404297,
    "load": 194079,
    "rate": 0.477615215331316,
    "requestedRate": 0.41575168807678786,
    "time": 92451
  },
  {
    "temp": 179.65574645996094,
    "load": 201575,
    "rate": 0.5089772821962834,
    "requestedRate": 0.41575168807678786,
    "time": 92649
  },
  {
    "temp": 179.4701690673828,
    "load": 209934,
    "rate": 0.47533942937850954,
    "requestedRate": 0.41575168807678786,
    "time": 92850
  },
  {
    "temp": 179.2745819091797,
    "load": 215347,
    "rate": 0.4242954348027706,
    "requestedRate": 0.41575168807678786,
    "time": 93052
  },
  {
    "temp": 179.07937622070312,
    "load": 220856,
    "rate": 0.3842550404369831,
    "requestedRate": 0.41575168807678786,
    "time": 93282
  },
  {
    "temp": 178.8929901123047,
    "load": 225936,
    "rate": 0.3653782622516155,
    "requestedRate": 0.41575168807678786,
    "time": 93496
  },
  {
    "temp": 178.7122344970703,
    "load": 233146,
    "rate": 0.38516969315707683,
    "requestedRate": 0.41575168807678786,
    "time": 93731
  },
  {
    "temp": 178.5350799560547,
    "load": 245006,
    "rate": 0.3828806557506323,
    "requestedRate": 0.41575168807678786,
    "time": 93943
  },
  {
    "temp": 178.2828826904297,
    "load": 254064,
    "rate": 0.3926323784887791,
    "requestedRate": 0.41575168807678786,
    "time": 94163
  },
  {
    "temp": 178.1100311279297,
    "load": 265082,
    "rate": 0.4445450855791569,
    "requestedRate": 0.41575168807678786,
    "time": 94378
  },
  {
    "temp": 177.93795776367188,
    "load": 273090,
    "rate": 0.46385041907429697,
    "requestedRate": 0.41575168807678786,
    "time": 94562
  },
  {
    "temp": 177.74929809570312,
    "load": 279162,
    "rate": 0.5194315794110298,
    "requestedRate": 0.41575168807678786,
    "time": 94786
  },
  {
    "temp": 177.5585479736328,
    "load": 290494,
    "rate": 0.5061397115886211,
    "requestedRate": 0.41575168807678786,
    "time": 95002
  },
  {
    "temp": 177.375,
    "load": 301130,
    "rate": 0.39910620845854283,
    "requestedRate": 0.41575168807678786,
    "time": 95223
  },
  {
    "temp": 177.18753051757812,
    "load": 306152,
    "rate": 0.3808073806017637,
    "requestedRate": 0.41575168807678786,
    "time": 95412
  },
  {
    "temp": 177.00607299804688,
    "load": 313352,
    "rate": 0.36060416489839553,
    "requestedRate": 0.41575168807678786,
    "time": 95629
  },
  {
    "temp": 176.82847595214844,
    "load": 318373,
    "rate": 0.3597194791585207,
    "requestedRate": 0.41575168807678786,
    "time": 95839
  },
  {
    "temp": 176.64651489257812,
    "load": 324208,
    "rate": 0.3901534494012594,
    "requestedRate": 0.41575168807678786,
    "time": 96064
  },
  {
    "temp": 176.36834716796875,
    "load": 330136,
    "rate": 0.41162008948624135,
    "requestedRate": 0.41575168807678786,
    "time": 96279
  },
  {
    "temp": 176.1915283203125,
    "load": 336917,
    "rate": 0.4634203241765499,
    "requestedRate": 0.41575168807678786,
    "time": 96497
  },
  {
    "temp": 176.0083770751953,
    "load": 349713,
    "rate": 0.4814390569925308,
    "requestedRate": 0.41575168807678786,
    "time": 96714
  },
  {
    "temp": 175.82113647460938,
    "load": 361375,
    "rate": 0.4850348196923733,
    "requestedRate": 0.41575168807678786,
    "time": 96929
  },
  {
    "temp": 175.63983154296875,
    "load": 377602,
    "rate": 0.4813360695540905,
    "requestedRate": 0.41575168807678786,
    "time": 97149
  },
  {
    "temp": 175.4623565673828,
    "load": 386873,
    "rate": 0.40925190076231954,
    "requestedRate": 0.41575168807678786,
    "time": 97350
  },
  {
    "temp": 175.2873077392578,
    "load": 391267,
    "rate": 0.3909432305395603,
    "requestedRate": 0.41575168807678786,
    "time": 97557
  },
  {
    "temp": 175.11380004882812,
    "load": 397490,
    "rate": 0.38878723002970217,
    "requestedRate": 0.41575168807678786,
    "time": 97752
  },
  {
    "temp": 174.94129943847656,
    "load": 399993,
    "rate": 0.3646059389412403,
    "requestedRate": 0.41575168807678786,
    "time": 97962
  },
  {
    "temp": 174.76258850097656,
    "load": 399438,
    "rate": 0.3823617596179247,
    "requestedRate": 0.41575168807678786,
    "time": 98190
  },
  {
    "temp": 174.48416137695312,
    "load": 405470,
    "rate": 0.41079734466969964,
    "requestedRate": 0.41575168807678786,
    "time": 98395
  },
  {
    "temp": 174.29244995117188,
    "load": 412888,
    "rate": 0.4050210580229759,
    "requestedRate": 0.41575168807678786,
    "time": 98586
  },
  {
    "temp": 174.19203186035156,
    "load": 417542,
    "rate": 0.4853880451619625,
    "requestedRate": 0.41575168807678786,
    "time": 98785
  },
  {
    "temp": 173.99107360839844,
    "load": 426641,
    "rate": 0.5283187410235405,
    "requestedRate": 0.41575168807678786,
    "time": 98985
  },
  {
    "temp": 173.71351623535156,
    "load": 434999,
    "rate": 0.49260436892509457,
    "requestedRate": 0.41575168807678786,
    "time": 99217
  },
  {
    "temp": 173.5260467529297,
    "load": 439579,
    "rate": 0.41775608986616136,
    "requestedRate": 0.41575168807678786,
    "time": 99430
  },
  {
    "temp": 173.3514404296875,
    "load": 443352,
    "rate": 0.36136351168155667,
    "requestedRate": 0.41575168807678786,
    "time": 99631
  },
  {
    "temp": 173.17137145996094,
    "load": 443617,
    "rate": 0.3568623337894678,
    "requestedRate": 0.41575168807678786,
    "time": 99861
  },
  {
    "temp": 172.99465942382812,
    "load": 450188,
    "rate": 0.369785662740469,
    "requestedRate": 0.41575168807678786,
    "time": 100063
  },
  {
    "temp": 172.8201141357422,
    "load": 456796,
    "rate": 0.3721632264554501,
    "requestedRate": 0.41575168807678786,
    "time": 100305
  },
  {
    "temp": 172.53073120117188,
    "load": 460725,
    "rate": 0.44708128184080126,
    "requestedRate": 0.41575168807678786,
    "time": 100503
  },
  {
    "temp": 172.33880615234375,
    "load": 468854,
    "rate": 0.4596529524028301,
    "requestedRate": 0.41575168807678786,
    "time": 100718
  },
  {
    "temp": 172.15451049804688,
    "load": 466251,
    "rate": 0.4986134357750416,
    "requestedRate": 0.41575168807678786,
    "time": 100920
  },
  {
    "temp": 171.97509765625,
    "load": 467729,
    "rate": 0.5101407158374787,
    "requestedRate": 0.41575168807678786,
    "time": 101147
  },
  {
    "temp": 171.79879760742188,
    "load": 472714,
    "rate": 0.4572748938202858,
    "requestedRate": 0.41575168807678786,
    "time": 101363
  },
  {
    "temp": 171.62449645996094,
    "load": 478543,
    "rate": 0.44184934951364996,
    "requestedRate": 0.41575168807678786,
    "time": 101569
  },
  {
    "temp": 171.45147705078125,
    "load": 491247,
    "rate": 0.40435650587081906,
    "requestedRate": 0.41575168807678786,
    "time": 101789
  },
  {
    "temp": 171.18389892578125,
    "load": 501067,
    "rate": 0.37807477690279484,
    "requestedRate": 0.41575168807678786,
    "time": 102030
  },
  {
    "temp": 171.01242065429688,
    "load": 501928,
    "rate": 0.37065016888082025,
    "requestedRate": 0.41575168807678786,
    "time": 102236
  },
  {
    "temp": 170.83436584472656,
    "load": 499140,
    "rate": 0.3737569199502468,
    "requestedRate": 0.41575168807678786,
    "time": 102461
  },
  {
    "temp": 170.66749572753906,
    "load": 495549,
    "rate": 0.4240429698675871,
    "requestedRate": 0.41575168807678786,
    "time": 102665
  },
  {
    "temp": 170.47702026367188,
    "load": 498836,
    "rate": 0.48921546086668966,
    "requestedRate": 0.41575168807678786,
    "time": 102924
  },
  {
    "temp": 170.18504333496094,
    "load": 506564,
    "rate": 0.5436913619935513,
    "requestedRate": 0.41575168807678786,
    "time": 103134
  },
  {
    "temp": 170.00433349609375,
    "load": 514138,
    "rate": 0.5560731683671475,
    "requestedRate": 0.41575168807678786,
    "time": 103336
  },
  {
    "temp": 169.82720947265625,
    "load": 515229,
    "rate": 0.46867444306612016,
    "requestedRate": 0.41575168807678786,
    "time": 103519
  },
  {
    "temp": 169.65237426757812,
    "load": 508131,
    "rate": 0.43722255773842333,
    "requestedRate": 0.41575168807678786,
    "time": 103748
  },
  {
    "temp": 169.47903442382812,
    "load": 501480,
    "rate": 0.42345209799706934,
    "requestedRate": 0.41575168807678786,
    "time": 103970
  },
  {
    "temp": 169.2998046875,
    "load": 494491,
    "rate": 0.3843839534372091,
    "requestedRate": 0.41575168807678786,
    "time": 104191
  },
  {
    "temp": 169.13046264648438,
    "load": 490178,
    "rate": 0.4097909764945507,
    "requestedRate": 0.41575168807678786,
    "time": 104391
  },
  {
    "temp": 168.9469451904297,
    "load": 492869,
    "rate": 0.41150739714503287,
    "requestedRate": 0.41575168807678786,
    "time": 104597
  },
  {
    "temp": 168.76803588867188,
    "load": 491972,
    "rate": 0.42419016547501087,
    "requestedRate": 0.41575168807678786,
    "time": 104794
  },
  {
    "temp": 168.58523559570312,
    "load": 491556,
    "rate": 0.45882468156516554,
    "requestedRate": 0.41575168807678786,
    "time": 104998
  },
  {
    "temp": 168.3999481201172,
    "load": 488483,
    "rate": 0.48644288286566734,
    "requestedRate": 0.41575168807678786,
    "time": 105230
  },
  {
    "temp": 168.2198944091797,
    "load": 481119,
    "rate": 0.5484264747798443,
    "requestedRate": 0.41575168807678786,
    "time": 105434
  },
  {
    "temp": 168.04318237304688,
    "load": 480026,
    "rate": 0.49409331545233726,
    "requestedRate": 0.41575168807678786,
    "time": 105638
  },
  {
    "temp": 167.86863708496094,
    "load": 482000,
    "rate": 0.41872163146734237,
    "requestedRate": 0.41575168807678786,
    "time": 105838
  },
  {
    "temp": 167.59971618652344,
    "load": 485063,
    "rate": 0.3903907933831215,
    "requestedRate": 0.41575168807678786,
    "time": 106051
  },
  {
    "temp": 167.42771911621094,
    "load": 488456,
    "rate": 0.3732834416627884,
    "requestedRate": 0.41575168807678786,
    "time": 106292
  },
  {
    "temp": 167.24935913085938,
    "load": 484081,
    "rate": 0.37689597487449644,
    "requestedRate": 0.41575168807678786,
    "time": 106493
  },
  {
    "temp": 167.06689453125,
    "load": 481499,
    "rate": 0.3971944800764322,
    "requestedRate": 0.41575168807678786,
    "time": 106707
  },
  {
    "temp": 166.88182067871094,
    "load": 481653,
    "rate": 0.41558892734348774,
    "requestedRate": 0.41575168807678786,
    "time": 106908
  },
  {
    "temp": 166.69509887695312,
    "load": 482998,
    "rate": 0.5021434360742569,
    "requestedRate": 0.41575168807678786,
    "time": 107122
  },
  {
    "temp": 166.5209503173828,
    "load": 490518,
    "rate": 0.5257983255386353,
    "requestedRate": 0.41575168807678786,
    "time": 107335
  },
  {
    "temp": 166.34121704101562,
    "load": 491390,
    "rate": 0.49879263281822206,
    "requestedRate": 0.41575168807678786,
    "time": 107543
  },
  {
    "temp": 166.1647186279297,
    "load": 487552,
    "rate": 0.44834228686988353,
    "requestedRate": 0.41575168807678786,
    "time": 107780
  },
  {
    "temp": 165.88726806640625,
    "load": 486708,
    "rate": 0.3805622287094593,
    "requestedRate": 0.41575168807678786,
    "time": 108005
  },
  {
    "temp": 165.7034454345703,
    "load": 487589,
    "rate": 0.3828848896175623,
    "requestedRate": 0.41575168807678786,
    "time": 108198
  },
  {
    "temp": 165.52432250976562,
    "load": 497177,
    "rate": 0.38244937866926193,
    "requestedRate": 0.41575168807678786,
    "time": 108422
  },
  {
    "temp": 165.34140014648438,
    "load": 507895,
    "rate": 0.3564161831885576,
    "requestedRate": 0.41575168807678786,
    "time": 108662
  },
  {
    "temp": 165.156005859375,
    "load": 514419,
    "rate": 0.3747385447472334,
    "requestedRate": 0.41575168807678786,
    "time": 108881
  },
  {
    "temp": 164.87770080566406,
    "load": 515967,
    "rate": 0.42190654411911965,
    "requestedRate": 0.41575168807678786,
    "time": 109077
  },
  {
    "temp": 164.70216369628906,
    "load": 518027,
    "rate": 0.4666986568272114,
    "requestedRate": 0.41575168807678786,
    "time": 109300
  },
  {
    "temp": 164.52835083007812,
    "load": 523880,
    "rate": 0.5120192331075668,
    "requestedRate": 0.41575168807678786,
    "time": 109514
  },
  {
    "temp": 164.3556365966797,
    "load": 530651,
    "rate": 0.4986053529381752,
    "requestedRate": 0.41575168807678786,
    "time": 109729
  },
  {
    "temp": 164.1836395263672,
    "load": 536131,
    "rate": 0.4606422751396894,
    "requestedRate": 0.41575168807678786,
    "time": 109943
  },
  {
    "temp": 164.01210021972656,
    "load": 545583,
    "rate": 0.3932251198589802,
    "requestedRate": 0.41575168807678786,
    "time": 110146
  },
  {
    "temp": 163.8408660888672,
    "load": 550631,
    "rate": 0.3506552099436521,
    "requestedRate": 0.41575168807678786,
    "time": 110341
  },
  {
    "temp": 163.65272521972656,
    "load": 552968,
    "rate": 0.36169529289007185,
    "requestedRate": 0.41575168807678786,
    "time": 110575
  },
  {
    "temp": 163.31375122070312,
    "load": 556455,
    "rate": 0.37578222043812276,
    "requestedRate": 0.41575168807678786,
    "time": 110800
  },
  {
    "temp": 163.10365295410156,
    "load": 560395,
    "rate": 0.4012966847419739,
    "requestedRate": 0.41575168807678786,
    "time": 111013
  },
  {
    "temp": 162.89064025878906,
    "load": 572647,
    "rate": 0.46019076347351073,
    "requestedRate": 0.41575168807678786,
    "time": 111227
  },
  {
    "temp": 162.69285583496094,
    "load": 586705,
    "rate": 0.435546001419425,
    "requestedRate": 0.41575168807678786,
    "time": 111468
  },
  {
    "temp": 162.50479125976562,
    "load": 600335,
    "rate": 0.47245545119047166,
    "requestedRate": 0.41575168807678786,
    "time": 111668
  },
  {
    "temp": 162.32296752929688,
    "load": 608071,
    "rate": 0.5064134833216667,
    "requestedRate": 0.41575168807678786,
    "time": 111853
  },
  {
    "temp": 162.1451416015625,
    "load": 613778,
    "rate": 0.4222051966935396,
    "requestedRate": 0.41575168807678786,
    "time": 112086
  },
  {
    "temp": 161.9698486328125,
    "load": 617943,
    "rate": 0.36790992222726343,
    "requestedRate": 0.41575168807678786,
    "time": 112280
  },
  {
    "temp": 161.79620361328125,
    "load": 621857,
    "rate": 0.3532039978355169,
    "requestedRate": 0.41575168807678786,
    "time": 112478
  },
  {
    "temp": 161.62359619140625,
    "load": 628624,
    "rate": 0.3730154983699322,
    "requestedRate": 0.41575168807678786,
    "time": 112686
  },
  {
    "temp": 161.42433166503906,
    "load": 640839,
    "rate": 0.3697431866079569,
    "requestedRate": 0.41575168807678786,
    "time": 112888
  },
  {
    "temp": 161.24217224121094,
    "load": 650080,
    "rate": 0.3001396514475346,
    "requestedRate": 0.41575168807678786,
    "time": 113130
  },
  {
    "temp": 160.95742797851562,
    "load": 651760,
    "rate": 0.3893625960499048,
    "requestedRate": 0.41575168807678786,
    "time": 113348
  },
  {
    "temp": 160.7794647216797,
    "load": 666021,
    "rate": 0.48727558001875876,
    "requestedRate": 0.41575168807678786,
    "time": 113551
  },
  {
    "temp": 160.60411071777344,
    "load": 676838,
    "rate": 0.4976042358577251,
    "requestedRate": 0.41575168807678786,
    "time": 113755
  },
  {
    "temp": 160.43040466308594,
    "load": 686140,
    "rate": 0.5551305556297302,
    "requestedRate": 0.41575168807678786,
    "time": 113956
  },
  {
    "temp": 160.2591552734375,
    "load": 699138,
    "rate": 0.4470457063615322,
    "requestedRate": 0.41575168807678786,
    "time": 114150
  },
  {
    "temp": 160.09109497070312,
    "load": 703104,
    "rate": 0.3968775174021721,
    "requestedRate": 0.41575168807678786,
    "time": 114360
  },
  {
    "temp": 159.92550659179688,
    "load": 711659,
    "rate": 0.3270293802022934,
    "requestedRate": 0.41575168807678786,
    "time": 114561
  },
  {
    "temp": 159.76150512695312,
    "load": 716271,
    "rate": 0.2892372241616249,
    "requestedRate": 0.41575168807678786,
    "time": 114793
  },
  {
    "temp": 159.59849548339844,
    "load": 637343,
    "rate": -2.1512387841939926,
    "requestedRate": 0.41575168807678786,
    "time": 115013
  }
]