[
  {
    "temp": 288.3937683105469,
    "load": 112004,
    "rate": 2.1665528458356857,
    "requestedRate": 2.078758440383939,
    "time": 50
  },
  {
    "temp": 288.38958740234375,
    "load": 111984,
    "rate": 2.1934329521656037,
    "requestedRate": 2.078758440383939,
    "time": 229
  },
  {
    "temp": 288.3880920410156,
    "load": 111196,
    "rate": 2.2009402030706404,
    "requestedRate": 2.078758440383939,
    "time": 423
  },
  {
    "temp": 288.38519287109375,
    "load": 110158,
    "rate": 2.209954270720482,
    "requestedRate": 2.078758440383939,
    "time": 638
  },
  {
    "temp": 288.38409423828125,
    "load": 109794,
    "rate": 2.218924570083618,
    "requestedRate": 2.078758440383939,
    "time": 880
  },
  {
    "temp": 288.3833923339844,
    "load": 108652,
    "rate": 2.2703564858436582,
    "requestedRate": 2.078758440383939,
    "time": 1093
  },
  {
    "temp": 288.3829650878906,
    "load": 108621,
    "rate": 2.164773522019386,
    "requestedRate": 2.078758440383939,
    "time": 1296
  },
  {
    "temp": 288.41656494140625,
    "load": 108166,
    "rate": 2.2603693985939026,
    "requestedRate": 2.078758440383939,
    "time": 1501
  },
  {
    "temp": 288.4042053222656,
    "load": 108022,
    "rate": 2.1644697833061217,
    "requestedRate": 2.078758440383939,
    "time": 1732
  },
  {
    "temp": 288.3934631347656,
    "load": 107392,
    "rate": 2.314814507961273,
    "requestedRate": 2.078758440383939,
    "time": 1952
  },
  {
    "temp": 288.389404296875,
    "load": 106083,
    "rate": 2.1632125997543334,
    "requestedRate": 2.078758440383939,
    "time": 2149
  },
  {
    "temp": 288.3444519042969,
    "load": 104277,
    "rate": 2.2843438625335692,
    "requestedRate": 2.078758440383939,
    "time": 2370
  },
  {
    "temp": 288.315673828125,
    "load": 103533,
    "rate": 2.212638212442398,
    "requestedRate": 2.078758440383939,
    "time": 2589
  },
  {
    "temp": 288.0685119628906,
    "load": 102189,
    "rate": 2.256939416527748,
    "requestedRate": 2.078758440383939,
    "time": 2800
  },
  {
    "temp": 287.91033935546875,
    "load": 100492,
    "rate": 2.18196544110775,
    "requestedRate": 2.078758440383939,
    "time": 3298
  },
  {
    "temp": 287.6579895019531,
    "load": 99485,
    "rate": 2.314991120696068,
    "requestedRate": 2.078758440383939,
    "time": 3506
  },
  {
    "temp": 287.61370849609375,
    "load": 99642,
    "rate": 2.2059179109334943,
    "requestedRate": 2.078758440383939,
    "time": 3722
  },
  {
    "temp": 287.5853576660156,
    "load": 99373,
    "rate": 2.314127191901207,
    "requestedRate": 2.078758440383939,
    "time": 3926
  },
  {
    "temp": 287.4401550292969,
    "load": 99481,
    "rate": 2.2206748616695404,
    "requestedRate": 2.078758440383939,
    "time": 4146
  },
  {
    "temp": 287.2117004394531,
    "load": 99748,
    "rate": 2.3207322442531586,
    "requestedRate": 2.078758440383939,
    "time": 4360
  },
  {
    "temp": 286.9560546875,
    "load": 99272,
    "rate": 2.205780447721481,
    "requestedRate": 2.078758440383939,
    "time": 4566
  },
  {
    "temp": 286.8594970703125,
    "load": 99312,
    "rate": 2.3281180876493455,
    "requestedRate": 2.078758440383939,
    "time": 4770
  },
  {
    "temp": 286.7553405761719,
    "load": 99642,
    "rate": 2.185418736934662,
    "requestedRate": 2.078758440383939,
    "time": 4986
  },
  {
    "temp": 286.53619384765625,
    "load": 99790,
    "rate": 2.312837677001953,
    "requestedRate": 2.078758440383939,
    "time": 5192
  },
  {
    "temp": 286.3197021484375,
    "load": 99728,
    "rate": 2.155535774230957,
    "requestedRate": 2.078758440383939,
    "time": 5395
  },
  {
    "temp": 286.1472473144531,
    "load": 99464,
    "rate": 2.271398347020149,
    "requestedRate": 2.078758440383939,
    "time": 5633
  },
  {
    "temp": 285.9098205566406,
    "load": 99347,
    "rate": 2.157181593775749,
    "requestedRate": 2.078758440383939,
    "time": 5852
  },
  {
    "temp": 285.5799560546875,
    "load": 99847,
    "rate": 2.223124786019325,
    "requestedRate": 2.078758440383939,
    "time": 6065
  },
  {
    "temp": 285.36883544921875,
    "load": 100390,
    "rate": 2.1459415018558503,
    "requestedRate": 2.078758440383939,
    "time": 6267
  },
  {
    "temp": 285.14898681640625,
    "load": 100534,
    "rate": 2.204920917749405,
    "requestedRate": 2.078758440383939,
    "time": 6468
  },
  {
    "temp": 284.6867370605469,
    "load": 100652,
    "rate": 2.164284152984619,
    "requestedRate": 2.078758440383939,
    "time": 6689
  },
  {
    "temp": 284.4921569824219,
    "load": 100853,
    "rate": 2.1881097167730332,
    "requestedRate": 2.078758440383939,
    "time": 6892
  },
  {
    "temp": 284.19818115234375,
    "load": 101180,
    "rate": 2.154788414239883,
    "requestedRate": 2.078758440383939,
    "time": 7107
  },
  {
    "temp": 283.87451171875,
    "load": 101257,
    "rate": 2.20943235039711,
    "requestedRate": 2.078758440383939,
    "time": 7323
  },
  {
    "temp": 283.6673583984375,
    "load": 101367,
    "rate": 2.1661263799667356,
    "requestedRate": 2.078758440383939,
    "time": 7558
  },
  {
    "temp": 283.4076843261719,
    "load": 101536,
    "rate": 2.123050687909126,
    "requestedRate": 2.078758440383939,
    "time": 7765
  },
  {
    "temp": 283.0635986328125,
    "load": 101269,
    "rate": 2.21082457780838,
    "requestedRate": 2.078758440383939,
    "time": 7985
  },
  {
    "temp": 282.8433837890625,
    "load": 101619,
    "rate": 2.105258549451828,
    "requestedRate": 2.078758440383939,
    "time": 8188
  },
  {
    "temp": 282.2660217285156,
    "load": 101482,
    "rate": 2.208729418516159,
    "requestedRate": 2.078758440383939,
    "time": 8394
  },
  {
    "temp": 282.1337585449219,
    "load": 101984,
    "rate": 2.1245953345298765,
    "requestedRate": 2.078758440383939,
    "time": 8593
  },
  {
    "temp": 281.54351806640625,
    "load": 102410,
    "rate": 2.2026931339502336,
    "requestedRate": 2.078758440383939,
    "time": 8824
  },
  {
    "temp": 281.26055908203125,
    "load": 102713,
    "rate": 2.1245834577083587,
    "requestedRate": 2.078758440383939,
    "time": 9036
  },
  {
    "temp": 280.91485595703125,
    "load": 101811,
    "rate": 2.265370420217514,
    "requestedRate": 2.078758440383939,
    "time": 9255
  },
  {
    "temp": 280.5618591308594,
    "load": 102057,
    "rate": 2.1478598284721375,
    "requestedRate": 2.078758440383939,
    "time": 9448
  },
  {
    "temp": 280.2738952636719,
    "load": 101508,
    "rate": 2.299253452420235,
    "requestedRate": 2.078758440383939,
    "time": 9646
  },
  {
    "temp": 279.92816162109375,
    "load": 102099,
    "rate": 2.1792507076263425,
    "requestedRate": 2.078758440383939,
    "time": 9844
  },
  {
    "temp": 279.67584228515625,
    "load": 102186,
    "rate": 2.295377869606018,
    "requestedRate": 2.078758440383939,
    "time": 10082
  },
  {
    "temp": 279.3467102050781,
    "load": 102085,
    "rate": 2.1495511758327486,
    "requestedRate": 2.078758440383939,
    "time": 10262
  },
  {
    "temp": 279.1112365722656,
    "load": 102126,
    "rate": 2.289166291952133,
    "requestedRate": 2.078758440383939,
    "time": 10462
  },
  {
    "temp": 278.8363342285156,
    "load": 102938,
    "rate": 2.1341124075651168,
    "requestedRate": 2.078758440383939,
    "time": 10678
  },
  {
    "temp": 278.5610656738281,
    "load": 102454,
    "rate": 2.2656570035219192,
    "requestedRate": 2.078758440383939,
    "time": 10896
  },
  {
    "temp": 278.3538513183594,
    "load": 103208,
    "rate": 2.1514969950914384,
    "requestedRate": 2.078758440383939,
    "time": 11096
  },
  {
    "temp": 278.0287780761719,
    "load": 102708,
    "rate": 2.2634217417240143,
    "requestedRate": 2.078758440383939,
    "time": 11305
  },
  {
    "temp": 277.7586364746094,
    "load": 103130,
    "rate": 2.1311808121204376,
    "requestedRate": 2.078758440383939,
    "time": 11522
  },
  {
    "temp": 277.3054504394531,
    "load": 103126,
    "rate": 2.2786333107948304,
    "requestedRate": 2.078758440383939,
    "time": 11760
  },
  {
    "temp": 277.0101013183594,
    "load": 103990,
    "rate": 2.1529512459039686,
    "requestedRate": 2.078758440383939,
    "time": 11948
  },
  {
    "temp": 276.7217102050781,
    "load": 104057,
    "rate": 2.268408027291298,
    "requestedRate": 2.078758440383939,
    "time": 12139
  },
  {
    "temp": 276.4129638671875,
    "load": 103793,
    "rate": 2.144321635365486,
    "requestedRate": 2.078758440383939,
    "time": 12362
  },
  {
    "temp": 276.1160583496094,
    "load": 103660,
    "rate": 2.267527382969856,
    "requestedRate": 2.078758440383939,
    "time": 12568
  },
  {
    "temp": 275.8329162597656,
    "load": 104366,
    "rate": 2.167632976770401,
    "requestedRate": 2.078758440383939,
    "time": 12782
  },
  {
    "temp": 275.52130126953125,
    "load": 104000,
    "rate": 2.2629321527481077,
    "requestedRate": 2.078758440383939,
    "time": 12985
  },
  {
    "temp": 275.259765625,
    "load": 104354,
    "rate": 2.146713935136795,
    "requestedRate": 2.078758440383939,
    "time": 13188
  },
  {
    "temp": 274.93096923828125,
    "load": 104666,
    "rate": 2.239912233352661,
    "requestedRate": 2.078758440383939,
    "time": 13406
  },
  {
    "temp": 274.5963439941406,
    "load": 104290,
    "rate": 2.1522579914331437,
    "requestedRate": 2.078758440383939,
    "time": 13605
  },
  {
    "temp": 274.2828674316406,
    "load": 104593,
    "rate": 2.28937897503376,
    "requestedRate": 2.078758440383939,
    "time": 13833
  },
  {
    "temp": 273.7873840332031,
    "load": 105272,
    "rate": 2.140711741447449,
    "requestedRate": 2.078758440383939,
    "time": 14060
  },
  {
    "temp": 273.5416259765625,
    "load": 105044,
    "rate": 2.2402344471216202,
    "requestedRate": 2.078758440383939,
    "time": 14275
  },
  {
    "temp": 273.1856384277344,
    "load": 105128,
    "rate": 2.177795577049255,
    "requestedRate": 2.078758440383939,
    "time": 14491
  },
  {
    "temp": 272.9329528808594,
    "load": 105331,
    "rate": 2.228478373289108,
    "requestedRate": 2.078758440383939,
    "time": 14693
  },
  {
    "temp": 272.5477294921875,
    "load": 104803,
    "rate": 2.181849092245102,
    "requestedRate": 2.078758440383939,
    "time": 14904
  },
  {
    "temp": 272.30120849609375,
    "load": 105230,
    "rate": 2.225345751643181,
    "requestedRate": 2.078758440383939,
    "time": 15109
  },
  {
    "temp": 271.919921875,
    "load": 105874,
    "rate": 2.2009173291921615,
    "requestedRate": 2.078758440383939,
    "time": 15319
  },
  {
    "temp": 271.6759033203125,
    "load": 105818,
    "rate": 2.2416429501771926,
    "requestedRate": 2.078758440383939,
    "time": 15535
  },
  {
    "temp": 271.2962341308594,
    "load": 105535,
    "rate": 2.242505779266357,
    "requestedRate": 2.078758440383939,
    "time": 15748
  },
  {
    "temp": 270.9911193847656,
    "load": 106040,
    "rate": 2.2704178494215013,
    "requestedRate": 2.078758440383939,
    "time": 15952
  },
  {
    "temp": 270.63446044921875,
    "load": 106437,
    "rate": 2.2600810557603834,
    "requestedRate": 2.078758440383939,
    "time": 16168
  },
  {
    "temp": 270.31304931640625,
    "load": 106602,
    "rate": 2.2590475523471834,
    "requestedRate": 2.078758440383939,
    "time": 16370
  },
  {
    "temp": 269.8574523925781,
    "load": 106755,
    "rate": 2.2384498447179793,
    "requestedRate": 2.078758440383939,
    "time": 16595
  },
  {
    "temp": 269.4618835449219,
    "load": 106713,
    "rate": 2.2418945628404616,
    "requestedRate": 2.078758440383939,
    "time": 16804
  },
  {
    "temp": 269.1776428222656,
    "load": 106400,
    "rate": 2.315244492888451,
    "requestedRate": 2.078758440383939,
    "time": 17034
  },
  {
    "temp": 268.80328369140625,
    "load": 107104,
    "rate": 2.183398357629776,
    "requestedRate": 2.078758440383939,
    "time": 17262
  },
  {
    "temp": 268.5326232910156,
    "load": 107108,
    "rate": 2.307257330417633,
    "requestedRate": 2.078758440383939,
    "time": 17482
  },
  {
    "temp": 268.03692626953125,
    "load": 107716,
    "rate": 2.195356337428093,
    "requestedRate": 2.078758440383939,
    "time": 17701
  },
  {
    "temp": 267.6261901855469,
    "load": 108007,
    "rate": 2.294786447882652,
    "requestedRate": 2.078758440383939,
    "time": 17913
  },
  {
    "temp": 267.30120849609375,
    "load": 108010,
    "rate": 2.164138771891594,
    "requestedRate": 2.078758440383939,
    "time": 18121
  },
  {
    "temp": 266.9317932128906,
    "load": 107954,
    "rate": 2.3015230250358583,
    "requestedRate": 2.078758440383939,
    "time": 18317
  },
  {
    "temp": 266.5463562011719,
    "load": 108540,
    "rate": 2.1946626430749894,
    "requestedRate": 2.078758440383939,
    "time": 18525
  },
  {
    "temp": 266.2251892089844,
    "load": 109062,
    "rate": 2.247349762916565,
    "requestedRate": 2.078758440383939,
    "time": 18744
  },
  {
    "temp": 265.7961120605469,
    "load": 109050,
    "rate": 2.164081367254257,
    "requestedRate": 2.078758440383939,
    "time": 18959
  },
  {
    "temp": 265.490478515625,
    "load": 109433,
    "rate": 2.247896976470947,
    "requestedRate": 2.078758440383939,
    "time": 19165
  },
  {
    "temp": 265.1023864746094,
    "load": 109172,
    "rate": 2.1657762336730957,
    "requestedRate": 2.078758440383939,
    "time": 19398
  },
  {
    "temp": 264.7049865722656,
    "load": 109325,
    "rate": 2.1614895808696746,
    "requestedRate": 2.078758440383939,
    "time": 19584
  },
  {
    "temp": 264.3451232910156,
    "load": 109787,
    "rate": 2.176321531534195,
    "requestedRate": 2.078758440383939,
    "time": 19779
  },
  {
    "temp": 263.9720153808594,
    "load": 110545,
    "rate": 2.1718688231706618,
    "requestedRate": 2.078758440383939,
    "time": 19994
  },
  {
    "temp": 263.6214294433594,
    "load": 110332,
    "rate": 2.138879191875458,
    "requestedRate": 2.078758440383939,
    "time": 20185
  },
  {
    "temp": 263.23565673828125,
    "load": 110533,
    "rate": 2.1959136682748794,
    "requestedRate": 2.078758440383939,
    "time": 20400
  },
  {
    "temp": 262.6575927734375,
    "load": 110882,
    "rate": 2.180495574474335,
    "requestedRate": 2.078758440383939,
    "time": 20609
  },
  {
    "temp": 262.2711181640625,
    "load": 111220,
    "rate": 2.189263967871666,
    "requestedRate": 2.078758440383939,
    "time": 20827
  },
  {
    "temp": 261.9244079589844,
    "load": 111611,
    "rate": 2.1889136016368864,
    "requestedRate": 2.078758440383939,
    "time": 21031
  },
  {
    "temp": 261.50384521484375,
    "load": 112374,
    "rate": 2.193103040456772,
    "requestedRate": 2.078758440383939,
    "time": 21264
  },
  {
    "temp": 261.2098388671875,
    "load": 112086,
    "rate": 2.2468870067596436,
    "requestedRate": 2.078758440383939,
    "time": 21480
  },
  {
    "temp": 260.822998046875,
    "load": 112808,
    "rate": 2.190279216170311,
    "requestedRate": 2.078758440383939,
    "time": 21693
  },
  {
    "temp": 260.4796142578125,
    "load": 113241,
    "rate": 2.3030879062414167,
    "requestedRate": 2.078758440383939,
    "time": 21912
  },
  {
    "temp": 260.16046142578125,
    "load": 113593,
    "rate": 2.188584569692612,
    "requestedRate": 2.078758440383939,
    "time": 22110
  },
  {
    "temp": 259.86962890625,
    "load": 114013,
    "rate": 2.3021973645687104,
    "requestedRate": 2.078758440383939,
    "time": 22295
  },
  {
    "temp": 259.60601806640625,
    "load": 114721,
    "rate": 2.148003669977188,
    "requestedRate": 2.078758440383939,
    "time": 22511
  },
  {
    "temp": 259.27325439453125,
    "load": 114899,
    "rate": 2.2653858160972593,
    "requestedRate": 2.078758440383939,
    "time": 22750
  },
  {
    "temp": 258.8387756347656,
    "load": 115473,
    "rate": 2.1727780598402022,
    "requestedRate": 2.078758440383939,
    "time": 22940
  },
  {
    "temp": 258.5270690917969,
    "load": 115960,
    "rate": 2.313534670472145,
    "requestedRate": 2.078758440383939,
    "time": 23130
  },
  {
    "temp": 258.2546691894531,
    "load": 116519,
    "rate": 2.162203069925308,
    "requestedRate": 2.078758440383939,
    "time": 23352
  },
  {
    "temp": 257.98919677734375,
    "load": 116983,
    "rate": 2.283741223812103,
    "requestedRate": 2.078758440383939,
    "time": 23561
  },
  {
    "temp": 257.74639892578125,
    "load": 117580,
    "rate": 2.151863417029381,
    "requestedRate": 2.078758440383939,
    "time": 23768
  },
  {
    "temp": 257.4269714355469,
    "load": 118055,
    "rate": 2.2779374170303344,
    "requestedRate": 2.078758440383939,
    "time": 23978
  },
  {
    "temp": 257.1313781738281,
    "load": 118841,
    "rate": 2.1615947127342223,
    "requestedRate": 2.078758440383939,
    "time": 24187
  },
  {
    "temp": 256.8692932128906,
    "load": 119195,
    "rate": 2.3006546974182127,
    "requestedRate": 2.078758440383939,
    "time": 24373
  },
  {
    "temp": 256.5557556152344,
    "load": 119890,
    "rate": 2.164880853295326,
    "requestedRate": 2.078758440383939,
    "time": 24584
  },
  {
    "temp": 256.2685241699219,
    "load": 120054,
    "rate": 2.2727954131364823,
    "requestedRate": 2.078758440383939,
    "time": 24828
  },
  {
    "temp": 255.98898315429688,
    "load": 120009,
    "rate": 2.1623792427778246,
    "requestedRate": 2.078758440383939,
    "time": 25045
  },
  {
    "temp": 255.66427612304688,
    "load": 119834,
    "rate": 2.234189804792404,
    "requestedRate": 2.078758440383939,
    "time": 25256
  },
  {
    "temp": 255.2667236328125,
    "load": 120324,
    "rate": 2.1603509455919268,
    "requestedRate": 2.078758440383939,
    "time": 25473
  },
  {
    "temp": 255.01976013183594,
    "load": 120850,
    "rate": 2.2082017797231672,
    "requestedRate": 2.078758440383939,
    "time": 25718
  },
  {
    "temp": 254.6976776123047,
    "load": 120962,
    "rate": 2.1767596542835235,
    "requestedRate": 2.078758440383939,
    "time": 25922
  },
  {
    "temp": 254.40042114257812,
    "load": 120798,
    "rate": 2.207811824083328,
    "requestedRate": 2.078758440383939,
    "time": 26132
  },
  {
    "temp": 254.13726806640625,
    "load": 120957,
    "rate": 2.205802221894264,
    "requestedRate": 2.078758440383939,
    "time": 26331
  },
  {
    "temp": 253.80479431152344,
    "load": 121776,
    "rate": 2.1941389632225037,
    "requestedRate": 2.078758440383939,
    "time": 26575
  },
  {
    "temp": 253.35232543945312,
    "load": 121855,
    "rate": 2.2701565593481066,
    "requestedRate": 2.078758440383939,
    "time": 26792
  },
  {
    "temp": 253.0928497314453,
    "load": 122866,
    "rate": 2.209334036707878,
    "requestedRate": 2.078758440383939,
    "time": 26997
  },
  {
    "temp": 252.8083038330078,
    "load": 122605,
    "rate": 2.2800277376174924,
    "requestedRate": 2.078758440383939,
    "time": 27230
  },
  {
    "temp": 252.4986114501953,
    "load": 122430,
    "rate": 2.206180960536003,
    "requestedRate": 2.078758440383939,
    "time": 27466
  },
  {
    "temp": 252.03469848632812,
    "load": 123267,
    "rate": 2.3398310530185698,
    "requestedRate": 2.078758440383939,
    "time": 27694
  },
  {
    "temp": 251.75743103027344,
    "load": 123093,
    "rate": 2.2122053682804106,
    "requestedRate": 2.078758440383939,
    "time": 27922
  },
  {
    "temp": 251.46151733398438,
    "load": 123415,
    "rate": 2.275352668762207,
    "requestedRate": 2.078758440383939,
    "time": 28134
  },
  {
    "temp": 251.18101501464844,
    "load": 123783,
    "rate": 2.2435502797365188,
    "requestedRate": 2.078758440383939,
    "time": 28348
  },
  {
    "temp": 250.8602294921875,
    "load": 124116,
    "rate": 2.276401568055153,
    "requestedRate": 2.078758440383939,
    "time": 28574
  },
  {
    "temp": 250.3838653564453,
    "load": 124105,
    "rate": 2.1935600781440736,
    "requestedRate": 2.078758440383939,
    "time": 28794
  },
  {
    "temp": 250.09033203125,
    "load": 124452,
    "rate": 2.2307169342041013,
    "requestedRate": 2.078758440383939,
    "time": 29011
  },
  {
    "temp": 249.79310607910156,
    "load": 124533,
    "rate": 2.2108610880374906,
    "requestedRate": 2.078758440383939,
    "time": 29205
  },
  {
    "temp": 249.45706176757812,
    "load": 125017,
    "rate": 2.2494075322151184,
    "requestedRate": 2.078758440383939,
    "time": 29406
  },
  {
    "temp": 249.16909790039062,
    "load": 125086,
    "rate": 2.201343355178833,
    "requestedRate": 2.078758440383939,
    "time": 29602
  },
  {
    "temp": 248.83897399902344,
    "load": 125715,
    "rate": 2.2036080890893937,
    "requestedRate": 2.078758440383939,
    "time": 29820
  },
  {
    "temp": 248.51834106445312,
    "load": 125044,
    "rate": 2.2325923722982406,
    "requestedRate": 2.078758440383939,
    "time": 30057
  },
  {
    "temp": 248.21290588378906,
    "load": 125817,
    "rate": 2.1979740768671037,
    "requestedRate": 2.078758440383939,
    "time": 30275
  },
  {
    "temp": 247.8807373046875,
    "load": 125569,
    "rate": 2.2575444746017457,
    "requestedRate": 2.078758440383939,
    "time": 30481
  },
  {
    "temp": 247.55877685546875,
    "load": 125959,
    "rate": 2.1711744689941406,
    "requestedRate": 2.078758440383939,
    "time": 30711
  },
  {
    "temp": 247.0595245361328,
    "load": 126247,
    "rate": 2.292519074678421,
    "requestedRate": 2.078758440383939,
    "time": 30923
  },
  {
    "temp": 246.72335815429688,
    "load": 127266,
    "rate": 2.152537536621094,
    "requestedRate": 2.078758440383939,
    "time": 31138
  },
  {
    "temp": 246.43528747558594,
    "load": 126463,
    "rate": 2.2518112689256666,
    "requestedRate": 2.078758440383939,
    "time": 31333
  },
  {
    "temp": 246.10513305664062,
    "load": 126830,
    "rate": 2.1220594131946564,
    "requestedRate": 2.078758440383939,
    "time": 31539
  },
  {
    "temp": 245.74803161621094,
    "load": 127311,
    "rate": 2.243602185845375,
    "requestedRate": 2.078758440383939,
    "time": 31757
  },
  {
    "temp": 245.4602508544922,
    "load": 126981,
    "rate": 2.1373319059610365,
    "requestedRate": 2.078758440383939,
    "time": 31975
  },
  {
    "temp": 245.13479614257812,
    "load": 127697,
    "rate": 2.2296139293909074,
    "requestedRate": 2.078758440383939,
    "time": 32205
  },
  {
    "temp": 244.76248168945312,
    "load": 128541,
    "rate": 2.1380434155464174,
    "requestedRate": 2.078758440383939,
    "time": 32404
  },
  {
    "temp": 244.4330596923828,
    "load": 128106,
    "rate": 2.2165920943021775,
    "requestedRate": 2.078758440383939,
    "time": 32601
  },
  {
    "temp": 244.14930725097656,
    "load": 128673,
    "rate": 2.1733714610338213,
    "requestedRate": 2.078758440383939,
    "time": 32795
  },
  {
    "temp": 243.80368041992188,
    "load": 129427,
    "rate": 2.294484028816223,
    "requestedRate": 2.078758440383939,
    "time": 33018
  },
  {
    "temp": 243.47312927246094,
    "load": 129789,
    "rate": 2.200787124037743,
    "requestedRate": 2.078758440383939,
    "time": 33212
  },
  {
    "temp": 243.11575317382812,
    "load": 129534,
    "rate": 2.2661514312028883,
    "requestedRate": 2.078758440383939,
    "time": 33405
  },
  {
    "temp": 242.8141326904297,
    "load": 129831,
    "rate": 2.1882322239875793,
    "requestedRate": 2.078758440383939,
    "time": 33623
  },
  {
    "temp": 242.45704650878906,
    "load": 129831,
    "rate": 2.2156267726421355,
    "requestedRate": 2.078758440383939,
    "time": 33845
  },
  {
    "temp": 241.96864318847656,
    "load": 129732,
    "rate": 2.2314724320173265,
    "requestedRate": 2.078758440383939,
    "time": 34052
  },
  {
    "temp": 241.62432861328125,
    "load": 130523,
    "rate": 2.2241323363780974,
    "requestedRate": 2.078758440383939,
    "time": 34251
  },
  {
    "temp": 241.29916381835938,
    "load": 130912,
    "rate": 2.1739030587673187,
    "requestedRate": 2.078758440383939,
    "time": 34465
  },
  {
    "temp": 240.995361328125,
    "load": 130731,
    "rate": 2.213944442868233,
    "requestedRate": 2.078758440383939,
    "time": 34671
  },
  {
    "temp": 240.63693237304688,
    "load": 131360,
    "rate": 2.2010805255174635,
    "requestedRate": 2.078758440383939,
    "time": 34866
  },
  {
    "temp": 240.3130645751953,
    "load": 132264,
    "rate": 2.21630331158638,
    "requestedRate": 2.078758440383939,
    "time": 35052
  },
  {
    "temp": 240.01132202148438,
    "load": 132270,
    "rate": 2.1804953545331953,
    "requestedRate": 2.078758440383939,
    "time": 35255
  },
  {
    "temp": 239.73046875,
    "load": 132635,
    "rate": 2.1992358791828157,
    "requestedRate": 2.078758440383939,
    "time": 35486
  },
  {
    "temp": 239.4630126953125,
    "load": 133009,
    "rate": 2.1637395787239075,
    "requestedRate": 2.078758440383939,
    "time": 35712
  },
  {
    "temp": 239.17037963867188,
    "load": 133166,
    "rate": 2.1643820267915723,
    "requestedRate": 2.078758440383939,
    "time": 35926
  },
  {
    "temp": 238.9156036376953,
    "load": 133629,
    "rate": 2.2415611320734024,
    "requestedRate": 2.078758440383939,
    "time": 36139
  },
  {
    "temp": 238.68170166015625,
    "load": 135304,
    "rate": 2.1819401478767393,
    "requestedRate": 2.078758440383939,
    "time": 36335
  },
  {
    "temp": 238.42739868164062,
    "load": 135607,
    "rate": 2.2047693783044813,
    "requestedRate": 2.078758440383939,
    "time": 36534
  },
  {
    "temp": 238.1566925048828,
    "load": 136111,
    "rate": 2.1663777726888656,
    "requestedRate": 2.078758440383939,
    "time": 36736
  },
  {
    "temp": 237.9024658203125,
    "load": 136967,
    "rate": 2.1885535579919813,
    "requestedRate": 2.078758440383939,
    "time": 36962
  },
  {
    "temp": 237.6688995361328,
    "load": 138528,
    "rate": 2.1837372869253158,
    "requestedRate": 2.078758440383939,
    "time": 37172
  },
  {
    "temp": 237.25701904296875,
    "load": 139395,
    "rate": 2.201404278874397,
    "requestedRate": 2.078758440383939,
    "time": 37406
  },
  {
    "temp": 236.99603271484375,
    "load": 139826,
    "rate": 2.1427644520998,
    "requestedRate": 2.078758440383939,
    "time": 37647
  },
  {
    "temp": 236.7412567138672,
    "load": 141018,
    "rate": 2.2706670427322386,
    "requestedRate": 2.078758440383939,
    "time": 37865
  },
  {
    "temp": 236.3326416015625,
    "load": 141356,
    "rate": 2.160958862900734,
    "requestedRate": 2.078758440383939,
    "time": 38083
  },
  {
    "temp": 236.0737762451172,
    "load": 142864,
    "rate": 2.2802325028181074,
    "requestedRate": 2.078758440383939,
    "time": 38264
  },
  {
    "temp": 235.91424560546875,
    "load": 143463,
    "rate": 2.159480418562889,
    "requestedRate": 2.078758440383939,
    "time": 38459
  },
  {
    "temp": 235.61705017089844,
    "load": 143400,
    "rate": 2.2899928307533264,
    "requestedRate": 2.078758440383939,
    "time": 38680
  },
  {
    "temp": 235.16458129882812,
    "load": 143858,
    "rate": 2.1898861813545225,
    "requestedRate": 2.078758440383939,
    "time": 38881
  },
  {
    "temp": 234.9112091064453,
    "load": 143307,
    "rate": 2.3245233696699144,
    "requestedRate": 2.078758440383939,
    "time": 39100
  },
  {
    "temp": 234.6444549560547,
    "load": 143268,
    "rate": 2.1830585485696794,
    "requestedRate": 2.078758440383939,
    "time": 39308
  },
  {
    "temp": 234.38600158691406,
    "load": 143564,
    "rate": 2.3232659661769866,
    "requestedRate": 2.078758440383939,
    "time": 39521
  },
  {
    "temp": 234.09915161132812,
    "load": 144955,
    "rate": 2.1775888323783876,
    "requestedRate": 2.078758440383939,
    "time": 39729
  },
  {
    "temp": 233.83457946777344,
    "load": 144398,
    "rate": 2.2928606432676313,
    "requestedRate": 2.078758440383939,
    "time": 39959
  },
  {
    "temp": 233.55728149414062,
    "load": 144287,
    "rate": 2.2060243624448774,
    "requestedRate": 2.078758440383939,
    "time": 40190
  },
  {
    "temp": 233.12208557128906,
    "load": 144284,
    "rate": 2.2546082603931428,
    "requestedRate": 2.078758440383939,
    "time": 40397
  },
  {
    "temp": 232.8583526611328,
    "load": 144530,
    "rate": 2.203465347290039,
    "requestedRate": 2.078758440383939,
    "time": 40585
  },
  {
    "temp": 232.73458862304688,
    "load": 144842,
    "rate": 2.283052808046341,
    "requestedRate": 2.078758440383939,
    "time": 40788
  },
  {
    "temp": 232.43492126464844,
    "load": 146206,
    "rate": 2.1396606427431104,
    "requestedRate": 2.078758440383939,
    "time": 40999
  },
  {
    "temp": 232.0426788330078,
    "load": 146707,
    "rate": 2.23445637345314,
    "requestedRate": 2.078758440383939,
    "time": 41211
  },
  {
    "temp": 231.74916076660156,
    "load": 147589,
    "rate": 2.1885168278217315,
    "requestedRate": 2.078758440383939,
    "time": 41419
  },
  {
    "temp": 231.45335388183594,
    "load": 148818,
    "rate": 2.220580286979675,
    "requestedRate": 2.078758440383939,
    "time": 41623
  },
  {
    "temp": 231.18307495117188,
    "load": 149206,
    "rate": 2.138132711648941,
    "requestedRate": 2.078758440383939,
    "time": 41825
  },
  {
    "temp": 230.90548706054688,
    "load": 149959,
    "rate": 2.207056106328964,
    "requestedRate": 2.078758440383939,
    "time": 42026
  },
  {
    "temp": 230.65696716308594,
    "load": 150850,
    "rate": 2.1346981108188627,
    "requestedRate": 2.078758440383939,
    "time": 42219
  },
  {
    "temp": 230.37646484375,
    "load": 151910,
    "rate": 2.1967142540216447,
    "requestedRate": 2.078758440383939,
    "time": 42430
  },
  {
    "temp": 230.0754852294922,
    "load": 152573,
    "rate": 2.1267637342214583,
    "requestedRate": 2.078758440383939,
    "time": 42661
  },
  {
    "temp": 229.77488708496094,
    "load": 154363,
    "rate": 2.2301332104206084,
    "requestedRate": 2.078758440383939,
    "time": 42860
  },
  {
    "temp": 229.50152587890625,
    "load": 154891,
    "rate": 2.127625243663788,
    "requestedRate": 2.078758440383939,
    "time": 43083
  },
  {
    "temp": 229.2051239013672,
    "load": 155761,
    "rate": 2.1308278065919874,
    "requestedRate": 2.078758440383939,
    "time": 43295
  },
  {
    "temp": 228.91082763671875,
    "load": 155743,
    "rate": 2.17223084628582,
    "requestedRate": 2.078758440383939,
    "time": 43512
  },
  {
    "temp": 228.6178741455078,
    "load": 155416,
    "rate": 2.16334060549736,
    "requestedRate": 2.078758440383939,
    "time": 43711
  },
  {
    "temp": 228.34266662597656,
    "load": 154862,
    "rate": 2.224030283689499,
    "requestedRate": 2.078758440383939,
    "time": 43902
  },
  {
    "temp": 228.0450439453125,
    "load": 156131,
    "rate": 2.1591659027338026,
    "requestedRate": 2.078758440383939,
    "time": 44108
  },
  {
    "temp": 227.7736053466797,
    "load": 155968,
    "rate": 2.2014803785085677,
    "requestedRate": 2.078758440383939,
    "time": 44340
  },
  {
    "temp": 227.3509979248047,
    "load": 155452,
    "rate": 2.136362845301628,
    "requestedRate": 2.078758440383939,
    "time": 44546
  },
  {
    "temp": 227.04598999023438,
    "load": 155887,
    "rate": 2.2240060901641847,
    "requestedRate": 2.078758440383939,
    "time": 44763
  },
  {
    "temp": 226.7428436279297,
    "load": 156861,
    "rate": 2.163763332366943,
    "requestedRate": 2.078758440383939,
    "time": 44967
  },
  {
    "temp": 226.454345703125,
    "load": 156922,
    "rate": 2.221987030506134,
    "requestedRate": 2.078758440383939,
    "time": 45187
  },
  {
    "temp": 226.1617431640625,
    "load": 158570,
    "rate": 2.1724461686611174,
    "requestedRate": 2.078758440383939,
    "time": 45393
  },
  {
    "temp": 225.85301208496094,
    "load": 158861,
    "rate": 2.2715193146467207,
    "requestedRate": 2.078758440383939,
    "time": 45609
  },
  {
    "temp": 225.58457946777344,
    "load": 158436,
    "rate": 2.157727267742157,
    "requestedRate": 2.078758440383939,
    "time": 45814
  },
  {
    "temp": 225.30819702148438,
    "load": 159583,
    "rate": 2.2885779494047163,
    "requestedRate": 2.078758440383939,
    "time": 46020
  },
  {
    "temp": 225.00982666015625,
    "load": 160907,
    "rate": 2.1312503135204315,
    "requestedRate": 2.078758440383939,
    "time": 46246
  },
  {
    "temp": 224.5188446044922,
    "load": 160528,
    "rate": 2.2758207035064695,
    "requestedRate": 2.078758440383939,
    "time": 46491
  },
  {
    "temp": 224.21112060546875,
    "load": 162345,
    "rate": 2.1561544686555862,
    "requestedRate": 2.078758440383939,
    "time": 46685
  },
  {
    "temp": 223.90956115722656,
    "load": 162855,
    "rate": 2.2463312155008315,
    "requestedRate": 2.078758440383939,
    "time": 46881
  },
  {
    "temp": 223.6288604736328,
    "load": 162713,
    "rate": 2.116912130713463,
    "requestedRate": 2.078758440383939,
    "time": 47126
  },
  {
    "temp": 223.3277587890625,
    "load": 163518,
    "rate": 2.257667201757431,
    "requestedRate": 2.078758440383939,
    "time": 47344
  },
  {
    "temp": 223.01356506347656,
    "load": 165065,
    "rate": 2.163756294250488,
    "requestedRate": 2.078758440383939,
    "time": 47555
  },
  {
    "temp": 222.5979461669922,
    "load": 165056,
    "rate": 2.2387852549552916,
    "requestedRate": 2.078758440383939,
    "time": 47789
  },
  {
    "temp": 222.30357360839844,
    "load": 165671,
    "rate": 2.1446121776103975,
    "requestedRate": 2.078758440383939,
    "time": 47994
  },
  {
    "temp": 221.9936981201172,
    "load": 165906,
    "rate": 2.2216980278491976,
    "requestedRate": 2.078758440383939,
    "time": 48222
  },
  {
    "temp": 221.67391967773438,
    "load": 165564,
    "rate": 2.142109027504921,
    "requestedRate": 2.078758440383939,
    "time": 48431
  },
  {
    "temp": 221.3748016357422,
    "load": 165143,
    "rate": 2.165218902826309,
    "requestedRate": 2.078758440383939,
    "time": 48646
  },
  {
    "temp": 221.08888244628906,
    "load": 165030,
    "rate": 2.1576005816459656,
    "requestedRate": 2.078758440383939,
    "time": 48870
  },
  {
    "temp": 220.6461944580078,
    "load": 165864,
    "rate": 2.141085641384125,
    "requestedRate": 2.078758440383939,
    "time": 49090
  },
  {
    "temp": 220.34690856933594,
    "load": 165878,
    "rate": 2.2547551810741426,
    "requestedRate": 2.078758440383939,
    "time": 49294
  },
  {
    "temp": 220.0632781982422,
    "load": 166829,
    "rate": 2.133768639564514,
    "requestedRate": 2.078758440383939,
    "time": 49516
  },
  {
    "temp": 219.7896270751953,
    "load": 166212,
    "rate": 2.2453535771369935,
    "requestedRate": 2.078758440383939,
    "time": 49725
  },
  {
    "temp": 219.52239990234375,
    "load": 167316,
    "rate": 2.171227474808693,
    "requestedRate": 2.078758440383939,
    "time": 49927
  },
  {
    "temp": 219.27972412109375,
    "load": 167846,
    "rate": 2.252254890203476,
    "requestedRate": 2.078758440383939,
    "time": 50159
  },
  {
    "temp": 219.0425567626953,
    "load": 168387,
    "rate": 2.153525952100754,
    "requestedRate": 2.078758440383939,
    "time": 50384
  },
  {
    "temp": 218.7030487060547,
    "load": 168070,
    "rate": 2.3007725858688355,
    "requestedRate": 2.078758440383939,
    "time": 50599
  },
  {
    "temp": 218.4585723876953,
    "load": 169575,
    "rate": 2.1621309292316435,
    "requestedRate": 2.078758440383939,
    "time": 50819
  },
  {
    "temp": 218.2100067138672,
    "load": 169814,
    "rate": 2.296682560443878,
    "requestedRate": 2.078758440383939,
    "time": 51028
  },
  {
    "temp": 217.95880126953125,
    "load": 170715,
    "rate": 2.183444765210152,
    "requestedRate": 2.078758440383939,
    "time": 51229
  },
  {
    "temp": 217.7468719482422,
    "load": 172178,
    "rate": 2.314928877353668,
    "requestedRate": 2.078758440383939,
    "time": 51445
  },
  {
    "temp": 217.5191192626953,
    "load": 172652,
    "rate": 2.2078100645542142,
    "requestedRate": 2.078758440383939,
    "time": 51662
  },
  {
    "temp": 217.28126525878906,
    "load": 172146,
    "rate": 2.3183786541223528,
    "requestedRate": 2.078758440383939,
    "time": 51853
  },
  {
    "temp": 217.03692626953125,
    "load": 172900,
    "rate": 2.1943395495414735,
    "requestedRate": 2.078758440383939,
    "time": 52090
  },
  {
    "temp": 216.6773681640625,
    "load": 173407,
    "rate": 2.2670633071660995,
    "requestedRate": 2.078758440383939,
    "time": 52307
  },
  {
    "temp": 216.43551635742188,
    "load": 174437,
    "rate": 2.232261800765991,
    "requestedRate": 2.078758440383939,
    "time": 52509
  },
  {
    "temp": 216.17840576171875,
    "load": 174882,
    "rate": 2.235815389752388,
    "requestedRate": 2.078758440383939,
    "time": 52740
  },
  {
    "temp": 215.89361572265625,
    "load": 175664,
    "rate": 2.1538371688127516,
    "requestedRate": 2.078758440383939,
    "time": 52951
  },
  {
    "temp": 215.59620666503906,
    "load": 176447,
    "rate": 2.2045507568120954,
    "requestedRate": 2.078758440383939,
    "time": 53163
  },
  {
    "temp": 215.3137664794922,
    "load": 177659,
    "rate": 2.245339061021805,
    "requestedRate": 2.078758440383939,
    "time": 53411
  },
  {
    "temp": 215.0408935546875,
    "load": 179181,
    "rate": 2.1508013212680814,
    "requestedRate": 2.078758440383939,
    "time": 53599
  },
  {
    "temp": 214.65655517578125,
    "load": 179188,
    "rate": 2.2987495672702787,
    "requestedRate": 2.078758440383939,
    "time": 53825
  },
  {
    "temp": 214.40536499023438,
    "load": 181244,
    "rate": 2.165098595023155,
    "requestedRate": 2.078758440383939,
    "time": 54017
  },
  {
    "temp": 214.14224243164062,
    "load": 181557,
    "rate": 2.2628600120544435,
    "requestedRate": 2.078758440383939,
    "time": 54223
  },
  {
    "temp": 213.8817596435547,
    "load": 182588,
    "rate": 2.1052809834480284,
    "requestedRate": 2.078758440383939,
    "time": 54444
  },
  {
    "temp": 213.62295532226562,
    "load": 183275,
    "rate": 2.2757087534666063,
    "requestedRate": 2.078758440383939,
    "time": 54664
  },
  {
    "temp": 213.3856658935547,
    "load": 184602,
    "rate": 2.1186221730709076,
    "requestedRate": 2.078758440383939,
    "time": 54886
  },
  {
    "temp": 213.1314697265625,
    "load": 184571,
    "rate": 2.241172276139259,
    "requestedRate": 2.078758440383939,
    "time": 55086
  },
  {
    "temp": 212.89712524414062,
    "load": 186492,
    "rate": 2.1097121375799177,
    "requestedRate": 2.078758440383939,
    "time": 55295
  },
  {
    "temp": 212.62435913085938,
    "load": 187306,
    "rate": 2.2450018912553786,
    "requestedRate": 2.078758440383939,
    "time": 55528
  },
  {
    "temp": 212.2746124267578,
    "load": 188435,
    "rate": 2.1141278958320617,
    "requestedRate": 2.078758440383939,
    "time": 55739
  },
  {
    "temp": 212.04173278808594,
    "load": 189322,
    "rate": 2.2056047147512436,
    "requestedRate": 2.078758440383939,
    "time": 55980
  },
  {
    "temp": 211.7877960205078,
    "load": 190414,
    "rate": 2.135105001926422,
    "requestedRate": 2.078758440383939,
    "time": 56191
  },
  {
    "temp": 211.4088134765625,
    "load": 191402,
    "rate": 2.1495034486055373,
    "requestedRate": 2.078758440383939,
    "time": 56436
  },
  {
    "temp": 211.16015625,
    "load": 193061,
    "rate": 2.2131069070100784,
    "requestedRate": 2.078758440383939,
    "time": 56663
  },
  {
    "temp": 210.90890502929688,
    "load": 194047,
    "rate": 2.174652398228645,
    "requestedRate": 2.078758440383939,
    "time": 56866
  },
  {
    "temp": 210.645751953125,
    "load": 193896,
    "rate": 2.2026959931850434,
    "requestedRate": 2.078758440383939,
    "time": 57059
  },
  {
    "temp": 210.375,
    "load": 195337,
    "rate": 2.1724518871307374,
    "requestedRate": 2.078758440383939,
    "time": 57262
  },
  {
    "temp": 210.1300811767578,
    "load": 196427,
    "rate": 2.260417345762253,
    "requestedRate": 2.078758440383939,
    "time": 57491
  },
  {
    "temp": 209.8812255859375,
    "load": 197053,
    "rate": 2.175885828137398,
    "requestedRate": 2.078758440383939,
    "time": 57697
  },
  {
    "temp": 209.62985229492188,
    "load": 198927,
    "rate": 2.2487890577316283,
    "requestedRate": 2.078758440383939,
    "time": 57900
  },
  {
    "temp": 209.37686157226562,
    "load": 200718,
    "rate": 2.1440469288825987,
    "requestedRate": 2.078758440383939,
    "time": 58115
  },
  {
    "temp": 209.12286376953125,
    "load": 200369,
    "rate": 2.1985219502449036,
    "requestedRate": 2.078758440383939,
    "time": 58294
  },
  {
    "temp": 208.8809814453125,
    "load": 202006,
    "rate": 2.1546892207860946,
    "requestedRate": 2.078758440383939,
    "time": 58544
  },
  {
    "temp": 208.63406372070312,
    "load": 202994,
    "rate": 2.256689783334732,
    "requestedRate": 2.078758440383939,
    "time": 58768
  },
  {
    "temp": 208.2549285888672,
    "load": 203690,
    "rate": 2.1378863775730133,
    "requestedRate": 2.078758440383939,
    "time": 58998
  },
  {
    "temp": 207.99546813964844,
    "load": 205146,
    "rate": 2.2590541505813597,
    "requestedRate": 2.078758440383939,
    "time": 59187
  },
  {
    "temp": 207.73728942871094,
    "load": 207101,
    "rate": 2.131761236786842,
    "requestedRate": 2.078758440383939,
    "time": 59404
  },
  {
    "temp": 207.47996520996094,
    "load": 206738,
    "rate": 2.2529138338565824,
    "requestedRate": 2.078758440383939,
    "time": 59623
  },
  {
    "temp": 207.22315979003906,
    "load": 206738,
    "rate": 2.1325013387203215,
    "requestedRate": 2.078758440383939,
    "time": 59826
  },
  {
    "temp": 206.96670532226562,
    "load": 208991,
    "rate": 2.2642007732391356,
    "requestedRate": 2.078758440383939,
    "time": 60045
  },
  {
    "temp": 206.71047973632812,
    "load": 209685,
    "rate": 2.145007851719856,
    "requestedRate": 2.078758440383939,
    "time": 60243
  },
  {
    "temp": 206.45437622070312,
    "load": 210788,
    "rate": 2.25501295208931,
    "requestedRate": 2.078758440383939,
    "time": 60458
  },
  {
    "temp": 206.19837951660156,
    "load": 213264,
    "rate": 2.1101128703355787,
    "requestedRate": 2.078758440383939,
    "time": 60673
  },
  {
    "temp": 205.80026245117188,
    "load": 213753,
    "rate": 2.224448171854019,
    "requestedRate": 2.078758440383939,
    "time": 60881
  },
  {
    "temp": 205.5443572998047,
    "load": 214293,
    "rate": 2.130540783405304,
    "requestedRate": 2.078758440383939,
    "time": 61107
  },
  {
    "temp": 205.28846740722656,
    "load": 215103,
    "rate": 2.1977761298418046,
    "requestedRate": 2.078758440383939,
    "time": 61353
  },
  {
    "temp": 205.0325927734375,
    "load": 217025,
    "rate": 2.142440918684006,
    "requestedRate": 2.078758440383939,
    "time": 61549
  },
  {
    "temp": 204.76649475097656,
    "load": 217071,
    "rate": 2.2226939213275907,
    "requestedRate": 2.078758440383939,
    "time": 61754
  },
  {
    "temp": 204.48362731933594,
    "load": 219279,
    "rate": 2.164709299206734,
    "requestedRate": 2.078758440383939,
    "time": 61986
  },
  {
    "temp": 204.0611114501953,
    "load": 220635,
    "rate": 2.2030360221862795,
    "requestedRate": 2.078758440383939,
    "time": 62196
  },
  {
    "temp": 203.7993621826172,
    "load": 221537,
    "rate": 2.2013514930009843,
    "requestedRate": 2.078758440383939,
    "time": 62424
  },
  {
    "temp": 203.5269317626953,
    "load": 222408,
    "rate": 2.225637613534927,
    "requestedRate": 2.078758440383939,
    "time": 62606
  },
  {
    "temp": 203.26048278808594,
    "load": 224348,
    "rate": 2.2785677683353422,
    "requestedRate": 2.078758440383939,
    "time": 62855
  },
  {
    "temp": 202.99783325195312,
    "load": 225171,
    "rate": 2.2375054174661635,
    "requestedRate": 2.078758440383939,
    "time": 63081
  },
  {
    "temp": 202.73764038085938,
    "load": 227298,
    "rate": 2.338121010661125,
    "requestedRate": 2.078758440383939,
    "time": 63294
  },
  {
    "temp": 202.33871459960938,
    "load": 229009,
    "rate": 2.2087749463319777,
    "requestedRate": 2.078758440383939,
    "time": 63504
  },
  {
    "temp": 202.05227661132812,
    "load": 229854,
    "rate": 2.3507317757606505,
    "requestedRate": 2.078758440383939,
    "time": 63715
  },
  {
    "temp": 201.78965759277344,
    "load": 232310,
    "rate": 2.209058450460434,
    "requestedRate": 2.078758440383939,
    "time": 63939
  },
  {
    "temp": 201.5166778564453,
    "load": 232783,
    "rate": 2.304101175069809,
    "requestedRate": 2.078758440383939,
    "time": 64150
  },
  {
    "temp": 201.23707580566406,
    "load": 234091,
    "rate": 2.1884061974287032,
    "requestedRate": 2.078758440383939,
    "time": 64389
  },
  {
    "temp": 200.96603393554688,
    "load": 236837,
    "rate": 2.2449776977300644,
    "requestedRate": 2.078758440383939,
    "time": 64615
  },
  {
    "temp": 200.58328247070312,
    "load": 237696,
    "rate": 2.174494040608406,
    "requestedRate": 2.078758440383939,
    "time": 64835
  },
  {
    "temp": 200.31211853027344,
    "load": 238554,
    "rate": 2.2395367938280106,
    "requestedRate": 2.078758440383939,
    "time": 65048
  },
  {
    "temp": 200.0546417236328,
    "load": 241669,
    "rate": 2.1832575953006743,
    "requestedRate": 2.078758440383939,
    "time": 65272
  },
  {
    "temp": 199.805908203125,
    "load": 242540,
    "rate": 2.1816168344020843,
    "requestedRate": 2.078758440383939,
    "time": 65498
  },
  {
    "temp": 199.57301330566406,
    "load": 243895,
    "rate": 2.3152952992916105,
    "requestedRate": 2.078758440383939,
    "time": 65736
  },
  {
    "temp": 199.24261474609375,
    "load": 246505,
    "rate": 2.143940697312355,
    "requestedRate": 2.078758440383939,
    "time": 65936
  },
  {
    "temp": 199.0323486328125,
    "load": 246581,
    "rate": 2.2853641694784166,
    "requestedRate": 2.078758440383939,
    "time": 66148
  },
  {
    "temp": 198.7933349609375,
    "load": 248199,
    "rate": 2.1383011865615846,
    "requestedRate": 2.078758440383939,
    "time": 66341
  },
  {
    "temp": 198.55642700195312,
    "load": 250622,
    "rate": 2.2738159400224687,
    "requestedRate": 2.078758440383939,
    "time": 66571
  },
  {
    "temp": 198.3311004638672,
    "load": 252908,
    "rate": 2.146833143234253,
    "requestedRate": 2.078758440383939,
    "time": 66804
  },
  {
    "temp": 198.11318969726562,
    "load": 253943,
    "rate": 2.253805255293846,
    "requestedRate": 2.078758440383939,
    "time": 66989
  },
  {
    "temp": 197.88363647460938,
    "load": 256542,
    "rate": 2.094164718389511,
    "requestedRate": 2.078758440383939,
    "time": 67209
  },
  {
    "temp": 197.67120361328125,
    "load": 256609,
    "rate": 2.208504638671875,
    "requestedRate": 2.078758440383939,
    "time": 67448
  },
  {
    "temp": 197.3295440673828,
    "load": 258691,
    "rate": 2.1418035292625426,
    "requestedRate": 2.078758440383939,
    "time": 67673
  },
  {
    "temp": 197.10365295410156,
    "load": 261585,
    "rate": 2.158054320216179,
    "requestedRate": 2.078758440383939,
    "time": 67907
  },
  {
    "temp": 196.8853759765625,
    "load": 263163,
    "rate": 2.1557867270708084,
    "requestedRate": 2.078758440383939,
    "time": 68113
  },
  {
    "temp": 196.67196655273438,
    "load": 264114,
    "rate": 2.183420131802559,
    "requestedRate": 2.078758440383939,
    "time": 68360
  },
  {
    "temp": 196.3380126953125,
    "load": 266380,
    "rate": 2.260680395364761,
    "requestedRate": 2.078758440383939,
    "time": 68575
  },
  {
    "temp": 196.1210174560547,
    "load": 268615,
    "rate": 2.173399173617363,
    "requestedRate": 2.078758440383939,
    "time": 68778
  },
  {
    "temp": 195.88795471191406,
    "load": 270012,
    "rate": 2.3169785088300703,
    "requestedRate": 2.078758440383939,
    "time": 68997
  },
  {
    "temp": 195.68556213378906,
    "load": 273199,
    "rate": 2.178454740643501,
    "requestedRate": 2.078758440383939,
    "time": 69203
  },
  {
    "temp": 195.4618377685547,
    "load": 274685,
    "rate": 2.2821116799116132,
    "requestedRate": 2.078758440383939,
    "time": 69420
  },
  {
    "temp": 195.24496459960938,
    "load": 276123,
    "rate": 2.173430845141411,
    "requestedRate": 2.078758440383939,
    "time": 69650
  },
  {
    "temp": 194.92845153808594,
    "load": 279634,
    "rate": 2.2524451392889024,
    "requestedRate": 2.078758440383939,
    "time": 69892
  },
  {
    "temp": 194.68246459960938,
    "load": 281502,
    "rate": 2.185751287937164,
    "requestedRate": 2.078758440383939,
    "time": 70189
  },
  {
    "temp": 194.359130859375,
    "load": 283474,
    "rate": 2.161875797510147,
    "requestedRate": 2.078758440383939,
    "time": 70414
  },
  {
    "temp": 194.13792419433594,
    "load": 285465,
    "rate": 2.215425526499748,
    "requestedRate": 2.078758440383939,
    "time": 70638
  },
  {
    "temp": 193.92263793945312,
    "load": 286484,
    "rate": 2.130292029976845,
    "requestedRate": 2.078758440383939,
    "time": 70859
  },
  {
    "temp": 193.71115112304688,
    "load": 288825,
    "rate": 2.2563682293891905,
    "requestedRate": 2.078758440383939,
    "time": 71110
  },
  {
    "temp": 193.38682556152344,
    "load": 291616,
    "rate": 2.131059624552727,
    "requestedRate": 2.078758440383939,
    "time": 71304
  },
  {
    "temp": 193.1716766357422,
    "load": 292508,
    "rate": 2.2577272456884385,
    "requestedRate": 2.078758440383939,
    "time": 71526
  },
  {
    "temp": 192.93569946289062,
    "load": 296197,
    "rate": 2.158213557600975,
    "requestedRate": 2.078758440383939,
    "time": 71733
  },
  {
    "temp": 192.7109832763672,
    "load": 299194,
    "rate": 2.2628380179405214,
    "requestedRate": 2.078758440383939,
    "time": 71947
  },
  {
    "temp": 192.4934539794922,
    "load": 300695,
    "rate": 2.14529487490654,
    "requestedRate": 2.078758440383939,
    "time": 72155
  },
  {
    "temp": 192.27029418945312,
    "load": 303309,
    "rate": 2.2052002429962156,
    "requestedRate": 2.078758440383939,
    "time": 72365
  },
  {
    "temp": 192.02304077148438,
    "load": 307542,
    "rate": 2.102570208907127,
    "requestedRate": 2.078758440383939,
    "time": 72580
  },
  {
    "temp": 191.69044494628906,
    "load": 308888,
    "rate": 2.1962589758634565,
    "requestedRate": 2.078758440383939,
    "time": 72796
  },
  {
    "temp": 191.46153259277344,
    "load": 310733,
    "rate": 2.1484525698423385,
    "requestedRate": 2.078758440383939,
    "time": 73020
  },
  {
    "temp": 191.2106170654297,
    "load": 313196,
    "rate": 2.170331874489784,
    "requestedRate": 2.078758440383939,
    "time": 73216
  },
  {
    "temp": 190.97630310058594,
    "load": 316651,
    "rate": 2.1386583709716795,
    "requestedRate": 2.078758440383939,
    "time": 73430
  },
  {
    "temp": 190.75265502929688,
    "load": 318687,
    "rate": 2.2239484655857087,
    "requestedRate": 2.078758440383939,
    "time": 73649
  },
  {
    "temp": 190.5358123779297,
    "load": 322891,
    "rate": 2.2055763423442842,
    "requestedRate": 2.078758440383939,
    "time": 73878
  },
  {
    "temp": 190.32330322265625,
    "load": 323481,
    "rate": 2.1829754108190538,
    "requestedRate": 2.078758440383939,
    "time": 74096
  },
  {
    "temp": 189.9602508544922,
    "load": 325179,
    "rate": 2.283985578417778,
    "requestedRate": 2.078758440383939,
    "time": 74307
  },
  {
    "temp": 189.7338409423828,
    "load": 328127,
    "rate": 2.190180462598801,
    "requestedRate": 2.078758440383939,
    "time": 74495
  },
  {
    "temp": 189.4988555908203,
    "load": 330700,
    "rate": 2.2897295612096786,
    "requestedRate": 2.078758440383939,
    "time": 74715
  },
  {
    "temp": 189.25836181640625,
    "load": 333391,
    "rate": 2.220388278365135,
    "requestedRate": 2.078758440383939,
    "time": 74920
  },
  {
    "temp": 189.03074645996094,
    "load": 335832,
    "rate": 2.2708089047670366,
    "requestedRate": 2.078758440383939,
    "time": 75121
  },
  {
    "temp": 188.8113555908203,
    "load": 337202,
    "rate": 2.2169501584768296,
    "requestedRate": 2.078758440383939,
    "time": 75314
  },
  {
    "temp": 188.5767822265625,
    "load": 338881,
    "rate": 2.277005086541176,
    "requestedRate": 2.078758440383939,
    "time": 75522
  },
  {
    "temp": 188.33245849609375,
    "load": 342886,
    "rate": 2.2391670727729798,
    "requestedRate": 2.078758440383939,
    "time": 75736
  },
  {
    "temp": 188.10238647460938,
    "load": 345507,
    "rate": 2.280114614367485,
    "requestedRate": 2.078758440383939,
    "time": 76355
  },
  {
    "temp": 187.44674682617188,
    "load": 353673,
    "rate": 2.1660566586256027,
    "requestedRate": 2.078758440383939,
    "time": 76562
  },
  {
    "temp": 187.2243194580078,
    "load": 355250,
    "rate": 2.3014537435770035,
    "requestedRate": 2.078758440383939,
    "time": 76796
  },
  {
    "temp": 186.9918975830078,
    "load": 358843,
    "rate": 2.147680356502533,
    "requestedRate": 2.078758440383939,
    "time": 77016
  },
  {
    "temp": 186.6493682861328,
    "load": 360357,
    "rate": 2.2694657242298124,
    "requestedRate": 2.078758440383939,
    "time": 77223
  },
  {
    "temp": 186.51239013671875,
    "load": 362306,
    "rate": 2.1617856216430664,
    "requestedRate": 2.078758440383939,
    "time": 77406
  },
  {
    "temp": 186.274169921875,
    "load": 364778,
    "rate": 2.205672896504402,
    "requestedRate": 2.078758440383939,
    "time": 77593
  },
  {
    "temp": 186.03163146972656,
    "load": 368728,
    "rate": 2.1334026575088503,
    "requestedRate": 2.078758440383939,
    "time": 77790
  },
  {
    "temp": 185.7945098876953,
    "load": 369104,
    "rate": 2.2083273661136626,
    "requestedRate": 2.078758440383939,
    "time": 78005
  },
  {
    "temp": 185.5608367919922,
    "load": 371943,
    "rate": 2.163543171286583,
    "requestedRate": 2.078758440383939,
    "time": 78217
  },
  {
    "temp": 185.3376007080078,
    "load": 374976,
    "rate": 2.223774052262306,
    "requestedRate": 2.078758440383939,
    "time": 78418
  },
  {
    "temp": 185.12100219726562,
    "load": 376399,
    "rate": 2.1328613823652267,
    "requestedRate": 2.078758440383939,
    "time": 78610
  },
  {
    "temp": 184.87591552734375,
    "load": 378124,
    "rate": 2.2259033024311066,
    "requestedRate": 2.078758440383939,
    "time": 78820
  },
  {
    "temp": 184.63717651367188,
    "load": 382013,
    "rate": 2.087335326075554,
    "requestedRate": 2.078758440383939,
    "time": 79032
  },
  {
    "temp": 184.41067504882812,
    "load": 384355,
    "rate": 2.2102632880210877,
    "requestedRate": 2.078758440383939,
    "time": 79238
  },
  {
    "temp": 184.17562866210938,
    "load": 385310,
    "rate": 2.1429986894130706,
    "requestedRate": 2.078758440383939,
    "time": 79431
  },
  {
    "temp": 183.93511962890625,
    "load": 389181,
    "rate": 2.16857366502285,
    "requestedRate": 2.078758440383939,
    "time": 79630
  },
  {
    "temp": 183.7074737548828,
    "load": 393544,
    "rate": 2.1189102959632873,
    "requestedRate": 2.078758440383939,
    "time": 79839
  },
  {
    "temp": 183.47784423828125,
    "load": 394869,
    "rate": 2.158159012198448,
    "requestedRate": 2.078758440383939,
    "time": 80036
  },
  {
    "temp": 183.22645568847656,
    "load": 396452,
    "rate": 2.1676666277647016,
    "requestedRate": 2.078758440383939,
    "time": 80268
  },
  {
    "temp": 182.89022827148438,
    "load": 402734,
    "rate": 2.201591228842735,
    "requestedRate": 2.078758440383939,
    "time": 80465
  },
  {
    "temp": 182.65997314453125,
    "load": 404551,
    "rate": 2.139677138328552,
    "requestedRate": 2.078758440383939,
    "time": 80690
  },
  {
    "temp": 182.40818786621094,
    "load": 407092,
    "rate": 2.273387934565544,
    "requestedRate": 2.078758440383939,
    "time": 80890
  },
  {
    "temp": 182.17333984375,
    "load": 410588,
    "rate": 2.1386291188001634,
    "requestedRate": 2.078758440383939,
    "time": 81132
  },
  {
    "temp": 181.94932556152344,
    "load": 411994,
    "rate": 2.2685070008039476,
    "requestedRate": 2.078758440383939,
    "time": 81345
  },
  {
    "temp": 181.71588134765625,
    "load": 420341,
    "rate": 2.1331552237272264,
    "requestedRate": 2.078758440383939,
    "time": 81549
  },
  {
    "temp": 181.47637939453125,
    "load": 424578,
    "rate": 2.2258681118488313,
    "requestedRate": 2.078758440383939,
    "time": 81752
  },
  {
    "temp": 181.2289276123047,
    "load": 428593,
    "rate": 2.0940708035230635,
    "requestedRate": 2.078758440383939,
    "time": 81972
  },
  {
    "temp": 180.86834716796875,
    "load": 432509,
    "rate": 2.2455477851629255,
    "requestedRate": 2.078758440383939,
    "time": 82186
  },
  {
    "temp": 180.64732360839844,
    "load": 438458,
    "rate": 2.093499616384506,
    "requestedRate": 2.078758440383939,
    "time": 82407
  },
  {
    "temp": 180.38893127441406,
    "load": 441919,
    "rate": 2.2121345472335814,
    "requestedRate": 2.078758440383939,
    "time": 82652
  },
  {
    "temp": 180.161376953125,
    "load": 449905,
    "rate": 2.126341667175293,
    "requestedRate": 2.078758440383939,
    "time": 82875
  },
  {
    "temp": 179.83985900878906,
    "load": 456768,
    "rate": 2.1534551310539247,
    "requestedRate": 2.078758440383939,
    "time": 83070
  },
  {
    "temp": 179.73977661132812,
    "load": 460402,
    "rate": 2.0936073875427246,
    "requestedRate": 2.078758440383939,
    "time": 83274
  },
  {
    "temp": 179.53419494628906,
    "load": 464871,
    "rate": 2.2113588148355485,
    "requestedRate": 2.078758440383939,
    "time": 83478
  },
  {
    "temp": 179.3155517578125,
    "load": 472553,
    "rate": 2.0994952118396757,
    "requestedRate": 2.078758440383939,
    "time": 83654
  },
  {
    "temp": 179.1226806640625,
    "load": 475948,
    "rate": 2.2351346719264984,
    "requestedRate": 2.078758440383939,
    "time": 83862
  },
  {
    "temp": 178.9207000732422,
    "load": 481113,
    "rate": 2.1246089708805083,
    "requestedRate": 2.078758440383939,
    "time": 84088
  },
  {
    "temp": 178.72996520996094,
    "load": 486244,
    "rate": 2.204782794713974,
    "requestedRate": 2.078758440383939,
    "time": 84295
  },
  {
    "temp": 178.4403839111328,
    "load": 492555,
    "rate": 2.0611581516265867,
    "requestedRate": 2.078758440383939,
    "time": 84486
  },
  {
    "temp": 178.23814392089844,
    "load": 495290,
    "rate": 2.2061752420663834,
    "requestedRate": 2.078758440383939,
    "time": 84705
  },
  {
    "temp": 178.04727172851562,
    "load": 501286,
    "rate": 2.1184869092702865,
    "requestedRate": 2.078758440383939,
    "time": 84904
  },
  {
    "temp": 177.8568115234375,
    "load": 508334,
    "rate": 2.2423159700632094,
    "requestedRate": 2.078758440383939,
    "time": 85108
  },
  {
    "temp": 177.65296936035156,
    "load": 514010,
    "rate": 2.1029960149526596,
    "requestedRate": 2.078758440383939,
    "time": 85304
  },
  {
    "temp": 177.5463409423828,
    "load": 516217,
    "rate": 2.278343648314476,
    "requestedRate": 2.078758440383939,
    "time": 85510
  },
  {
    "temp": 177.27674865722656,
    "load": 527951,
    "rate": 2.1366355723142623,
    "requestedRate": 2.078758440383939,
    "time": 85719
  },
  {
    "temp": 177.07171630859375,
    "load": 529835,
    "rate": 2.262707592844963,
    "requestedRate": 2.078758440383939,
    "time": 85954
  },
  {
    "temp": 176.8704833984375,
    "load": 535948,
    "rate": 2.151890469789505,
    "requestedRate": 2.078758440383939,
    "time": 86165
  },
  {
    "temp": 176.6802215576172,
    "load": 542531,
    "rate": 2.269710738658905,
    "requestedRate": 2.078758440383939,
    "time": 86377
  },
  {
    "temp": 176.48333740234375,
    "load": 547594,
    "rate": 2.1350497967004776,
    "requestedRate": 2.078758440383939,
    "time": 86560
  },
  {
    "temp": 176.28219604492188,
    "load": 551460,
    "rate": 2.301399418115616,
    "requestedRate": 2.078758440383939,
    "time": 86786
  },
  {
    "temp": 176.0919952392578,
    "load": 559390,
    "rate": 2.1478288167715074,
    "requestedRate": 2.078758440383939,
    "time": 86989
  },
  {
    "temp": 175.8917236328125,
    "load": 566055,
    "rate": 2.3004030847549437,
    "requestedRate": 2.078758440383939,
    "time": 87211
  },
  {
    "temp": 175.6850128173828,
    "load": 571983,
    "rate": 2.2037132209539414,
    "requestedRate": 2.078758440383939,
    "time": 87402
  },
  {
    "temp": 175.49127197265625,
    "load": 575768,
    "rate": 2.3180742555856706,
    "requestedRate": 2.078758440383939,
    "time": 87622
  },
  {
    "temp": 175.1796112060547,
    "load": 584931,
    "rate": 2.1805958676338197,
    "requestedRate": 2.078758440383939,
    "time": 87842
  },
  {
    "temp": 174.98341369628906,
    "load": 586733,
    "rate": 2.2588511449098587,
    "requestedRate": 2.078758440383939,
    "time": 88064
  },
  {
    "temp": 174.79638671875,
    "load": 594187,
    "rate": 2.155623530745506,
    "requestedRate": 2.078758440383939,
    "time": 88264
  },
  {
    "temp": 174.60154724121094,
    "load": 598595,
    "rate": 2.2146284598112107,
    "requestedRate": 2.078758440383939,
    "time": 88454
  },
  {
    "temp": 174.3931884765625,
    "load": 601927,
    "rate": 2.1386401158571244,
    "requestedRate": 2.078758440383939,
    "time": 88695
  },
  {
    "temp": 174.17276000976562,
    "load": 609935,
    "rate": 2.2654537779092787,
    "requestedRate": 2.078758440383939,
    "time": 88913
  },
  {
    "temp": 173.97021484375,
    "load": 616936,
    "rate": 2.1342920994758607,
    "requestedRate": 2.078758440383939,
    "time": 89144
  },
  {
    "temp": 173.67892456054688,
    "load": 619151,
    "rate": 2.2089887291193007,
    "requestedRate": 2.078758440383939,
    "time": 89372
  },
  {
    "temp": 173.46975708007812,
    "load": 626339,
    "rate": 2.1506579196453095,
    "requestedRate": 2.078758440383939,
    "time": 89560
  },
  {
    "temp": 173.2744140625,
    "load": 632936,
    "rate": 2.2080447417497635,
    "requestedRate": 2.078758440383939,
    "time": 89766
  },
  {
    "temp": 173.08111572265625,
    "load": 638750,
    "rate": 2.179362657666206,
    "requestedRate": 2.078758440383939,
    "time": 89998
  },
  {
    "temp": 172.87542724609375,
    "load": 642165,
    "rate": 2.1455568248033523,
    "requestedRate": 2.078758440383939,
    "time": 90185
  },
  {
    "temp": 172.6823272705078,
    "load": 649705,
    "rate": -2.765588931441307,
    "requestedRate": 2.078758440383939,
    "time": 90378
  }
]