[
  {
    "temp": 287.8303527832031,
    "load": 136411,
    "rate": 8.864669551849365,
    "requestedRate": 8.315033761535757,
    "time": 76
  },
  {
    "temp": 287.7240295410156,
    "load": 143808,
    "rate": 8.919032843112946,
    "requestedRate": 8.315033761535757,
    "time": 248
  },
  {
    "temp": 287.6559753417969,
    "load": 177738,
    "rate": 8.83385227918625,
    "requestedRate": 8.315033761535757,
    "time": 461
  },
  {
    "temp": 287.6124267578125,
    "load": 227491,
    "rate": 8.801480462551117,
    "requestedRate": 8.315033761535757,
    "time": 662
  },
  {
    "temp": 287.5845642089844,
    "load": 267314,
    "rate": 8.775010106563569,
    "requestedRate": 8.315033761535757,
    "time": 866
  },
  {
    "temp": 287.56671142578125,
    "load": 305115,
    "rate": 8.74700016260147,
    "requestedRate": 8.315033761535757,
    "time": 1070
  },
  {
    "temp": 287.42822265625,
    "load": 343020,
    "rate": 8.767524189949036,
    "requestedRate": 8.315033761535757,
    "time": 1256
  },
  {
    "temp": 287.3819580078125,
    "load": 372177,
    "rate": 8.854811789989471,
    "requestedRate": 8.315033761535757,
    "time": 1459
  },
  {
    "temp": 287.20831298828125,
    "load": 387896,
    "rate": 8.974181764125824,
    "requestedRate": 8.315033761535757,
    "time": 1681
  },
  {
    "temp": 287.02093505859375,
    "load": 387379,
    "rate": 9.031135082244873,
    "requestedRate": 8.315033761535757,
    "time": 1882
  },
  {
    "temp": 286.9010314941406,
    "load": 383267,
    "rate": 8.93320585012436,
    "requestedRate": 8.315033761535757,
    "time": 2094
  },
  {
    "temp": 286.82427978515625,
    "load": 366611,
    "rate": 8.906471564769745,
    "requestedRate": 8.315033761535757,
    "time": 2309
  },
  {
    "temp": 286.7577209472656,
    "load": 347749,
    "rate": 8.83859069108963,
    "requestedRate": 8.315033761535757,
    "time": 2517
  },
  {
    "temp": 286.7437438964844,
    "load": 329003,
    "rate": 8.763279325962067,
    "requestedRate": 8.315033761535757,
    "time": 2706
  },
  {
    "temp": 286.5626525878906,
    "load": 317753,
    "rate": 8.770174040794373,
    "requestedRate": 8.315033761535757,
    "time": 2904
  },
  {
    "temp": 286.33660888671875,
    "load": 315028,
    "rate": 8.914837245941161,
    "requestedRate": 8.315033761535757,
    "time": 3111
  },
  {
    "temp": 286.1580810546875,
    "load": 316312,
    "rate": 8.871679515838624,
    "requestedRate": 8.315033761535757,
    "time": 3321
  },
  {
    "temp": 286.0438232421875,
    "load": 321065,
    "rate": 8.865271310806275,
    "requestedRate": 8.315033761535757,
    "time": 3511
  },
  {
    "temp": 285.7074890136719,
    "load": 327399,
    "rate": 8.819462850093842,
    "requestedRate": 8.315033761535757,
    "time": 3713
  },
  {
    "temp": 285.564697265625,
    "load": 333567,
    "rate": 8.831929993629455,
    "requestedRate": 8.315033761535757,
    "time": 3913
  },
  {
    "temp": 285.35906982421875,
    "load": 339242,
    "rate": 8.807354650497436,
    "requestedRate": 8.315033761535757,
    "time": 4119
  },
  {
    "temp": 285.1003723144531,
    "load": 343344,
    "rate": 8.877891533374786,
    "requestedRate": 8.315033761535757,
    "time": 4329
  },
  {
    "temp": 284.661865234375,
    "load": 346884,
    "rate": 8.933628137111663,
    "requestedRate": 8.315033761535757,
    "time": 4541
  },
  {
    "temp": 284.47625732421875,
    "load": 352016,
    "rate": 9.029392268657684,
    "requestedRate": 8.315033761535757,
    "time": 4742
  },
  {
    "temp": 284.3678894042969,
    "load": 354991,
    "rate": 8.948722257614136,
    "requestedRate": 8.315033761535757,
    "time": 4929
  },
  {
    "temp": 283.8462829589844,
    "load": 361155,
    "rate": 8.881018216609954,
    "requestedRate": 8.315033761535757,
    "time": 5147
  },
  {
    "temp": 283.6492919921875,
    "load": 362103,
    "rate": 8.805110371112823,
    "requestedRate": 8.315033761535757,
    "time": 5376
  },
  {
    "temp": 283.31988525390625,
    "load": 361209,
    "rate": 8.758546192646026,
    "requestedRate": 8.315033761535757,
    "time": 5560
  },
  {
    "temp": 283.0074157714844,
    "load": 361238,
    "rate": 8.756868481636047,
    "requestedRate": 8.315033761535757,
    "time": 5751
  },
  {
    "temp": 282.89630126953125,
    "load": 358984,
    "rate": 8.811427960395813,
    "requestedRate": 8.315033761535757,
    "time": 5936
  },
  {
    "temp": 282.4991149902344,
    "load": 358117,
    "rate": 8.828382782936096,
    "requestedRate": 8.315033761535757,
    "time": 6158
  },
  {
    "temp": 282.06268310546875,
    "load": 359280,
    "rate": 8.855996832847595,
    "requestedRate": 8.315033761535757,
    "time": 6354
  },
  {
    "temp": 281.69451904296875,
    "load": 364824,
    "rate": 8.839784531593322,
    "requestedRate": 8.315033761535757,
    "time": 6561
  },
  {
    "temp": 281.35723876953125,
    "load": 372651,
    "rate": 8.858569264411926,
    "requestedRate": 8.315033761535757,
    "time": 6790
  },
  {
    "temp": 280.9849548339844,
    "load": 379404,
    "rate": 8.815102736949921,
    "requestedRate": 8.315033761535757,
    "time": 6978
  },
  {
    "temp": 280.60675048828125,
    "load": 384759,
    "rate": 8.850953142642975,
    "requestedRate": 8.315033761535757,
    "time": 7183
  },
  {
    "temp": 280.3088073730469,
    "load": 387382,
    "rate": 8.876710889339448,
    "requestedRate": 8.315033761535757,
    "time": 7379
  },
  {
    "temp": 279.95050048828125,
    "load": 389082,
    "rate": 8.979155073165893,
    "requestedRate": 8.315033761535757,
    "time": 7573
  },
  {
    "temp": 279.59698486328125,
    "load": 388695,
    "rate": 9.002315754890441,
    "requestedRate": 8.315033761535757,
    "time": 7775
  },
  {
    "temp": 279.2713928222656,
    "load": 387761,
    "rate": 8.971696429252624,
    "requestedRate": 8.315033761535757,
    "time": 8000
  },
  {
    "temp": 278.96990966796875,
    "load": 386164,
    "rate": 8.859247562885285,
    "requestedRate": 8.315033761535757,
    "time": 8199
  },
  {
    "temp": 278.6465759277344,
    "load": 385692,
    "rate": 8.8704944729805,
    "requestedRate": 8.315033761535757,
    "time": 8397
  },
  {
    "temp": 278.34649658203125,
    "load": 388550,
    "rate": 8.757897806167602,
    "requestedRate": 8.315033761535757,
    "time": 8605
  },
  {
    "temp": 278.0240478515625,
    "load": 394495,
    "rate": 8.807386322021484,
    "requestedRate": 8.315033761535757,
    "time": 8790
  },
  {
    "temp": 277.78662109375,
    "load": 400524,
    "rate": 8.90683754682541,
    "requestedRate": 8.315033761535757,
    "time": 8976
  },
  {
    "temp": 277.44219970703125,
    "load": 405422,
    "rate": 8.893105301856995,
    "requestedRate": 8.315033761535757,
    "time": 9182
  },
  {
    "temp": 277.0727844238281,
    "load": 409901,
    "rate": 8.884397392272948,
    "requestedRate": 8.315033761535757,
    "time": 9381
  },
  {
    "temp": 276.7618713378906,
    "load": 410353,
    "rate": 8.817558159828186,
    "requestedRate": 8.315033761535757,
    "time": 9587
  },
  {
    "temp": 276.3890380859375,
    "load": 412304,
    "rate": 8.847387456893921,
    "requestedRate": 8.315033761535757,
    "time": 9788
  },
  {
    "temp": 276.1007385253906,
    "load": 419108,
    "rate": 8.790464050769806,
    "requestedRate": 8.315033761535757,
    "time": 10001
  },
  {
    "temp": 275.6927185058594,
    "load": 425123,
    "rate": 8.827100086212159,
    "requestedRate": 8.315033761535757,
    "time": 10230
  },
  {
    "temp": 275.4005432128906,
    "load": 429479,
    "rate": 8.874472768306733,
    "requestedRate": 8.315033761535757,
    "time": 10416
  },
  {
    "temp": 275.02105712890625,
    "load": 429128,
    "rate": 8.943103201389313,
    "requestedRate": 8.315033761535757,
    "time": 10605
  },
  {
    "temp": 274.6850891113281,
    "load": 428446,
    "rate": 8.95675802707672,
    "requestedRate": 8.315033761535757,
    "time": 10800
  },
  {
    "temp": 274.33966064453125,
    "load": 421823,
    "rate": 8.882187423706055,
    "requestedRate": 8.315033761535757,
    "time": 11049
  },
  {
    "temp": 273.994384765625,
    "load": 412654,
    "rate": 8.894736385345459,
    "requestedRate": 8.315033761535757,
    "time": 11249
  },
  {
    "temp": 273.674072265625,
    "load": 408156,
    "rate": 8.794409794807434,
    "requestedRate": 8.315033761535757,
    "time": 11453
  },
  {
    "temp": 273.2455749511719,
    "load": 399992,
    "rate": 8.804983685016632,
    "requestedRate": 8.315033761535757,
    "time": 11648
  },
  {
    "temp": 272.9092712402344,
    "load": 396050,
    "rate": 8.86716456413269,
    "requestedRate": 8.315033761535757,
    "time": 11862
  },
  {
    "temp": 272.5325927734375,
    "load": 397097,
    "rate": 8.915101175308227,
    "requestedRate": 8.315033761535757,
    "time": 12080
  },
  {
    "temp": 272.1673583984375,
    "load": 405670,
    "rate": 8.895202660560608,
    "requestedRate": 8.315033761535757,
    "time": 12269
  },
  {
    "temp": 271.8342590332031,
    "load": 415929,
    "rate": 8.865917937755585,
    "requestedRate": 8.315033761535757,
    "time": 12465
  },
  {
    "temp": 271.4223937988281,
    "load": 425580,
    "rate": 8.862405037879943,
    "requestedRate": 8.315033761535757,
    "time": 12677
  },
  {
    "temp": 271.00982666015625,
    "load": 431815,
    "rate": 8.821283082962037,
    "requestedRate": 8.315033761535757,
    "time": 12862
  },
  {
    "temp": 270.64642333984375,
    "load": 431486,
    "rate": 8.845999188423157,
    "requestedRate": 8.315033761535757,
    "time": 13053
  },
  {
    "temp": 270.2896728515625,
    "load": 425936,
    "rate": 8.887707066535949,
    "requestedRate": 8.315033761535757,
    "time": 13266
  },
  {
    "temp": 269.9620056152344,
    "load": 423436,
    "rate": 8.971421942710876,
    "requestedRate": 8.315033761535757,
    "time": 13509
  },
  {
    "temp": 269.5287780761719,
    "load": 425684,
    "rate": 8.973018715381622,
    "requestedRate": 8.315033761535757,
    "time": 13736
  },
  {
    "temp": 268.96044921875,
    "load": 422135,
    "rate": 8.986926913261414,
    "requestedRate": 8.315033761535757,
    "time": 13952
  },
  {
    "temp": 268.54010009765625,
    "load": 415686,
    "rate": 8.95889321565628,
    "requestedRate": 8.315033761535757,
    "time": 14151
  },
  {
    "temp": 268.1717224121094,
    "load": 408584,
    "rate": 8.825759325027466,
    "requestedRate": 8.315033761535757,
    "time": 14386
  },
  {
    "temp": 267.7869567871094,
    "load": 403180,
    "rate": 8.825933518409729,
    "requestedRate": 8.315033761535757,
    "time": 14595
  },
  {
    "temp": 267.40411376953125,
    "load": 406533,
    "rate": 8.883442847728729,
    "requestedRate": 8.315033761535757,
    "time": 14830
  },
  {
    "temp": 266.8221130371094,
    "load": 418218,
    "rate": 8.927858641147614,
    "requestedRate": 8.315033761535757,
    "time": 15111
  },
  {
    "temp": 266.40167236328125,
    "load": 427169,
    "rate": 8.907169218063354,
    "requestedRate": 8.315033761535757,
    "time": 15334
  },
  {
    "temp": 265.98358154296875,
    "load": 435161,
    "rate": 8.83466782093048,
    "requestedRate": 8.315033761535757,
    "time": 15528
  },
  {
    "temp": 265.370849609375,
    "load": 442326,
    "rate": 8.83299890756607,
    "requestedRate": 8.315033761535757,
    "time": 15729
  },
  {
    "temp": 265.1791687011719,
    "load": 449068,
    "rate": 8.778614501953125,
    "requestedRate": 8.315033761535757,
    "time": 15937
  },
  {
    "temp": 264.470947265625,
    "load": 454710,
    "rate": 8.827223253250121,
    "requestedRate": 8.315033761535757,
    "time": 16150
  },
  {
    "temp": 264.00286865234375,
    "load": 454843,
    "rate": 8.966133677959442,
    "requestedRate": 8.315033761535757,
    "time": 16359
  },
  {
    "temp": 263.5791015625,
    "load": 456338,
    "rate": 8.98806005001068,
    "requestedRate": 8.315033761535757,
    "time": 16566
  },
  {
    "temp": 263.1775207519531,
    "load": 460566,
    "rate": 8.979265043735504,
    "requestedRate": 8.315033761535757,
    "time": 16755
  },
  {
    "temp": 262.72802734375,
    "load": 466225,
    "rate": 8.898768346309662,
    "requestedRate": 8.315033761535757,
    "time": 16948
  },
  {
    "temp": 262.4750671386719,
    "load": 474994,
    "rate": 8.826055805683136,
    "requestedRate": 8.315033761535757,
    "time": 17169
  },
  {
    "temp": 261.81243896484375,
    "load": 492208,
    "rate": 8.772347059249878,
    "requestedRate": 8.315033761535757,
    "time": 17387
  },
  {
    "temp": 261.4073181152344,
    "load": 501177,
    "rate": 8.786092500686646,
    "requestedRate": 8.315033761535757,
    "time": 17588
  },
  {
    "temp": 260.9245300292969,
    "load": 505437,
    "rate": 8.851969270706176,
    "requestedRate": 8.315033761535757,
    "time": 17786
  },
  {
    "temp": 260.5209045410156,
    "load": 508440,
    "rate": 8.882202379703521,
    "requestedRate": 8.315033761535757,
    "time": 17981
  },
  {
    "temp": 260.1868591308594,
    "load": 510083,
    "rate": 8.858229675292968,
    "requestedRate": 8.315033761535757,
    "time": 18182
  },
  {
    "temp": 259.80902099609375,
    "load": 513049,
    "rate": 8.808945264816284,
    "requestedRate": 8.315033761535757,
    "time": 18388
  },
  {
    "temp": 259.43963623046875,
    "load": 516369,
    "rate": 8.833361370563507,
    "requestedRate": 8.315033761535757,
    "time": 18605
  },
  {
    "temp": 259.1212158203125,
    "load": 515403,
    "rate": 8.785950858592987,
    "requestedRate": 8.315033761535757,
    "time": 18807
  },
  {
    "temp": 258.7989807128906,
    "load": 512998,
    "rate": 8.751407783031464,
    "requestedRate": 8.315033761535757,
    "time": 19010
  },
  {
    "temp": 258.4651184082031,
    "load": 513567,
    "rate": 8.873328194618225,
    "requestedRate": 8.315033761535757,
    "time": 19231
  },
  {
    "temp": 258.1238708496094,
    "load": 515679,
    "rate": 8.901743710041046,
    "requestedRate": 8.315033761535757,
    "time": 19420
  },
  {
    "temp": 257.8097839355469,
    "load": 516212,
    "rate": 8.968785288333892,
    "requestedRate": 8.315033761535757,
    "time": 19697
  },
  {
    "temp": 257.1026611328125,
    "load": 519135,
    "rate": 8.910704112052917,
    "requestedRate": 8.315033761535757,
    "time": 20050
  },
  {
    "temp": 256.759765625,
    "load": 529765,
    "rate": 8.799882810115815,
    "requestedRate": 8.315033761535757,
    "time": 20278
  },
  {
    "temp": 256.2723388671875,
    "load": 540931,
    "rate": 8.723683762550355,
    "requestedRate": 8.315033761535757,
    "time": 20470
  },
  {
    "temp": 256.11627197265625,
    "load": 553464,
    "rate": 8.817500095367432,
    "requestedRate": 8.315033761535757,
    "time": 20686
  },
  {
    "temp": 255.72752380371094,
    "load": 562875,
    "rate": 8.878793292045593,
    "requestedRate": 8.315033761535757,
    "time": 20907
  },
  {
    "temp": 255.2261962890625,
    "load": 567221,
    "rate": 8.82317985534668,
    "requestedRate": 8.315033761535757,
    "time": 21113
  },
  {
    "temp": 254.90269470214844,
    "load": 569203,
    "rate": 8.811096289157867,
    "requestedRate": 8.315033761535757,
    "time": 21314
  },
  {
    "temp": 254.5999755859375,
    "load": 570610,
    "rate": 8.793791320323944,
    "requestedRate": 8.315033761535757,
    "time": 21501
  },
  {
    "temp": 254.26498413085938,
    "load": 573695,
    "rate": 8.714660897254944,
    "requestedRate": 8.315033761535757,
    "time": 21730
  },
  {
    "temp": 253.88653564453125,
    "load": 583836,
    "rate": 8.716926290988923,
    "requestedRate": 8.315033761535757,
    "time": 21961
  },
  {
    "temp": 253.55320739746094,
    "load": 588219,
    "rate": 8.74830221414566,
    "requestedRate": 8.315033761535757,
    "time": 22162
  },
  {
    "temp": 253.19863891601562,
    "load": 588358,
    "rate": 8.887502961158752,
    "requestedRate": 8.315033761535757,
    "time": 22353
  },
  {
    "temp": 252.85321044921875,
    "load": 587107,
    "rate": 8.909000008106231,
    "requestedRate": 8.315033761535757,
    "time": 22566
  },
  {
    "temp": 252.49090576171875,
    "load": 587085,
    "rate": 8.898591513633727,
    "requestedRate": 8.315033761535757,
    "time": 22765
  },
  {
    "temp": 252.1314239501953,
    "load": 589497,
    "rate": 8.836886587142944,
    "requestedRate": 8.315033761535757,
    "time": 22993
  },
  {
    "temp": 251.7965545654297,
    "load": 595102,
    "rate": 8.816793644428254,
    "requestedRate": 8.315033761535757,
    "time": 23201
  },
  {
    "temp": 251.46377563476562,
    "load": 602416,
    "rate": 8.702886128425598,
    "requestedRate": 8.315033761535757,
    "time": 23385
  },
  {
    "temp": 251.10955810546875,
    "load": 611292,
    "rate": 8.706765010356904,
    "requestedRate": 8.315033761535757,
    "time": 23607
  },
  {
    "temp": 250.7734832763672,
    "load": 619650,
    "rate": 8.793118300437927,
    "requestedRate": 8.315033761535757,
    "time": 23832
  },
  {
    "temp": 250.22918701171875,
    "load": 628626,
    "rate": 8.799060230255126,
    "requestedRate": 8.315033761535757,
    "time": 24058
  },
  {
    "temp": 249.82728576660156,
    "load": 631228,
    "rate": 8.716575264930725,
    "requestedRate": 8.315033761535757,
    "time": 24263
  },
  {
    "temp": 249.4242706298828,
    "load": 633713,
    "rate": 8.718227462768555,
    "requestedRate": 8.315033761535757,
    "time": 24444
  },
  {
    "temp": 249.0569610595703,
    "load": 636664,
    "rate": 8.650115211009979,
    "requestedRate": 8.315033761535757,
    "time": 24661
  },
  {
    "temp": 248.65785217285156,
    "load": 640450,
    "rate": 8.63544689655304,
    "requestedRate": 8.315033761535757,
    "time": 24843
  },
  {
    "temp": 248.28396606445312,
    "load": 643478,
    "rate": 8.667278537750244,
    "requestedRate": 8.315033761535757,
    "time": 25047
  },
  {
    "temp": 247.9262237548828,
    "load": 647178,
    "rate": 8.798938822746276,
    "requestedRate": 8.315033761535757,
    "time": 25270
  },
  {
    "temp": 247.533203125,
    "load": 651435,
    "rate": 8.878688600063324,
    "requestedRate": 8.315033761535757,
    "time": 25474
  },
  {
    "temp": 247.1358642578125,
    "load": 658023,
    "rate": 8.876713528633118,
    "requestedRate": 8.315033761535757,
    "time": 25685
  },
  {
    "temp": 246.77220153808594,
    "load": 665222,
    "rate": 5.0713024950027465,
    "requestedRate": 8.315033761535757,
    "time": 25895
  },
  {
    "temp": 246.39820861816406,
    "load": 472008,
    "rate": 5.374045314788818,
    "requestedRate": 8.315033761535757,
    "time": 26086
  },
  {
    "temp": 246.04039001464844,
    "load": 375145,
    "rate": 7.195086686611176,
    "requestedRate": 8.315033761535757,
    "time": 26289
  },
  {
    "temp": 245.67015075683594,
    "load": 513354,
    "rate": 8.101688461303711,
    "requestedRate": 8.315033761535757,
    "time": 26483
  },
  {
    "temp": 245.26913452148438,
    "load": 559525,
    "rate": 8.455574634075164,
    "requestedRate": 8.315033761535757,
    "time": 26685
  },
  {
    "temp": 244.86668395996094,
    "load": 565753,
    "rate": 8.661070919036865,
    "requestedRate": 8.315033761535757,
    "time": 26916
  },
  {
    "temp": 244.499755859375,
    "load": 566737,
    "rate": 8.786629157066345,
    "requestedRate": 8.315033761535757,
    "time": 27119
  },
  {
    "temp": 244.1008758544922,
    "load": 572823,
    "rate": 8.791066689491272,
    "requestedRate": 8.315033761535757,
    "time": 27338
  },
  {
    "temp": 243.7271270751953,
    "load": 582899,
    "rate": 8.734994015693664,
    "requestedRate": 8.315033761535757,
    "time": 27524
  },
  {
    "temp": 243.36944580078125,
    "load": 592174,
    "rate": 8.718876729011535,
    "requestedRate": 8.315033761535757,
    "time": 27726
  },
  {
    "temp": 242.97650146484375,
    "load": 603980,
    "rate": 8.695294640064239,
    "requestedRate": 8.315033761535757,
    "time": 27952
  },
  {
    "temp": 242.5609588623047,
    "load": 618658,
    "rate": 8.708828938007354,
    "requestedRate": 8.315033761535757,
    "time": 28156
  },
  {
    "temp": 242.02183532714844,
    "load": 646069,
    "rate": 8.763023314476014,
    "requestedRate": 8.315033761535757,
    "time": 28393
  },
  {
    "temp": 241.62193298339844,
    "load": 661818,
    "rate": 8.947359502315521,
    "requestedRate": 8.315033761535757,
    "time": 28598
  },
  {
    "temp": 241.22015380859375,
    "load": 661092,
    "rate": 8.97395126581192,
    "requestedRate": 8.315033761535757,
    "time": 28798
  },
  {
    "temp": 240.81724548339844,
    "load": 555082,
    "rate": 3.964802817106247,
    "requestedRate": 8.315033761535757,
    "time": 28989
  },
  {
    "temp": 240.44195556640625,
    "load": 343871,
    "rate": 6.16939646244049,
    "requestedRate": 8.315033761535757,
    "time": 29162
  }
]