[
  {
    "temp": 287.6783142089844,
    "load": 113416,
    "rate": 8.780440013408661,
    "requestedRate": 8.315033761535757,
    "time": 55
  },
  {
    "temp": 287.649658203125,
    "load": 115222,
    "rate": 8.859690964221954,
    "requestedRate": 8.315033761535757,
    "time": 183
  },
  {
    "temp": 287.6083984375,
    "load": 122381,
    "rate": 8.852330853939057,
    "requestedRate": 8.315033761535757,
    "time": 361
  },
  {
    "temp": 287.5937194824219,
    "load": 131473,
    "rate": 8.88732260942459,
    "requestedRate": 8.315033761535757,
    "time": 534
  },
  {
    "temp": 287.65728759765625,
    "load": 136559,
    "rate": 8.814429717063904,
    "requestedRate": 8.315033761535757,
    "time": 734
  },
  {
    "temp": 287.61328125,
    "load": 140435,
    "rate": 8.774547350406646,
    "requestedRate": 8.315033761535757,
    "time": 929
  },
  {
    "temp": 287.5851135253906,
    "load": 144589,
    "rate": 8.77996845960617,
    "requestedRate": 8.315033761535757,
    "time": 1107
  },
  {
    "temp": 287.56707763671875,
    "load": 146553,
    "rate": 8.735840349197387,
    "requestedRate": 8.315033761535757,
    "time": 1289
  },
  {
    "temp": 287.5555419921875,
    "load": 149845,
    "rate": 8.72817496061325,
    "requestedRate": 8.315033761535757,
    "time": 1458
  },
  {
    "temp": 287.5514221191406,
    "load": 151992,
    "rate": 8.81844936132431,
    "requestedRate": 8.315033761535757,
    "time": 1644
  },
  {
    "temp": 287.5455017089844,
    "load": 153558,
    "rate": 8.946681203842163,
    "requestedRate": 8.315033761535757,
    "time": 1831
  },
  {
    "temp": 287.5417175292969,
    "load": 155247,
    "rate": 8.914636659622193,
    "requestedRate": 8.315033761535757,
    "time": 2008
  },
  {
    "temp": 287.539306640625,
    "load": 155844,
    "rate": 8.92001993894577,
    "requestedRate": 8.315033761535757,
    "time": 2172
  },
  {
    "temp": 287.5384521484375,
    "load": 156810,
    "rate": 8.89021439552307,
    "requestedRate": 8.315033761535757,
    "time": 2367
  },
  {
    "temp": 287.5372009277344,
    "load": 157804,
    "rate": 8.880388305187225,
    "requestedRate": 8.315033761535757,
    "time": 2563
  },
  {
    "temp": 287.5364074707031,
    "load": 157979,
    "rate": 8.810029134750366,
    "requestedRate": 8.315033761535757,
    "time": 2742
  },
  {
    "temp": 287.5359191894531,
    "load": 158493,
    "rate": 8.755955286026001,
    "requestedRate": 8.315033761535757,
    "time": 2940
  },
  {
    "temp": 287.4169921875,
    "load": 159903,
    "rate": 8.779052624702453,
    "requestedRate": 8.315033761535757,
    "time": 3115
  },
  {
    "temp": 287.3069763183594,
    "load": 159857,
    "rate": 8.853999767303467,
    "requestedRate": 8.315033761535757,
    "time": 3306
  },
  {
    "temp": 287.1179504394531,
    "load": 159027,
    "rate": 8.858357241153717,
    "requestedRate": 8.315033761535757,
    "time": 3498
  },
  {
    "temp": 286.9631042480469,
    "load": 157617,
    "rate": 8.851171324253082,
    "requestedRate": 8.315033761535757,
    "time": 3682
  },
  {
    "temp": 286.9080505371094,
    "load": 156560,
    "rate": 8.817974288463592,
    "requestedRate": 8.315033761535757,
    "time": 3870
  },
  {
    "temp": 286.8287658691406,
    "load": 155328,
    "rate": 8.803737938404083,
    "requestedRate": 8.315033761535757,
    "time": 4060
  },
  {
    "temp": 286.77801513671875,
    "load": 156315,
    "rate": 8.78137520313263,
    "requestedRate": 8.315033761535757,
    "time": 4257
  },
  {
    "temp": 286.74554443359375,
    "load": 157947,
    "rate": 8.81422737121582,
    "requestedRate": 8.315033761535757,
    "time": 4442
  },
  {
    "temp": 286.6400451660156,
    "load": 160087,
    "rate": 8.826497447490691,
    "requestedRate": 8.315033761535757,
    "time": 4635
  },
  {
    "temp": 286.3522644042969,
    "load": 161372,
    "rate": 8.902145762443542,
    "requestedRate": 8.315033761535757,
    "time": 4815
  },
  {
    "temp": 286.1680908203125,
    "load": 162570,
    "rate": 8.973985576629639,
    "requestedRate": 8.315033761535757,
    "time": 4978
  },
  {
    "temp": 286.10260009765625,
    "load": 164443,
    "rate": 8.875558397769927,
    "requestedRate": 8.315033761535757,
    "time": 5172
  },
  {
    "temp": 286.00830078125,
    "load": 166102,
    "rate": 8.890277738571166,
    "requestedRate": 8.315033761535757,
    "time": 5357
  },
  {
    "temp": 285.7954406738281,
    "load": 167176,
    "rate": 8.889299440383912,
    "requestedRate": 8.315033761535757,
    "time": 5521
  },
  {
    "temp": 285.5406188964844,
    "load": 168671,
    "rate": 8.833618261814117,
    "requestedRate": 8.315033761535757,
    "time": 5698
  },
  {
    "temp": 285.4311828613281,
    "load": 169010,
    "rate": 8.777381072044372,
    "requestedRate": 8.315033761535757,
    "time": 5866
  },
  {
    "temp": 285.27362060546875,
    "load": 168981,
    "rate": 8.748196642398835,
    "requestedRate": 8.315033761535757,
    "time": 6060
  },
  {
    "temp": 285.1727600097656,
    "load": 168489,
    "rate": 8.851230268478393,
    "requestedRate": 8.315033761535757,
    "time": 6231
  },
  {
    "temp": 284.8710021972656,
    "load": 169061,
    "rate": 8.879704728126526,
    "requestedRate": 8.315033761535757,
    "time": 6403
  },
  {
    "temp": 284.7260437011719,
    "load": 169684,
    "rate": 8.861910610198974,
    "requestedRate": 8.315033761535757,
    "time": 6592
  },
  {
    "temp": 284.5173034667969,
    "load": 170603,
    "rate": 8.775107760429382,
    "requestedRate": 8.315033761535757,
    "time": 6780
  },
  {
    "temp": 284.38372802734375,
    "load": 170413,
    "rate": 8.75764443397522,
    "requestedRate": 8.315033761535757,
    "time": 6958
  },
  {
    "temp": 284.06951904296875,
    "load": 170197,
    "rate": 8.77696670293808,
    "requestedRate": 8.315033761535757,
    "time": 7163
  },
  {
    "temp": 283.79217529296875,
    "load": 170133,
    "rate": 8.80822913646698,
    "requestedRate": 8.315033761535757,
    "time": 7371
  },
  {
    "temp": 283.6146545410156,
    "load": 170008,
    "rate": 8.865853714942933,
    "requestedRate": 8.315033761535757,
    "time": 7539
  },
  {
    "temp": 283.340087890625,
    "load": 169312,
    "rate": 8.879897396564484,
    "requestedRate": 8.315033761535757,
    "time": 7747
  },
  {
    "temp": 283.02032470703125,
    "load": 169441,
    "rate": 8.917568035125733,
    "requestedRate": 8.315033761535757,
    "time": 7916
  },
  {
    "temp": 282.9066467285156,
    "load": 171314,
    "rate": 8.940049538612366,
    "requestedRate": 8.315033761535757,
    "time": 8089
  },
  {
    "temp": 282.5057373046875,
    "load": 172131,
    "rate": 8.878244318962096,
    "requestedRate": 8.315033761535757,
    "time": 8275
  },
  {
    "temp": 282.1813659667969,
    "load": 172938,
    "rate": 8.891883308887481,
    "requestedRate": 8.315033761535757,
    "time": 8472
  },
  {
    "temp": 281.9737854003906,
    "load": 172660,
    "rate": 8.826120908260345,
    "requestedRate": 8.315033761535757,
    "time": 8649
  },
  {
    "temp": 281.56982421875,
    "load": 171409,
    "rate": 8.719730100631713,
    "requestedRate": 8.315033761535757,
    "time": 8845
  },
  {
    "temp": 281.27740478515625,
    "load": 168996,
    "rate": 8.647071225643158,
    "requestedRate": 8.315033761535757,
    "time": 9016
  },
  {
    "temp": 281.1322937011719,
    "load": 168443,
    "rate": 8.782689571380615,
    "requestedRate": 8.315033761535757,
    "time": 9192
  },
  {
    "temp": 280.7010192871094,
    "load": 168928,
    "rate": 8.84795226573944,
    "requestedRate": 8.315033761535757,
    "time": 9376
  },
  {
    "temp": 280.39398193359375,
    "load": 169377,
    "rate": 8.79701741695404,
    "requestedRate": 8.315033761535757,
    "time": 9534
  },
  {
    "temp": 280.1778869628906,
    "load": 170221,
    "rate": 8.749357931613922,
    "requestedRate": 8.315033761535757,
    "time": 9693
  },
  {
    "temp": 279.86669921875,
    "load": 169918,
    "rate": 8.779606876373292,
    "requestedRate": 8.315033761535757,
    "time": 9881
  },
  {
    "temp": 279.57440185546875,
    "load": 168507,
    "rate": 8.742229199409485,
    "requestedRate": 8.315033761535757,
    "time": 10053
  },
  {
    "temp": 279.2569580078125,
    "load": 169612,
    "rate": 8.700198447704315,
    "requestedRate": 8.315033761535757,
    "time": 10252
  },
  {
    "temp": 279.0227355957031,
    "load": 171178,
    "rate": 8.786922998428345,
    "requestedRate": 8.315033761535757,
    "time": 10421
  },
  {
    "temp": 278.86358642578125,
    "load": 171495,
    "rate": 8.835431456565857,
    "requestedRate": 8.315033761535757,
    "time": 10598
  },
  {
    "temp": 278.5784912109375,
    "load": 171368,
    "rate": 8.86508040189743,
    "requestedRate": 8.315033761535757,
    "time": 10767
  },
  {
    "temp": 278.333984375,
    "load": 170587,
    "rate": 8.956547763347626,
    "requestedRate": 8.315033761535757,
    "time": 10944
  },
  {
    "temp": 278.1573486328125,
    "load": 170748,
    "rate": 8.940990006923675,
    "requestedRate": 8.315033761535757,
    "time": 11116
  },
  {
    "temp": 277.90301513671875,
    "load": 172114,
    "rate": 8.907926695346832,
    "requestedRate": 8.315033761535757,
    "time": 11320
  },
  {
    "temp": 277.54156494140625,
    "load": 172757,
    "rate": 8.818969302177429,
    "requestedRate": 8.315033761535757,
    "time": 11511
  },
  {
    "temp": 277.2853698730469,
    "load": 172351,
    "rate": 8.756593995094299,
    "requestedRate": 8.315033761535757,
    "time": 11697
  },
  {
    "temp": 276.94757080078125,
    "load": 171230,
    "rate": 8.715069987773894,
    "requestedRate": 8.315033761535757,
    "time": 11899
  },
  {
    "temp": 276.68170166015625,
    "load": 170983,
    "rate": 8.766536214351653,
    "requestedRate": 8.315033761535757,
    "time": 12074
  },
  {
    "temp": 276.38739013671875,
    "load": 173384,
    "rate": 8.855827038288115,
    "requestedRate": 8.315033761535757,
    "time": 12270
  },
  {
    "temp": 276.09967041015625,
    "load": 176360,
    "rate": 8.86398773431778,
    "requestedRate": 8.315033761535757,
    "time": 12432
  },
  {
    "temp": 275.9042663574219,
    "load": 177674,
    "rate": 8.857752842903137,
    "requestedRate": 8.315033761535757,
    "time": 12599
  },
  {
    "temp": 275.5669860839844,
    "load": 180286,
    "rate": 8.82985286951065,
    "requestedRate": 8.315033761535757,
    "time": 12765
  },
  {
    "temp": 275.25799560546875,
    "load": 181541,
    "rate": 8.79826316356659,
    "requestedRate": 8.315033761535757,
    "time": 12946
  },
  {
    "temp": 275.07568359375,
    "load": 179290,
    "rate": 8.751682269573212,
    "requestedRate": 8.315033761535757,
    "time": 13141
  },
  {
    "temp": 274.7510681152344,
    "load": 179227,
    "rate": 8.736106917858123,
    "requestedRate": 8.315033761535757,
    "time": 13314
  },
  {
    "temp": 274.3818664550781,
    "load": 179722,
    "rate": 8.746857640743256,
    "requestedRate": 8.315033761535757,
    "time": 13493
  },
  {
    "temp": 274.11456298828125,
    "load": 180783,
    "rate": 8.789556133747102,
    "requestedRate": 8.315033761535757,
    "time": 13691
  },
  {
    "temp": 273.7510070800781,
    "load": 181488,
    "rate": 8.98645359992981,
    "requestedRate": 8.315033761535757,
    "time": 13885
  },
  {
    "temp": 273.3941345214844,
    "load": 182176,
    "rate": 8.927007029056549,
    "requestedRate": 8.315033761535757,
    "time": 14046
  },
  {
    "temp": 273.2120666503906,
    "load": 182323,
    "rate": 8.844942591190337,
    "requestedRate": 8.315033761535757,
    "time": 14221
  },
  {
    "temp": 272.9188232421875,
    "load": 182839,
    "rate": 8.850356662273407,
    "requestedRate": 8.315033761535757,
    "time": 14392
  },
  {
    "temp": 272.5386962890625,
    "load": 184855,
    "rate": 8.752102797031402,
    "requestedRate": 8.315033761535757,
    "time": 14550
  },
  {
    "temp": 272.4035339355469,
    "load": 187791,
    "rate": 8.693041563034058,
    "requestedRate": 8.315033761535757,
    "time": 14725
  },
  {
    "temp": 271.9854431152344,
    "load": 189912,
    "rate": 8.755679919719697,
    "requestedRate": 8.315033761535757,
    "time": 14925
  },
  {
    "temp": 271.65576171875,
    "load": 190273,
    "rate": 8.809884853363037,
    "requestedRate": 8.315033761535757,
    "time": 15113
  },
  {
    "temp": 271.2833251953125,
    "load": 189436,
    "rate": 8.883038156032562,
    "requestedRate": 8.315033761535757,
    "time": 15274
  },
  {
    "temp": 271.08880615234375,
    "load": 189266,
    "rate": 8.851890971660614,
    "requestedRate": 8.315033761535757,
    "time": 15462
  },
  {
    "temp": 270.69696044921875,
    "load": 189659,
    "rate": 8.707447707653046,
    "requestedRate": 8.315033761535757,
    "time": 15654
  },
  {
    "temp": 270.3530578613281,
    "load": 189972,
    "rate": 8.77287755727768,
    "requestedRate": 8.315033761535757,
    "time": 15824
  },
  {
    "temp": 270.0025939941406,
    "load": 192998,
    "rate": 8.728529505729675,
    "requestedRate": 8.315033761535757,
    "time": 16013
  },
  {
    "temp": 269.6292724609375,
    "load": 193744,
    "rate": 8.705274689197541,
    "requestedRate": 8.315033761535757,
    "time": 16191
  },
  {
    "temp": 269.3158264160156,
    "load": 190666,
    "rate": 8.792915074825286,
    "requestedRate": 8.315033761535757,
    "time": 16412
  },
  {
    "temp": 268.8916931152344,
    "load": 188225,
    "rate": 8.827703604698181,
    "requestedRate": 8.315033761535757,
    "time": 16592
  },
  {
    "temp": 268.74090576171875,
    "load": 190081,
    "rate": 8.914440472126007,
    "requestedRate": 8.315033761535757,
    "time": 16785
  },
  {
    "temp": 268.1634216308594,
    "load": 192099,
    "rate": 8.911754550933837,
    "requestedRate": 8.315033761535757,
    "time": 16985
  },
  {
    "temp": 267.94097900390625,
    "load": 192057,
    "rate": 8.856531729698181,
    "requestedRate": 8.315033761535757,
    "time": 17153
  },
  {
    "temp": 267.56475830078125,
    "load": 192446,
    "rate": 8.789275488853454,
    "requestedRate": 8.315033761535757,
    "time": 17327
  },
  {
    "temp": 267.1998291015625,
    "load": 192094,
    "rate": 8.685016350746155,
    "requestedRate": 8.315033761535757,
    "time": 17515
  },
  {
    "temp": 266.866943359375,
    "load": 191205,
    "rate": 8.696315166950226,
    "requestedRate": 8.315033761535757,
    "time": 17689
  },
  {
    "temp": 266.6243896484375,
    "load": 191413,
    "rate": 8.68598937034607,
    "requestedRate": 8.315033761535757,
    "time": 17849
  },
  {
    "temp": 266.2751159667969,
    "load": 193336,
    "rate": 8.74304386138916,
    "requestedRate": 8.315033761535757,
    "time": 18043
  },
  {
    "temp": 265.8529052734375,
    "load": 195681,
    "rate": 8.77423855304718,
    "requestedRate": 8.315033761535757,
    "time": 18227
  },
  {
    "temp": 265.4336853027344,
    "load": 198403,
    "rate": 8.793188681602478,
    "requestedRate": 8.315033761535757,
    "time": 18414
  },
  {
    "temp": 265.0660400390625,
    "load": 200715,
    "rate": 8.715923359394074,
    "requestedRate": 8.315033761535757,
    "time": 18632
  },
  {
    "temp": 264.60723876953125,
    "load": 202667,
    "rate": 8.720194616317748,
    "requestedRate": 8.315033761535757,
    "time": 18795
  },
  {
    "temp": 264.3509521484375,
    "load": 203322,
    "rate": 8.72758199930191,
    "requestedRate": 8.315033761535757,
    "time": 18962
  },
  {
    "temp": 263.9260559082031,
    "load": 204817,
    "rate": 8.635685312747956,
    "requestedRate": 8.315033761535757,
    "time": 19170
  },
  {
    "temp": 263.4554443359375,
    "load": 202764,
    "rate": 8.66237121105194,
    "requestedRate": 8.315033761535757,
    "time": 19360
  },
  {
    "temp": 263.0052490234375,
    "load": 202614,
    "rate": 8.87106456041336,
    "requestedRate": 8.315033761535757,
    "time": 19536
  },
  {
    "temp": 262.6177673339844,
    "load": 205529,
    "rate": 8.919492959976196,
    "requestedRate": 8.315033761535757,
    "time": 19711
  },
  {
    "temp": 262.1711120605469,
    "load": 206482,
    "rate": 8.869060456752777,
    "requestedRate": 8.315033761535757,
    "time": 19898
  },
  {
    "temp": 261.9985046386719,
    "load": 207155,
    "rate": 8.811909191608429,
    "requestedRate": 8.315033761535757,
    "time": 20090
  },
  {
    "temp": 261.5512390136719,
    "load": 207684,
    "rate": 8.717596671581267,
    "requestedRate": 8.315033761535757,
    "time": 20276
  },
  {
    "temp": 261.14703369140625,
    "load": 207955,
    "rate": 8.707331578731537,
    "requestedRate": 8.315033761535757,
    "time": 20465
  },
  {
    "temp": 260.7579650878906,
    "load": 207248,
    "rate": 8.745559108257293,
    "requestedRate": 8.315033761535757,
    "time": 20651
  },
  {
    "temp": 260.33856201171875,
    "load": 208963,
    "rate": 8.700330412387848,
    "requestedRate": 8.315033761535757,
    "time": 20863
  },
  {
    "temp": 260.0018310546875,
    "load": 210980,
    "rate": 8.830629701614379,
    "requestedRate": 8.315033761535757,
    "time": 21034
  },
  {
    "temp": 259.69061279296875,
    "load": 211776,
    "rate": 8.803488085269928,
    "requestedRate": 8.315033761535757,
    "time": 21217
  },
  {
    "temp": 259.5115966796875,
    "load": 211502,
    "rate": 8.790014491081237,
    "requestedRate": 8.315033761535757,
    "time": 21407
  },
  {
    "temp": 259.21282958984375,
    "load": 211015,
    "rate": 8.783067870140076,
    "requestedRate": 8.315033761535757,
    "time": 21580
  },
  {
    "temp": 258.85760498046875,
    "load": 214064,
    "rate": 8.780484001636506,
    "requestedRate": 8.315033761535757,
    "time": 21765
  },
  {
    "temp": 258.5208740234375,
    "load": 215366,
    "rate": 8.673539822101592,
    "requestedRate": 8.315033761535757,
    "time": 21934
  },
  {
    "temp": 258.3707580566406,
    "load": 216731,
    "rate": 8.75189165353775,
    "requestedRate": 8.315033761535757,
    "time": 22105
  },
  {
    "temp": 258.0088195800781,
    "load": 217707,
    "rate": 8.765454103946686,
    "requestedRate": 8.315033761535757,
    "time": 22295
  },
  {
    "temp": 257.6678161621094,
    "load": 218316,
    "rate": 8.760003962516784,
    "requestedRate": 8.315033761535757,
    "time": 22469
  },
  {
    "temp": 257.3766784667969,
    "load": 219497,
    "rate": 8.791927099227905,
    "requestedRate": 8.315033761535757,
    "time": 22672
  },
  {
    "temp": 257.02630615234375,
    "load": 219892,
    "rate": 8.855309736728668,
    "requestedRate": 8.315033761535757,
    "time": 22842
  },
  {
    "temp": 256.6744689941406,
    "load": 221579,
    "rate": 8.808522977828979,
    "requestedRate": 8.315033761535757,
    "time": 23037
  },
  {
    "temp": 256.412841796875,
    "load": 223546,
    "rate": 8.818086898326873,
    "requestedRate": 8.315033761535757,
    "time": 23220
  },
  {
    "temp": 256.22869873046875,
    "load": 224441,
    "rate": 8.779588401317596,
    "requestedRate": 8.315033761535757,
    "time": 23396
  },
  {
    "temp": 255.89515686035156,
    "load": 224289,
    "rate": 8.725445051193237,
    "requestedRate": 8.315033761535757,
    "time": 23583
  },
  {
    "temp": 255.58599853515625,
    "load": 224467,
    "rate": 8.705609879493712,
    "requestedRate": 8.315033761535757,
    "time": 23749
  },
  {
    "temp": 255.2605438232422,
    "load": 225140,
    "rate": 8.75619282245636,
    "requestedRate": 8.315033761535757,
    "time": 23939
  },
  {
    "temp": 255.12457275390625,
    "load": 226115,
    "rate": 8.834438202381135,
    "requestedRate": 8.315033761535757,
    "time": 24136
  },
  {
    "temp": 254.78297424316406,
    "load": 227586,
    "rate": 8.804951133728027,
    "requestedRate": 8.315033761535757,
    "time": 24331
  },
  {
    "temp": 254.477783203125,
    "load": 227056,
    "rate": 8.745629489421844,
    "requestedRate": 8.315033761535757,
    "time": 24514
  },
  {
    "temp": 254.1639862060547,
    "load": 227267,
    "rate": 8.673889968395233,
    "requestedRate": 8.315033761535757,
    "time": 24693
  },
  {
    "temp": 253.8218994140625,
    "load": 227734,
    "rate": 8.674175012111665,
    "requestedRate": 8.315033761535757,
    "time": 24894
  },
  {
    "temp": 253.4753875732422,
    "load": 226769,
    "rate": 8.709314568042755,
    "requestedRate": 8.315033761535757,
    "time": 25081
  },
  {
    "temp": 253.12603759765625,
    "load": 227307,
    "rate": 8.682719285488128,
    "requestedRate": 8.315033761535757,
    "time": 25263
  },
  {
    "temp": 252.96131896972656,
    "load": 228500,
    "rate": 8.657288811206817,
    "requestedRate": 8.315033761535757,
    "time": 25441
  },
  {
    "temp": 252.61476135253906,
    "load": 229218,
    "rate": 8.731655309200287,
    "requestedRate": 8.315033761535757,
    "time": 25633
  },
  {
    "temp": 252.292724609375,
    "load": 226092,
    "rate": 8.822864899635315,
    "requestedRate": 8.315033761535757,
    "time": 25801
  },
  {
    "temp": 251.9681396484375,
    "load": 226581,
    "rate": 8.796114778518676,
    "requestedRate": 8.315033761535757,
    "time": 25998
  },
  {
    "temp": 251.59637451171875,
    "load": 230201,
    "rate": 8.73782509803772,
    "requestedRate": 8.315033761535757,
    "time": 26170
  },
  {
    "temp": 251.212646484375,
    "load": 233251,
    "rate": 8.723243000507354,
    "requestedRate": 8.315033761535757,
    "time": 26362
  },
  {
    "temp": 251.0660858154297,
    "load": 236625,
    "rate": 8.638407304286957,
    "requestedRate": 8.315033761535757,
    "time": 26556
  },
  {
    "temp": 250.69097900390625,
    "load": 239415,
    "rate": 8.631026079654694,
    "requestedRate": 8.315033761535757,
    "time": 26731
  },
  {
    "temp": 250.28688049316406,
    "load": 239720,
    "rate": 8.624640748500823,
    "requestedRate": 8.315033761535757,
    "time": 26900
  },
  {
    "temp": 249.93711853027344,
    "load": 238070,
    "rate": 8.764483723640442,
    "requestedRate": 8.315033761535757,
    "time": 27081
  },
  {
    "temp": 249.59478759765625,
    "load": 238557,
    "rate": 8.744029197692871,
    "requestedRate": 8.315033761535757,
    "time": 27260
  },
  {
    "temp": 249.40725708007812,
    "load": 239408,
    "rate": 8.76171070575714,
    "requestedRate": 8.315033761535757,
    "time": 27439
  },
  {
    "temp": 249.04608154296875,
    "load": 239184,
    "rate": 8.698027188777923,
    "requestedRate": 8.315033761535757,
    "time": 27626
  },
  {
    "temp": 248.65089416503906,
    "load": 237546,
    "rate": 8.70562483549118,
    "requestedRate": 8.315033761535757,
    "time": 27798
  },
  {
    "temp": 248.27951049804688,
    "load": 237513,
    "rate": 8.71761866569519,
    "requestedRate": 8.315033761535757,
    "time": 27973
  },
  {
    "temp": 248.08164978027344,
    "load": 238771,
    "rate": 8.629370362758637,
    "requestedRate": 8.315033761535757,
    "time": 28178
  },
  {
    "temp": 247.54959106445312,
    "load": 240407,
    "rate": 8.69341634273529,
    "requestedRate": 8.315033761535757,
    "time": 28359
  },
  {
    "temp": 247.33822631835938,
    "load": 242286,
    "rate": 8.754205434322357,
    "requestedRate": 8.315033761535757,
    "time": 28560
  },
  {
    "temp": 246.99285888671875,
    "load": 244062,
    "rate": 8.77617315530777,
    "requestedRate": 8.315033761535757,
    "time": 28725
  },
  {
    "temp": 246.60777282714844,
    "load": 244962,
    "rate": 8.795276362895965,
    "requestedRate": 8.315033761535757,
    "time": 28912
  },
  {
    "temp": 246.19729614257812,
    "load": 246417,
    "rate": 8.74609664440155,
    "requestedRate": 8.315033761535757,
    "time": 29068
  },
  {
    "temp": 246.0513458251953,
    "load": 247932,
    "rate": 8.790122702121735,
    "requestedRate": 8.315033761535757,
    "time": 29255
  },
  {
    "temp": 245.69537353515625,
    "load": 250456,
    "rate": 8.792066102027892,
    "requestedRate": 8.315033761535757,
    "time": 29460
  },
  {
    "temp": 245.2852783203125,
    "load": 252042,
    "rate": 8.711821897029877,
    "requestedRate": 8.315033761535757,
    "time": 29648
  },
  {
    "temp": 244.87701416015625,
    "load": 254743,
    "rate": 8.634572410583496,
    "requestedRate": 8.315033761535757,
    "time": 29836
  },
  {
    "temp": 244.50636291503906,
    "load": 259048,
    "rate": 8.84753437757492,
    "requestedRate": 8.315033761535757,
    "time": 30026
  },
  {
    "temp": 244.1278839111328,
    "load": 259716,
    "rate": 8.804612424373627,
    "requestedRate": 8.315033761535757,
    "time": 30213
  },
  {
    "temp": 243.78997802734375,
    "load": 261482,
    "rate": 8.724847691059113,
    "requestedRate": 8.315033761535757,
    "time": 30391
  },
  {
    "temp": 243.5786895751953,
    "load": 261686,
    "rate": 8.721650626659393,
    "requestedRate": 8.315033761535757,
    "time": 30571
  },
  {
    "temp": 243.27444458007812,
    "load": 258540,
    "rate": 8.690324850082398,
    "requestedRate": 8.315033761535757,
    "time": 30738
  },
  {
    "temp": 242.9156951904297,
    "load": 258435,
    "rate": 8.61835834980011,
    "requestedRate": 8.315033761535757,
    "time": 30924
  },
  {
    "temp": 242.5220489501953,
    "load": 259024,
    "rate": 8.562246086597442,
    "requestedRate": 8.315033761535757,
    "time": 31117
  },
  {
    "temp": 242.1243133544922,
    "load": 256956,
    "rate": 8.604917306900024,
    "requestedRate": 8.315033761535757,
    "time": 31318
  },
  {
    "temp": 241.76040649414062,
    "load": 257745,
    "rate": 8.63474924325943,
    "requestedRate": 8.315033761535757,
    "time": 31509
  },
  {
    "temp": 241.36346435546875,
    "load": 259963,
    "rate": 8.749635057449341,
    "requestedRate": 8.315033761535757,
    "time": 31686
  },
  {
    "temp": 241.18182373046875,
    "load": 261212,
    "rate": 8.75902566432953,
    "requestedRate": 8.315033761535757,
    "time": 31860
  },
  {
    "temp": 240.7744903564453,
    "load": 262357,
    "rate": 8.676911959648132,
    "requestedRate": 8.315033761535757,
    "time": 32031
  },
  {
    "temp": 240.4145965576172,
    "load": 262559,
    "rate": 8.82005317211151,
    "requestedRate": 8.315033761535757,
    "time": 32202
  },
  {
    "temp": 240.26414489746094,
    "load": 262552,
    "rate": 8.726131267547608,
    "requestedRate": 8.315033761535757,
    "time": 32378
  },
  {
    "temp": 239.92601013183594,
    "load": 262170,
    "rate": 8.644154806137085,
    "requestedRate": 8.315033761535757,
    "time": 32552
  },
  {
    "temp": 239.58815002441406,
    "load": 264343,
    "rate": 8.71358318567276,
    "requestedRate": 8.315033761535757,
    "time": 32741
  },
  {
    "temp": 239.26394653320312,
    "load": 265462,
    "rate": 8.71050488948822,
    "requestedRate": 8.315033761535757,
    "time": 32931
  },
  {
    "temp": 238.92149353027344,
    "load": 268387,
    "rate": 8.689864733219146,
    "requestedRate": 8.315033761535757,
    "time": 33098
  },
  {
    "temp": 238.7997283935547,
    "load": 269020,
    "rate": 8.736344454288483,
    "requestedRate": 8.315033761535757,
    "time": 33293
  },
  {
    "temp": 238.5164337158203,
    "load": 268357,
    "rate": 8.714579079151154,
    "requestedRate": 8.315033761535757,
    "time": 33473
  },
  {
    "temp": 238.20018005371094,
    "load": 267248,
    "rate": 8.657675907611846,
    "requestedRate": 8.315033761535757,
    "time": 33663
  },
  {
    "temp": 237.8762969970703,
    "load": 266098,
    "rate": 8.61380556821823,
    "requestedRate": 8.315033761535757,
    "time": 33858
  },
  {
    "temp": 237.5475616455078,
    "load": 265244,
    "rate": 8.587987117767334,
    "requestedRate": 8.315033761535757,
    "time": 34034
  },
  {
    "temp": 237.24270629882812,
    "load": 268397,
    "rate": 8.565727314949035,
    "requestedRate": 8.315033761535757,
    "time": 34225
  },
  {
    "temp": 237.10244750976562,
    "load": 275667,
    "rate": 8.627359220981598,
    "requestedRate": 8.315033761535757,
    "time": 34416
  },
  {
    "temp": 236.75875854492188,
    "load": 276030,
    "rate": 8.82229569196701,
    "requestedRate": 8.315033761535757,
    "time": 34591
  },
  {
    "temp": 236.4679412841797,
    "load": 275656,
    "rate": 8.768348529338837,
    "requestedRate": 8.315033761535757,
    "time": 34757
  },
  {
    "temp": 236.09288024902344,
    "load": 276976,
    "rate": 8.754763205051422,
    "requestedRate": 8.315033761535757,
    "time": 34932
  },
  {
    "temp": 235.92953491210938,
    "load": 278274,
    "rate": 8.840913269519806,
    "requestedRate": 8.315033761535757,
    "time": 35121
  },
  {
    "temp": 235.57286071777344,
    "load": 279125,
    "rate": 8.792132084369658,
    "requestedRate": 8.315033761535757,
    "time": 35285
  },
  {
    "temp": 235.22312927246094,
    "load": 281264,
    "rate": 8.654866819381713,
    "requestedRate": 8.315033761535757,
    "time": 35483
  },
  {
    "temp": 234.90481567382812,
    "load": 287215,
    "rate": 8.591508815288543,
    "requestedRate": 8.315033761535757,
    "time": 35645
  },
  {
    "temp": 234.5796356201172,
    "load": 287936,
    "rate": 8.590150458812714,
    "requestedRate": 8.315033761535757,
    "time": 35841
  },
  {
    "temp": 234.415283203125,
    "load": 285387,
    "rate": 8.683847143650056,
    "requestedRate": 8.315033761535757,
    "time": 36009
  },
  {
    "temp": 234.10101318359375,
    "load": 283250,
    "rate": 8.67138879776001,
    "requestedRate": 8.315033761535757,
    "time": 36189
  },
  {
    "temp": 233.77841186523438,
    "load": 283215,
    "rate": 8.715635676383972,
    "requestedRate": 8.315033761535757,
    "time": 36376
  },
  {
    "temp": 233.4504852294922,
    "load": 285122,
    "rate": 8.65681109905243,
    "requestedRate": 8.315033761535757,
    "time": 36570
  },
  {
    "temp": 233.11915588378906,
    "load": 287174,
    "rate": 8.526356971263885,
    "requestedRate": 8.315033761535757,
    "time": 36744
  },
  {
    "temp": 232.9432373046875,
    "load": 288413,
    "rate": 8.49541829109192,
    "requestedRate": 8.315033761535757,
    "time": 36924
  },
  {
    "temp": 232.61231994628906,
    "load": 290682,
    "rate": 8.552611784934998,
    "requestedRate": 8.315033761535757,
    "time": 37104
  },
  {
    "temp": 232.28919982910156,
    "load": 294284,
    "rate": 8.538407986164092,
    "requestedRate": 8.315033761535757,
    "time": 37292
  },
  {
    "temp": 231.96092224121094,
    "load": 295358,
    "rate": 8.603968920707702,
    "requestedRate": 8.315033761535757,
    "time": 37459
  },
  {
    "temp": 231.61587524414062,
    "load": 297684,
    "rate": 8.67726298570633,
    "requestedRate": 8.315033761535757,
    "time": 37648
  },
  {
    "temp": 231.470703125,
    "load": 297895,
    "rate": 8.7656986784935,
    "requestedRate": 8.315033761535757,
    "time": 37834
  },
  {
    "temp": 231.1401824951172,
    "load": 305740,
    "rate": 8.744864094257355,
    "requestedRate": 8.315033761535757,
    "time": 38024
  },
  {
    "temp": 230.8071746826172,
    "load": 307254,
    "rate": 8.819750533103942,
    "requestedRate": 8.315033761535757,
    "time": 38229
  },
  {
    "temp": 230.47259521484375,
    "load": 306767,
    "rate": 8.717708401679992,
    "requestedRate": 8.315033761535757,
    "time": 38399
  },
  {
    "temp": 230.1370086669922,
    "load": 311127,
    "rate": 8.592920837402344,
    "requestedRate": 8.315033761535757,
    "time": 38589
  },
  {
    "temp": 229.80075073242188,
    "load": 312848,
    "rate": 8.610574193000794,
    "requestedRate": 8.315033761535757,
    "time": 38772
  },
  {
    "temp": 229.6137237548828,
    "load": 311262,
    "rate": 8.6229700756073,
    "requestedRate": 8.315033761535757,
    "time": 38949
  },
  {
    "temp": 229.27691650390625,
    "load": 303835,
    "rate": 8.666712849140167,
    "requestedRate": 8.315033761535757,
    "time": 39121
  },
  {
    "temp": 228.9398956298828,
    "load": 305994,
    "rate": 8.609280939102172,
    "requestedRate": 8.315033761535757,
    "time": 39315
  },
  {
    "temp": 228.6027374267578,
    "load": 308448,
    "rate": 8.62482813835144,
    "requestedRate": 8.315033761535757,
    "time": 39495
  },
  {
    "temp": 228.26548767089844,
    "load": 307715,
    "rate": 8.512359037399293,
    "requestedRate": 8.315033761535757,
    "time": 39704
  },
  {
    "temp": 227.92819213867188,
    "load": 308596,
    "rate": 8.551645803451539,
    "requestedRate": 8.315033761535757,
    "time": 39894
  },
  {
    "temp": 227.5908660888672,
    "load": 309509,
    "rate": 8.491069614887238,
    "requestedRate": 8.315033761535757,
    "time": 40068
  },
  {
    "temp": 227.44093322753906,
    "load": 308927,
    "rate": 8.512123260498047,
    "requestedRate": 8.315033761535757,
    "time": 40252
  },
  {
    "temp": 227.10354614257812,
    "load": 307642,
    "rate": 8.572576282024384,
    "requestedRate": 8.315033761535757,
    "time": 40417
  },
  {
    "temp": 226.76617431640625,
    "load": 310512,
    "rate": 8.685458872318268,
    "requestedRate": 8.315033761535757,
    "time": 40615
  },
  {
    "temp": 226.42880249023438,
    "load": 316984,
    "rate": 8.745515999794007,
    "requestedRate": 8.315033761535757,
    "time": 40788
  },
  {
    "temp": 226.09140014648438,
    "load": 322855,
    "rate": 8.76017991542816,
    "requestedRate": 8.315033761535757,
    "time": 40955
  },
  {
    "temp": 225.90396118164062,
    "load": 324574,
    "rate": 8.771212162971496,
    "requestedRate": 8.315033761535757,
    "time": 41139
  },
  {
    "temp": 225.58343505859375,
    "load": 327190,
    "rate": 8.738150610923768,
    "requestedRate": 8.315033761535757,
    "time": 41343
  },
  {
    "temp": 225.23997497558594,
    "load": 330026,
    "rate": 8.663634552955628,
    "requestedRate": 8.315033761535757,
    "time": 41538
  },
  {
    "temp": 224.9155731201172,
    "load": 328573,
    "rate": 8.619167733192445,
    "requestedRate": 8.315033761535757,
    "time": 41705
  },
  {
    "temp": 224.58648681640625,
    "load": 322618,
    "rate": 8.668172378540039,
    "requestedRate": 8.315033761535757,
    "time": 41894
  },
  {
    "temp": 224.25440979003906,
    "load": 326826,
    "rate": 8.652535443305968,
    "requestedRate": 8.315033761535757,
    "time": 42074
  },
  {
    "temp": 224.0969696044922,
    "load": 333697,
    "rate": 8.591168346405029,
    "requestedRate": 8.315033761535757,
    "time": 42255
  },
  {
    "temp": 223.74879455566406,
    "load": 332675,
    "rate": 8.63017974615097,
    "requestedRate": 8.315033761535757,
    "time": 42442
  },
  {
    "temp": 223.41799926757812,
    "load": 335281,
    "rate": 8.509728541374207,
    "requestedRate": 8.315033761535757,
    "time": 42654
  },
  {
    "temp": 223.0983123779297,
    "load": 337509,
    "rate": 8.586875975131989,
    "requestedRate": 8.315033761535757,
    "time": 42832
  },
  {
    "temp": 222.7722625732422,
    "load": 340384,
    "rate": 8.503456699848176,
    "requestedRate": 8.315033761535757,
    "time": 43025
  },
  {
    "temp": 222.41514587402344,
    "load": 336655,
    "rate": 8.467453215122223,
    "requestedRate": 8.315033761535757,
    "time": 43209
  },
  {
    "temp": 222.06509399414062,
    "load": 337197,
    "rate": 8.6222864985466,
    "requestedRate": 8.315033761535757,
    "time": 43395
  },
  {
    "temp": 221.8731689453125,
    "load": 338778,
    "rate": 8.679282925128936,
    "requestedRate": 8.315033761535757,
    "time": 43589
  },
  {
    "temp": 221.52931213378906,
    "load": 339672,
    "rate": 8.717552683353423,
    "requestedRate": 8.315033761535757,
    "time": 43766
  },
  {
    "temp": 221.18777465820312,
    "load": 342871,
    "rate": 8.771806883811951,
    "requestedRate": 8.315033761535757,
    "time": 43960
  },
  {
    "temp": 220.8477325439453,
    "load": 342230,
    "rate": 8.682143919467926,
    "requestedRate": 8.315033761535757,
    "time": 44154
  },
  {
    "temp": 220.4981689453125,
    "load": 344357,
    "rate": 8.570416460037231,
    "requestedRate": 8.315033761535757,
    "time": 44342
  },
  {
    "temp": 220.1600799560547,
    "load": 345680,
    "rate": 8.701511936187744,
    "requestedRate": 8.315033761535757,
    "time": 44502
  },
  {
    "temp": 219.9886932373047,
    "load": 347258,
    "rate": 8.626515526771545,
    "requestedRate": 8.315033761535757,
    "time": 44669
  },
  {
    "temp": 219.69073486328125,
    "load": 347570,
    "rate": 8.529494211673736,
    "requestedRate": 8.315033761535757,
    "time": 44859
  },
  {
    "temp": 219.40792846679688,
    "load": 343732,
    "rate": 8.570661034584045,
    "requestedRate": 8.315033761535757,
    "time": 45029
  },
  {
    "temp": 219.1348419189453,
    "load": 344431,
    "rate": 8.562955176830291,
    "requestedRate": 8.315033761535757,
    "time": 45229
  },
  {
    "temp": 218.86795043945312,
    "load": 346431,
    "rate": 8.57830706834793,
    "requestedRate": 8.315033761535757,
    "time": 45428
  },
  {
    "temp": 218.56410217285156,
    "load": 354335,
    "rate": 8.570675110816955,
    "requestedRate": 8.315033761535757,
    "time": 45620
  },
  {
    "temp": 218.2775421142578,
    "load": 355175,
    "rate": 8.535451097488403,
    "requestedRate": 8.315033761535757,
    "time": 45787
  },
  {
    "temp": 218.12448120117188,
    "load": 355791,
    "rate": 8.533614149093628,
    "requestedRate": 8.315033761535757,
    "time": 45958
  },
  {
    "temp": 217.8529052734375,
    "load": 357488,
    "rate": 8.542005343437195,
    "requestedRate": 8.315033761535757,
    "time": 46133
  },
  {
    "temp": 217.72080993652344,
    "load": 357321,
    "rate": 8.525429699420929,
    "requestedRate": 8.315033761535757,
    "time": 46304
  },
  {
    "temp": 217.41033935546875,
    "load": 358819,
    "rate": 8.587829639911652,
    "requestedRate": 8.315033761535757,
    "time": 46474
  },
  {
    "temp": 217.11952209472656,
    "load": 361859,
    "rate": 8.635146896839142,
    "requestedRate": 8.315033761535757,
    "time": 46642
  },
  {
    "temp": 216.84130859375,
    "load": 365632,
    "rate": 8.659604351520539,
    "requestedRate": 8.315033761535757,
    "time": 46821
  },
  {
    "temp": 216.7196502685547,
    "load": 367125,
    "rate": 8.794614779949189,
    "requestedRate": 8.315033761535757,
    "time": 46985
  },
  {
    "temp": 216.45233154296875,
    "load": 368935,
    "rate": 8.724431562423707,
    "requestedRate": 8.315033761535757,
    "time": 47180
  },
  {
    "temp": 216.13800048828125,
    "load": 367585,
    "rate": 8.646163308620453,
    "requestedRate": 8.315033761535757,
    "time": 47368
  },
  {
    "temp": 215.76539611816406,
    "load": 362554,
    "rate": 8.676377062797545,
    "requestedRate": 8.315033761535757,
    "time": 47571
  },
  {
    "temp": 215.4220428466797,
    "load": 366970,
    "rate": 8.503408312797546,
    "requestedRate": 8.315033761535757,
    "time": 47773
  },
  {
    "temp": 215.1101837158203,
    "load": 375046,
    "rate": 8.526876032352448,
    "requestedRate": 8.315033761535757,
    "time": 47975
  },
  {
    "temp": 214.8184814453125,
    "load": 371675,
    "rate": 8.574529359340668,
    "requestedRate": 8.315033761535757,
    "time": 48152
  },
  {
    "temp": 214.5089874267578,
    "load": 370763,
    "rate": 8.511719448566437,
    "requestedRate": 8.315033761535757,
    "time": 48337
  },
  {
    "temp": 214.2085723876953,
    "load": 375066,
    "rate": 8.49278603553772,
    "requestedRate": 8.315033761535757,
    "time": 48528
  },
  {
    "temp": 214.05059814453125,
    "load": 380458,
    "rate": 8.542531442642211,
    "requestedRate": 8.315033761535757,
    "time": 48717
  },
  {
    "temp": 213.76170349121094,
    "load": 380700,
    "rate": 8.573536105155945,
    "requestedRate": 8.315033761535757,
    "time": 48915
  },
  {
    "temp": 213.4846954345703,
    "load": 380686,
    "rate": 8.528503596782684,
    "requestedRate": 8.315033761535757,
    "time": 49090
  },
  {
    "temp": 213.18463134765625,
    "load": 382155,
    "rate": 8.504464910030364,
    "requestedRate": 8.315033761535757,
    "time": 49269
  },
  {
    "temp": 212.8748779296875,
    "load": 383659,
    "rate": 8.560266616344451,
    "requestedRate": 8.315033761535757,
    "time": 49468
  },
  {
    "temp": 212.55894470214844,
    "load": 385870,
    "rate": 8.653871805667878,
    "requestedRate": 8.315033761535757,
    "time": 49649
  },
  {
    "temp": 212.4238739013672,
    "load": 389751,
    "rate": 8.666616954803466,
    "requestedRate": 8.315033761535757,
    "time": 49836
  },
  {
    "temp": 212.13726806640625,
    "load": 395330,
    "rate": 8.783564057350159,
    "requestedRate": 8.315033761535757,
    "time": 50012
  },
  {
    "temp": 211.81056213378906,
    "load": 397713,
    "rate": 8.720662651062012,
    "requestedRate": 8.315033761535757,
    "time": 50198
  },
  {
    "temp": 211.50936889648438,
    "load": 399774,
    "rate": 8.646137795448302,
    "requestedRate": 8.315033761535757,
    "time": 50379
  },
  {
    "temp": 211.37954711914062,
    "load": 399124,
    "rate": 8.582112929821013,
    "requestedRate": 8.315033761535757,
    "time": 50545
  },
  {
    "temp": 211.0748748779297,
    "load": 395028,
    "rate": 8.528239667415619,
    "requestedRate": 8.315033761535757,
    "time": 50707
  },
  {
    "temp": 210.76222229003906,
    "load": 394526,
    "rate": 8.493216240406037,
    "requestedRate": 8.315033761535757,
    "time": 50907
  },
  {
    "temp": 210.4700164794922,
    "load": 405375,
    "rate": 8.427616596221924,
    "requestedRate": 8.315033761535757,
    "time": 51080
  },
  {
    "temp": 210.17042541503906,
    "load": 409950,
    "rate": 8.512045841217041,
    "requestedRate": 8.315033761535757,
    "time": 51263
  },
  {
    "temp": 209.86610412597656,
    "load": 407989,
    "rate": 8.563533182144164,
    "requestedRate": 8.315033761535757,
    "time": 51450
  },
  {
    "temp": 209.70672607421875,
    "load": 412405,
    "rate": 8.531139371395112,
    "requestedRate": 8.315033761535757,
    "time": 51638
  },
  {
    "temp": 209.42605590820312,
    "load": 414592,
    "rate": 8.543112087249757,
    "requestedRate": 8.315033761535757,
    "time": 51845
  },
  {
    "temp": 209.1441192626953,
    "load": 416664,
    "rate": 8.509293057918548,
    "requestedRate": 8.315033761535757,
    "time": 52024
  },
  {
    "temp": 208.85107421875,
    "load": 414851,
    "rate": 8.510569596290589,
    "requestedRate": 8.315033761535757,
    "time": 52219
  },
  {
    "temp": 208.5612030029297,
    "load": 419602,
    "rate": 8.455328299999238,
    "requestedRate": 8.315033761535757,
    "time": 52405
  },
  {
    "temp": 208.2451934814453,
    "load": 422825,
    "rate": 8.562294473648072,
    "requestedRate": 8.315033761535757,
    "time": 52561
  },
  {
    "temp": 208.10299682617188,
    "load": 425303,
    "rate": 8.588311750888824,
    "requestedRate": 8.315033761535757,
    "time": 52753
  },
  {
    "temp": 207.8061065673828,
    "load": 425223,
    "rate": 8.622843389511107,
    "requestedRate": 8.315033761535757,
    "time": 52936
  },
  {
    "temp": 207.5240020751953,
    "load": 425731,
    "rate": 8.644371228218079,
    "requestedRate": 8.315033761535757,
    "time": 53125
  },
  {
    "temp": 207.2513427734375,
    "load": 426852,
    "rate": 8.608588564395905,
    "requestedRate": 8.315033761535757,
    "time": 53312
  },
  {
    "temp": 206.9847412109375,
    "load": 427220,
    "rate": 8.520078971385956,
    "requestedRate": 8.315033761535757,
    "time": 53529
  },
  {
    "temp": 206.709228515625,
    "load": 427068,
    "rate": 8.472944705486297,
    "requestedRate": 8.315033761535757,
    "time": 53720
  },
  {
    "temp": 206.42799377441406,
    "load": 428915,
    "rate": 8.43670280456543,
    "requestedRate": 8.315033761535757,
    "time": 53918
  },
  {
    "temp": 206.13031005859375,
    "load": 439354,
    "rate": 8.472342946529388,
    "requestedRate": 8.315033761535757,
    "time": 54105
  },
  {
    "temp": 205.84768676757812,
    "load": 445914,
    "rate": 8.610209090709686,
    "requestedRate": 8.315033761535757,
    "time": 54275
  },
  {
    "temp": 205.72445678710938,
    "load": 445524,
    "rate": 8.609671554565429,
    "requestedRate": 8.315033761535757,
    "time": 54467
  },
  {
    "temp": 205.45489501953125,
    "load": 444842,
    "rate": 8.594295909404755,
    "requestedRate": 8.315033761535757,
    "time": 54657
  },
  {
    "temp": 205.177490234375,
    "load": 452599,
    "rate": 8.504622387886048,
    "requestedRate": 8.315033761535757,
    "time": 54843
  },
  {
    "temp": 204.8694610595703,
    "load": 459971,
    "rate": 8.499771366119385,
    "requestedRate": 8.315033761535757,
    "time": 55046
  },
  {
    "temp": 204.58023071289062,
    "load": 454713,
    "rate": 8.582989175319671,
    "requestedRate": 8.315033761535757,
    "time": 55235
  },
  {
    "temp": 204.30300903320312,
    "load": 455813,
    "rate": 8.560057232379913,
    "requestedRate": 8.315033761535757,
    "time": 55406
  },
  {
    "temp": 204.14332580566406,
    "load": 461867,
    "rate": 8.509266664981842,
    "requestedRate": 8.315033761535757,
    "time": 55571
  },
  {
    "temp": 203.8391876220703,
    "load": 461011,
    "rate": 8.569706490039826,
    "requestedRate": 8.315033761535757,
    "time": 55750
  },
  {
    "temp": 203.5421905517578,
    "load": 456828,
    "rate": 8.710336854457855,
    "requestedRate": 8.315033761535757,
    "time": 55928
  },
  {
    "temp": 203.24977111816406,
    "load": 458066,
    "rate": 8.635829594135284,
    "requestedRate": 8.315033761535757,
    "time": 56111
  },
  {
    "temp": 202.95005798339844,
    "load": 462153,
    "rate": 8.554176886081695,
    "requestedRate": 8.315033761535757,
    "time": 56295
  },
  {
    "temp": 202.7923126220703,
    "load": 458671,
    "rate": 8.530005354881286,
    "requestedRate": 8.315033761535757,
    "time": 56509
  },
  {
    "temp": 202.4602813720703,
    "load": 459030,
    "rate": 8.543271324634551,
    "requestedRate": 8.315033761535757,
    "time": 56697
  },
  {
    "temp": 202.1173095703125,
    "load": 471088,
    "rate": 8.501536173820496,
    "requestedRate": 8.315033761535757,
    "time": 56886
  },
  {
    "temp": 201.80569458007812,
    "load": 476343,
    "rate": 8.432047090530395,
    "requestedRate": 8.315033761535757,
    "time": 57059
  },
  {
    "temp": 201.4732208251953,
    "load": 474966,
    "rate": 8.483741176128387,
    "requestedRate": 8.315033761535757,
    "time": 57236
  },
  {
    "temp": 201.1299591064453,
    "load": 474365,
    "rate": 8.564236993789672,
    "requestedRate": 8.315033761535757,
    "time": 57441
  },
  {
    "temp": 200.8053741455078,
    "load": 479212,
    "rate": 8.63519528388977,
    "requestedRate": 8.315033761535757,
    "time": 57633
  },
  {
    "temp": 200.50205993652344,
    "load": 481732,
    "rate": 8.612198238372802,
    "requestedRate": 8.315033761535757,
    "time": 57805
  },
  {
    "temp": 200.1967010498047,
    "load": 480390,
    "rate": 8.523239965438842,
    "requestedRate": 8.315033761535757,
    "time": 58016
  },
  {
    "temp": 200.0528564453125,
    "load": 481345,
    "rate": 8.49193882226944,
    "requestedRate": 8.315033761535757,
    "time": 58211
  },
  {
    "temp": 199.73106384277344,
    "load": 485029,
    "rate": 8.447851181030273,
    "requestedRate": 8.315033761535757,
    "time": 58391
  },
  {
    "temp": 199.45140075683594,
    "load": 484610,
    "rate": 8.504563443660736,
    "requestedRate": 8.315033761535757,
    "time": 58568
  },
  {
    "temp": 199.1659698486328,
    "load": 486099,
    "rate": 8.554771606922149,
    "requestedRate": 8.315033761535757,
    "time": 58759
  },
  {
    "temp": 198.8788604736328,
    "load": 486867,
    "rate": 8.503975760936736,
    "requestedRate": 8.315033761535757,
    "time": 58944
  },
  {
    "temp": 198.6111602783203,
    "load": 484698,
    "rate": 8.504379572868347,
    "requestedRate": 8.315033761535757,
    "time": 59148
  },
  {
    "temp": 198.3333740234375,
    "load": 486881,
    "rate": 8.42063390493393,
    "requestedRate": 8.315033761535757,
    "time": 59350
  },
  {
    "temp": 198.08189392089844,
    "load": 496450,
    "rate": 8.541414141654968,
    "requestedRate": 8.315033761535757,
    "time": 59545
  },
  {
    "temp": 197.81651306152344,
    "load": 494950,
    "rate": 8.526412396430969,
    "requestedRate": 8.315033761535757,
    "time": 59751
  },
  {
    "temp": 197.56272888183594,
    "load": 498176,
    "rate": 8.473957314491273,
    "requestedRate": 8.315033761535757,
    "time": 59934
  },
  {
    "temp": 197.29383850097656,
    "load": 500953,
    "rate": 8.435670840740205,
    "requestedRate": 8.315033761535757,
    "time": 60124
  },
  {
    "temp": 197.03781127929688,
    "load": 494934,
    "rate": 8.51534143924713,
    "requestedRate": 8.315033761535757,
    "time": 60322
  },
  {
    "temp": 196.91151428222656,
    "load": 481157,
    "rate": 8.64057504415512,
    "requestedRate": 8.315033761535757,
    "time": 60518
  },
  {
    "temp": 196.65594482421875,
    "load": 464429,
    "rate": 8.649850401878357,
    "requestedRate": 8.315033761535757,
    "time": 60703
  },
  {
    "temp": 196.37771606445312,
    "load": 442616,
    "rate": 8.62966596364975,
    "requestedRate": 8.315033761535757,
    "time": 60890
  },
  {
    "temp": 196.1259307861328,
    "load": 413161,
    "rate": 8.548896539211274,
    "requestedRate": 8.315033761535757,
    "time": 61101
  },
  {
    "temp": 195.8665313720703,
    "load": 364758,
    "rate": 8.623095002174377,
    "requestedRate": 8.315033761535757,
    "time": 61281
  },
  {
    "temp": 195.6186065673828,
    "load": 309656,
    "rate": 8.54858686208725,
    "requestedRate": 8.315033761535757,
    "time": 61465
  },
  {
    "temp": 195.3657684326172,
    "load": 268420,
    "rate": 8.525952279567719,
    "requestedRate": 8.315033761535757,
    "time": 61649
  }
]