[
  {
    "temp": 288.1997375488281,
    "load": 134013,
    "rate": 11.533353517055511,
    "requestedRate": 10.393792201919696,
    "time": 55
  },
  {
    "temp": 288.0668029785156,
    "load": 164164,
    "rate": 11.408194692134858,
    "requestedRate": 10.393792201919696,
    "time": 190
  },
  {
    "temp": 287.8753662109375,
    "load": 182995,
    "rate": 11.423682067394257,
    "requestedRate": 10.393792201919696,
    "time": 360
  },
  {
    "temp": 287.8072814941406,
    "load": 190762,
    "rate": 11.540307176113128,
    "requestedRate": 10.393792201919696,
    "time": 548
  },
  {
    "temp": 287.7092590332031,
    "load": 190514,
    "rate": 11.465001089572906,
    "requestedRate": 10.393792201919696,
    "time": 727
  },
  {
    "temp": 287.6465148925781,
    "load": 177422,
    "rate": 11.390886204242706,
    "requestedRate": 10.393792201919696,
    "time": 905
  },
  {
    "temp": 287.5639953613281,
    "load": 179268,
    "rate": 11.375466570854186,
    "requestedRate": 10.393792201919696,
    "time": 1094
  },
  {
    "temp": 287.31634521484375,
    "load": 180813,
    "rate": 11.346720263957977,
    "requestedRate": 10.393792201919696,
    "time": 1257
  },
  {
    "temp": 287.1906433105469,
    "load": 176923,
    "rate": 11.385329611301422,
    "requestedRate": 10.393792201919696,
    "time": 1431
  },
  {
    "temp": 287.0096435546875,
    "load": 179898,
    "rate": 11.428900830745697,
    "requestedRate": 10.393792201919696,
    "time": 1592
  },
  {
    "temp": 286.893798828125,
    "load": 183214,
    "rate": 11.668907639980317,
    "requestedRate": 10.393792201919696,
    "time": 1792
  },
  {
    "temp": 286.85260009765625,
    "load": 189653,
    "rate": 11.679011735916138,
    "requestedRate": 10.393792201919696,
    "time": 1971
  },
  {
    "temp": 286.70855712890625,
    "load": 194188,
    "rate": 11.722619905471802,
    "requestedRate": 10.393792201919696,
    "time": 2139
  },
  {
    "temp": 286.4638977050781,
    "load": 194897,
    "rate": 11.619916191101074,
    "requestedRate": 10.393792201919696,
    "time": 2319
  },
  {
    "temp": 286.2395324707031,
    "load": 198384,
    "rate": 11.491063234806061,
    "requestedRate": 10.393792201919696,
    "time": 2501
  },
  {
    "temp": 286.095947265625,
    "load": 201594,
    "rate": 11.509848847389222,
    "requestedRate": 10.393792201919696,
    "time": 2691
  },
  {
    "temp": 286.0448913574219,
    "load": 202202,
    "rate": 11.520963792800902,
    "requestedRate": 10.393792201919696,
    "time": 2878
  },
  {
    "temp": 285.7341613769531,
    "load": 202784,
    "rate": 11.465710179805756,
    "requestedRate": 10.393792201919696,
    "time": 3049
  },
  {
    "temp": 285.467529296875,
    "load": 204226,
    "rate": 11.413224306106567,
    "requestedRate": 10.393792201919696,
    "time": 3248
  },
  {
    "temp": 285.296875,
    "load": 202942,
    "rate": 11.385534596443176,
    "requestedRate": 10.393792201919696,
    "time": 3425
  },
  {
    "temp": 285.1029357910156,
    "load": 205064,
    "rate": 11.31638070344925,
    "requestedRate": 10.393792201919696,
    "time": 3613
  },
  {
    "temp": 284.79241943359375,
    "load": 206556,
    "rate": 11.360575675964355,
    "requestedRate": 10.393792201919696,
    "time": 3798
  },
  {
    "temp": 284.6631774902344,
    "load": 206595,
    "rate": 11.510001926422119,
    "requestedRate": 10.393792201919696,
    "time": 4011
  },
  {
    "temp": 284.3262023925781,
    "load": 206745,
    "rate": 11.834067599773407,
    "requestedRate": 10.393792201919696,
    "time": 4205
  },
  {
    "temp": 284.12078857421875,
    "load": 208207,
    "rate": 11.712346894741058,
    "requestedRate": 10.393792201919696,
    "time": 4388
  },
  {
    "temp": 283.8249816894531,
    "load": 208072,
    "rate": 11.613440244197845,
    "requestedRate": 10.393792201919696,
    "time": 4559
  },
  {
    "temp": 283.6356506347656,
    "load": 208706,
    "rate": 11.55500628232956,
    "requestedRate": 10.393792201919696,
    "time": 4741
  },
  {
    "temp": 283.27728271484375,
    "load": 210856,
    "rate": 11.494086105823516,
    "requestedRate": 10.393792201919696,
    "time": 4910
  },
  {
    "temp": 283.1122131347656,
    "load": 211918,
    "rate": 11.557064051628112,
    "requestedRate": 10.393792201919696,
    "time": 5080
  },
  {
    "temp": 282.8321533203125,
    "load": 209546,
    "rate": 11.521956167221068,
    "requestedRate": 10.393792201919696,
    "time": 5268
  },
  {
    "temp": 282.3902893066406,
    "load": 205854,
    "rate": 11.469948005676269,
    "requestedRate": 10.393792201919696,
    "time": 5449
  },
  {
    "temp": 282.10748291015625,
    "load": 204811,
    "rate": 11.46479698419571,
    "requestedRate": 10.393792201919696,
    "time": 5609
  },
  {
    "temp": 281.9222106933594,
    "load": 204837,
    "rate": 11.477398731708526,
    "requestedRate": 10.393792201919696,
    "time": 5801
  },
  {
    "temp": 281.5029296875,
    "load": 206307,
    "rate": 11.437511966228485,
    "requestedRate": 10.393792201919696,
    "time": 5980
  },
  {
    "temp": 281.2345886230469,
    "load": 206756,
    "rate": 11.512743272781371,
    "requestedRate": 10.393792201919696,
    "time": 6180
  },
  {
    "temp": 280.7665100097656,
    "load": 209737,
    "rate": 11.762495234012604,
    "requestedRate": 10.393792201919696,
    "time": 6365
  },
  {
    "temp": 280.4669189453125,
    "load": 208314,
    "rate": 11.775705778598786,
    "requestedRate": 10.393792201919696,
    "time": 6544
  },
  {
    "temp": 280.0765075683594,
    "load": 210895,
    "rate": 11.696654534339904,
    "requestedRate": 10.393792201919696,
    "time": 6736
  },
  {
    "temp": 279.92388916015625,
    "load": 214339,
    "rate": 11.603520898818969,
    "requestedRate": 10.393792201919696,
    "time": 6904
  },
  {
    "temp": 279.6420593261719,
    "load": 213601,
    "rate": 11.512580516338348,
    "requestedRate": 10.393792201919696,
    "time": 7080
  },
  {
    "temp": 279.3002624511719,
    "load": 213963,
    "rate": 11.549395143985748,
    "requestedRate": 10.393792201919696,
    "time": 7271
  },
  {
    "temp": 278.9883728027344,
    "load": 214469,
    "rate": 11.509923627376557,
    "requestedRate": 10.393792201919696,
    "time": 7453
  },
  {
    "temp": 278.65838623046875,
    "load": 217336,
    "rate": 11.377427566051484,
    "requestedRate": 10.393792201919696,
    "time": 7636
  },
  {
    "temp": 278.3540344238281,
    "load": 219921,
    "rate": 11.430463292598724,
    "requestedRate": 10.393792201919696,
    "time": 7827
  },
  {
    "temp": 278.17340087890625,
    "load": 220866,
    "rate": 11.405509650707245,
    "requestedRate": 10.393792201919696,
    "time": 8007
  },
  {
    "temp": 277.9132995605469,
    "load": 222620,
    "rate": 11.373739593029022,
    "requestedRate": 10.393792201919696,
    "time": 8183
  },
  {
    "temp": 277.5232849121094,
    "load": 222519,
    "rate": 11.563951728343964,
    "requestedRate": 10.393792201919696,
    "time": 8395
  },
  {
    "temp": 277.21160888671875,
    "load": 221334,
    "rate": 11.686931376457213,
    "requestedRate": 10.393792201919696,
    "time": 8580
  },
  {
    "temp": 276.8507080078125,
    "load": 220664,
    "rate": 11.728677084445954,
    "requestedRate": 10.393792201919696,
    "time": 8764
  },
  {
    "temp": 276.6197204589844,
    "load": 218763,
    "rate": 11.683678007125854,
    "requestedRate": 10.393792201919696,
    "time": 8938
  },
  {
    "temp": 276.4134216308594,
    "load": 216969,
    "rate": 11.637006497383117,
    "requestedRate": 10.393792201919696,
    "time": 9128
  },
  {
    "temp": 276.1163330078125,
    "load": 216202,
    "rate": 11.461272647380829,
    "requestedRate": 10.393792201919696,
    "time": 9284
  },
  {
    "temp": 275.70269775390625,
    "load": 215831,
    "rate": 11.43135449409485,
    "requestedRate": 10.393792201919696,
    "time": 9478
  },
  {
    "temp": 275.3758850097656,
    "load": 213487,
    "rate": 11.535595157146453,
    "requestedRate": 10.393792201919696,
    "time": 9663
  },
  {
    "temp": 275.0052795410156,
    "load": 217164,
    "rate": 11.506445918083191,
    "requestedRate": 10.393792201919696,
    "time": 9867
  },
  {
    "temp": 274.5942687988281,
    "load": 223356,
    "rate": 11.414261548519134,
    "requestedRate": 10.393792201919696,
    "time": 10036
  },
  {
    "temp": 274.4205322265625,
    "load": 226324,
    "rate": 11.37500821352005,
    "requestedRate": 10.393792201919696,
    "time": 10216
  },
  {
    "temp": 274.046142578125,
    "load": 227803,
    "rate": 11.396783266067505,
    "requestedRate": 10.393792201919696,
    "time": 10397
  },
  {
    "temp": 273.70721435546875,
    "load": 229391,
    "rate": 11.488810157775879,
    "requestedRate": 10.393792201919696,
    "time": 10582
  },
  {
    "temp": 273.2916259765625,
    "load": 231255,
    "rate": 11.592798328399658,
    "requestedRate": 10.393792201919696,
    "time": 10763
  },
  {
    "temp": 273.13006591796875,
    "load": 230334,
    "rate": 11.781305480003358,
    "requestedRate": 10.393792201919696,
    "time": 10937
  },
  {
    "temp": 272.7794494628906,
    "load": 230552,
    "rate": 11.665861015319823,
    "requestedRate": 10.393792201919696,
    "time": 11129
  },
  {
    "temp": 272.41845703125,
    "load": 230385,
    "rate": 11.646913526058198,
    "requestedRate": 10.393792201919696,
    "time": 11326
  },
  {
    "temp": 271.9949951171875,
    "load": 231363,
    "rate": 11.520706021785736,
    "requestedRate": 10.393792201919696,
    "time": 11508
  },
  {
    "temp": 271.5749206542969,
    "load": 231741,
    "rate": 11.488927166461945,
    "requestedRate": 10.393792201919696,
    "time": 11680
  },
  {
    "temp": 271.3841857910156,
    "load": 232962,
    "rate": 11.489740068912505,
    "requestedRate": 10.393792201919696,
    "time": 11845
  },
  {
    "temp": 271.0163879394531,
    "load": 235014,
    "rate": 11.476257677078246,
    "requestedRate": 10.393792201919696,
    "time": 12015
  },
  {
    "temp": 270.6506042480469,
    "load": 237632,
    "rate": 11.387192072868347,
    "requestedRate": 10.393792201919696,
    "time": 12188
  },
  {
    "temp": 270.24267578125,
    "load": 240365,
    "rate": 11.232470519542694,
    "requestedRate": 10.393792201919696,
    "time": 12358
  },
  {
    "temp": 270.0700378417969,
    "load": 239361,
    "rate": 11.443814599514008,
    "requestedRate": 10.393792201919696,
    "time": 12543
  },
  {
    "temp": 269.62274169921875,
    "load": 239389,
    "rate": 11.463546838760376,
    "requestedRate": 10.393792201919696,
    "time": 12729
  },
  {
    "temp": 269.24957275390625,
    "load": 237404,
    "rate": 11.57667488336563,
    "requestedRate": 10.393792201919696,
    "time": 12909
  },
  {
    "temp": 268.84930419921875,
    "load": 240987,
    "rate": 11.677429919242858,
    "requestedRate": 10.393792201919696,
    "time": 13099
  },
  {
    "temp": 268.6138610839844,
    "load": 244011,
    "rate": 11.761467669010162,
    "requestedRate": 10.393792201919696,
    "time": 13253
  },
  {
    "temp": 268.26861572265625,
    "load": 249315,
    "rate": 11.656233751773835,
    "requestedRate": 10.393792201919696,
    "time": 13446
  },
  {
    "temp": 267.8738098144531,
    "load": 252880,
    "rate": 11.52572331905365,
    "requestedRate": 10.393792201919696,
    "time": 13628
  },
  {
    "temp": 267.459716796875,
    "load": 255089,
    "rate": 11.454492301940919,
    "requestedRate": 10.393792201919696,
    "time": 13822
  },
  {
    "temp": 267.0332336425781,
    "load": 256548,
    "rate": 11.43090229511261,
    "requestedRate": 10.393792201919696,
    "time": 13994
  },
  {
    "temp": 266.7574157714844,
    "load": 255910,
    "rate": 11.471979382038116,
    "requestedRate": 10.393792201919696,
    "time": 14153
  },
  {
    "temp": 266.3602600097656,
    "load": 254072,
    "rate": 11.455778517723083,
    "requestedRate": 10.393792201919696,
    "time": 14323
  },
  {
    "temp": 265.90740966796875,
    "load": 254138,
    "rate": 11.422612273693085,
    "requestedRate": 10.393792201919696,
    "time": 14499
  },
  {
    "temp": 265.73260498046875,
    "load": 256255,
    "rate": 11.364685056209565,
    "requestedRate": 10.393792201919696,
    "time": 14700
  },
  {
    "temp": 265.2573547363281,
    "load": 259229,
    "rate": 11.388087673187256,
    "requestedRate": 10.393792201919696,
    "time": 14874
  },
  {
    "temp": 264.7793273925781,
    "load": 260228,
    "rate": 11.481174681186676,
    "requestedRate": 10.393792201919696,
    "time": 15038
  },
  {
    "temp": 264.299560546875,
    "load": 260447,
    "rate": 11.517954998016357,
    "requestedRate": 10.393792201919696,
    "time": 15233
  },
  {
    "temp": 263.86212158203125,
    "load": 258547,
    "rate": 11.743780002593994,
    "requestedRate": 10.393792201919696,
    "time": 15416
  },
  {
    "temp": 263.38970947265625,
    "load": 259418,
    "rate": 11.779182608127593,
    "requestedRate": 10.393792201919696,
    "time": 15595
  },
  {
    "temp": 263.22174072265625,
    "load": 264798,
    "rate": 11.6916513133049,
    "requestedRate": 10.393792201919696,
    "time": 15788
  },
  {
    "temp": 262.7563171386719,
    "load": 268315,
    "rate": 11.65734753370285,
    "requestedRate": 10.393792201919696,
    "time": 15976
  },
  {
    "temp": 262.2846374511719,
    "load": 270820,
    "rate": 11.465074989795685,
    "requestedRate": 10.393792201919696,
    "time": 16148
  },
  {
    "temp": 261.80889892578125,
    "load": 273531,
    "rate": 11.391868901252746,
    "requestedRate": 10.393792201919696,
    "time": 16324
  },
  {
    "temp": 261.5845642089844,
    "load": 273768,
    "rate": 11.471232461929322,
    "requestedRate": 10.393792201919696,
    "time": 16496
  },
  {
    "temp": 261.1373291015625,
    "load": 269039,
    "rate": 11.41649087190628,
    "requestedRate": 10.393792201919696,
    "time": 16669
  },
  {
    "temp": 260.7044372558594,
    "load": 266062,
    "rate": 11.367653381824493,
    "requestedRate": 10.393792201919696,
    "time": 16813
  },
  {
    "temp": 260.4821472167969,
    "load": 271952,
    "rate": 11.37226334810257,
    "requestedRate": 10.393792201919696,
    "time": 16984
  },
  {
    "temp": 260.0937194824219,
    "load": 277016,
    "rate": 11.332005321979523,
    "requestedRate": 10.393792201919696,
    "time": 17176
  },
  {
    "temp": 259.7494201660156,
    "load": 277710,
    "rate": 11.411338970661163,
    "requestedRate": 10.393792201919696,
    "time": 17360
  },
  {
    "temp": 259.36505126953125,
    "load": 275264,
    "rate": 11.648642263412475,
    "requestedRate": 10.393792201919696,
    "time": 17542
  },
  {
    "temp": 259.00970458984375,
    "load": 274833,
    "rate": 11.67657654762268,
    "requestedRate": 10.393792201919696,
    "time": 17730
  },
  {
    "temp": 258.85296630859375,
    "load": 274833,
    "rate": 11.688786799907684,
    "requestedRate": 10.393792201919696,
    "time": 17919
  },
  {
    "temp": 258.4632263183594,
    "load": 282669,
    "rate": 11.723178555965424,
    "requestedRate": 10.393792201919696,
    "time": 18125
  },
  {
    "temp": 258.1226501464844,
    "load": 283241,
    "rate": 11.558381059169768,
    "requestedRate": 10.393792201919696,
    "time": 18284
  },
  {
    "temp": 257.7634582519531,
    "load": 284386,
    "rate": 11.421268873214721,
    "requestedRate": 10.393792201919696,
    "time": 18472
  },
  {
    "temp": 257.4378662109375,
    "load": 284840,
    "rate": 11.36707801580429,
    "requestedRate": 10.393792201919696,
    "time": 18656
  },
  {
    "temp": 257.0654602050781,
    "load": 284367,
    "rate": 11.423191158771514,
    "requestedRate": 10.393792201919696,
    "time": 18833
  },
  {
    "temp": 256.8874816894531,
    "load": 283473,
    "rate": 11.43783835887909,
    "requestedRate": 10.393792201919696,
    "time": 19025
  },
  {
    "temp": 256.5491638183594,
    "load": 282101,
    "rate": 11.391651599407195,
    "requestedRate": 10.393792201919696,
    "time": 19214
  },
  {
    "temp": 256.1686096191406,
    "load": 281451,
    "rate": 11.323196239471436,
    "requestedRate": 10.393792201919696,
    "time": 19402
  },
  {
    "temp": 255.85670471191406,
    "load": 280798,
    "rate": 11.425435438156128,
    "requestedRate": 10.393792201919696,
    "time": 19609
  },
  {
    "temp": 255.4702606201172,
    "load": 282529,
    "rate": 11.46222983121872,
    "requestedRate": 10.393792201919696,
    "time": 19792
  },
  {
    "temp": 255.15000915527344,
    "load": 281786,
    "rate": 11.617871618270874,
    "requestedRate": 10.393792201919696,
    "time": 19972
  },
  {
    "temp": 254.79925537109375,
    "load": 285541,
    "rate": 11.676807045936584,
    "requestedRate": 10.393792201919696,
    "time": 20147
  },
  {
    "temp": 254.5732879638672,
    "load": 288345,
    "rate": 11.727946879863739,
    "requestedRate": 10.393792201919696,
    "time": 20305
  },
  {
    "temp": 254.15676879882812,
    "load": 293441,
    "rate": 11.570866677761078,
    "requestedRate": 10.393792201919696,
    "time": 20505
  },
  {
    "temp": 253.81729125976562,
    "load": 295696,
    "rate": 11.38787477016449,
    "requestedRate": 10.393792201919696,
    "time": 20701
  },
  {
    "temp": 253.4359893798828,
    "load": 294102,
    "rate": 11.345983901023864,
    "requestedRate": 10.393792201919696,
    "time": 20875
  },
  {
    "temp": 253.23207092285156,
    "load": 294918,
    "rate": 11.386997644901275,
    "requestedRate": 10.393792201919696,
    "time": 21025
  },
  {
    "temp": 252.8062744140625,
    "load": 297472,
    "rate": 11.380260407924652,
    "requestedRate": 10.393792201919696,
    "time": 21232
  },
  {
    "temp": 252.4608612060547,
    "load": 302564,
    "rate": 11.340203847885132,
    "requestedRate": 10.393792201919696,
    "time": 21425
  },
  {
    "temp": 252.07574462890625,
    "load": 306650,
    "rate": 11.328508257865906,
    "requestedRate": 10.393792201919696,
    "time": 21590
  },
  {
    "temp": 251.6652374267578,
    "load": 307943,
    "rate": 11.329006204605102,
    "requestedRate": 10.393792201919696,
    "time": 21768
  },
  {
    "temp": 251.4965057373047,
    "load": 306548,
    "rate": 11.325102689266204,
    "requestedRate": 10.393792201919696,
    "time": 21940
  },
  {
    "temp": 251.1304931640625,
    "load": 305320,
    "rate": 11.549289572238923,
    "requestedRate": 10.393792201919696,
    "time": 22130
  },
  {
    "temp": 250.73220825195312,
    "load": 310072,
    "rate": 11.710437805652619,
    "requestedRate": 10.393792201919696,
    "time": 22349
  },
  {
    "temp": 250.3132781982422,
    "load": 314556,
    "rate": 11.683734312057496,
    "requestedRate": 10.393792201919696,
    "time": 22535
  },
  {
    "temp": 249.95401000976562,
    "load": 315748,
    "rate": 11.56327518939972,
    "requestedRate": 10.393792201919696,
    "time": 22702
  },
  {
    "temp": 249.56004333496094,
    "load": 318536,
    "rate": 11.445795829296111,
    "requestedRate": 10.393792201919696,
    "time": 22878
  },
  {
    "temp": 249.16665649414062,
    "load": 321128,
    "rate": 11.253046452999115,
    "requestedRate": 10.393792201919696,
    "time": 23082
  },
  {
    "temp": 248.97361755371094,
    "load": 323065,
    "rate": 11.429087340831757,
    "requestedRate": 10.393792201919696,
    "time": 23268
  },
  {
    "temp": 248.5680694580078,
    "load": 320347,
    "rate": 11.44099231481552,
    "requestedRate": 10.393792201919696,
    "time": 23451
  },
  {
    "temp": 248.20372009277344,
    "load": 317380,
    "rate": 11.38921025276184,
    "requestedRate": 10.393792201919696,
    "time": 23642
  },
  {
    "temp": 247.78370666503906,
    "load": 319742,
    "rate": 11.369138424396514,
    "requestedRate": 10.393792201919696,
    "time": 23846
  },
  {
    "temp": 247.3508758544922,
    "load": 321587,
    "rate": 11.364124646186829,
    "requestedRate": 10.393792201919696,
    "time": 24014
  },
  {
    "temp": 246.97817993164062,
    "load": 323817,
    "rate": 11.424046289920806,
    "requestedRate": 10.393792201919696,
    "time": 24224
  },
  {
    "temp": 246.59837341308594,
    "load": 329746,
    "rate": 11.521664085388183,
    "requestedRate": 10.393792201919696,
    "time": 24420
  },
  {
    "temp": 246.16848754882812,
    "load": 328249,
    "rate": 11.609884235858917,
    "requestedRate": 10.393792201919696,
    "time": 24612
  },
  {
    "temp": 245.7521209716797,
    "load": 330865,
    "rate": 11.645055463314057,
    "requestedRate": 10.393792201919696,
    "time": 24808
  },
  {
    "temp": 245.55850219726562,
    "load": 332194,
    "rate": 11.57023588657379,
    "requestedRate": 10.393792201919696,
    "time": 24985
  },
  {
    "temp": 245.17489624023438,
    "load": 333479,
    "rate": 11.360114679336547,
    "requestedRate": 10.393792201919696,
    "time": 25156
  },
  {
    "temp": 244.78814697265625,
    "load": 333755,
    "rate": 11.295443186759949,
    "requestedRate": 10.393792201919696,
    "time": 25338
  },
  {
    "temp": 244.37657165527344,
    "load": 333671,
    "rate": 11.39877857208252,
    "requestedRate": 10.393792201919696,
    "time": 25550
  },
  {
    "temp": 243.9491424560547,
    "load": 330910,
    "rate": 11.46136854171753,
    "requestedRate": 10.393792201919696,
    "time": 25752
  },
  {
    "temp": 243.52976989746094,
    "load": 334442,
    "rate": 11.404277980327606,
    "requestedRate": 10.393792201919696,
    "time": 25941
  },
  {
    "temp": 243.0973358154297,
    "load": 339082,
    "rate": 11.349304132461548,
    "requestedRate": 10.393792201919696,
    "time": 26170
  },
  {
    "temp": 242.69297790527344,
    "load": 338894,
    "rate": 11.380659821033477,
    "requestedRate": 10.393792201919696,
    "time": 26377
  },
  {
    "temp": 242.27015686035156,
    "load": 339543,
    "rate": 11.45671722650528,
    "requestedRate": 10.393792201919696,
    "time": 26550
  },
  {
    "temp": 241.85374450683594,
    "load": 340666,
    "rate": 11.499013667106627,
    "requestedRate": 10.393792201919696,
    "time": 26727
  },
  {
    "temp": 241.42320251464844,
    "load": 345155,
    "rate": 11.669828753471375,
    "requestedRate": 10.393792201919696,
    "time": 26935
  },
  {
    "temp": 240.98362731933594,
    "load": 356406,
    "rate": 11.556608333587647,
    "requestedRate": 10.393792201919696,
    "time": 27137
  },
  {
    "temp": 240.56195068359375,
    "load": 362685,
    "rate": 11.51969693183899,
    "requestedRate": 10.393792201919696,
    "time": 27315
  },
  {
    "temp": 240.3820343017578,
    "load": 361571,
    "rate": 11.410052754878997,
    "requestedRate": 10.393792201919696,
    "time": 27491
  },
  {
    "temp": 240.00146484375,
    "load": 359918,
    "rate": 11.2664426279068,
    "requestedRate": 10.393792201919696,
    "time": 27674
  },
  {
    "temp": 239.63644409179688,
    "load": 358985,
    "rate": 11.360048696994781,
    "requestedRate": 10.393792201919696,
    "time": 27867
  },
  {
    "temp": 239.2813720703125,
    "load": 356220,
    "rate": 11.412244248390198,
    "requestedRate": 10.393792201919696,
    "time": 28065
  },
  {
    "temp": 238.97312927246094,
    "load": 350905,
    "rate": 11.271483678817749,
    "requestedRate": 10.393792201919696,
    "time": 28258
  },
  {
    "temp": 238.6544189453125,
    "load": 356165,
    "rate": 11.420819313526154,
    "requestedRate": 10.393792201919696,
    "time": 28470
  },
  {
    "temp": 238.30198669433594,
    "load": 357685,
    "rate": 11.44270697593689,
    "requestedRate": 10.393792201919696,
    "time": 28671
  },
  {
    "temp": 237.9954376220703,
    "load": 359054,
    "rate": 11.449672071933746,
    "requestedRate": 10.393792201919696,
    "time": 28864
  },
  {
    "temp": 237.6777801513672,
    "load": 359905,
    "rate": 11.572227673530579,
    "requestedRate": 10.393792201919696,
    "time": 29071
  },
  {
    "temp": 237.33953857421875,
    "load": 364202,
    "rate": 11.701185321807861,
    "requestedRate": 10.393792201919696,
    "time": 29244
  },
  {
    "temp": 237.19677734375,
    "load": 372421,
    "rate": 11.673728749752044,
    "requestedRate": 10.393792201919696,
    "time": 29411
  },
  {
    "temp": 236.86973571777344,
    "load": 379363,
    "rate": 11.469256510734558,
    "requestedRate": 10.393792201919696,
    "time": 29582
  },
  {
    "temp": 236.53897094726562,
    "load": 382822,
    "rate": 11.382137825489044,
    "requestedRate": 10.393792201919696,
    "time": 29767
  },
  {
    "temp": 236.18894958496094,
    "load": 385674,
    "rate": 11.25681800365448,
    "requestedRate": 10.393792201919696,
    "time": 29955
  },
  {
    "temp": 236.00637817382812,
    "load": 372789,
    "rate": 11.296118845939636,
    "requestedRate": 10.393792201919696,
    "time": 30148
  },
  {
    "temp": 235.4178924560547,
    "load": 366107,
    "rate": 11.379925217628479,
    "requestedRate": 10.393792201919696,
    "time": 30342
  },
  {
    "temp": 235.2545928955078,
    "load": 368568,
    "rate": 11.307008571624756,
    "requestedRate": 10.393792201919696,
    "time": 30529
  },
  {
    "temp": 234.89794921875,
    "load": 369445,
    "rate": 11.303890686035157,
    "requestedRate": 10.393792201919696,
    "time": 30718
  },
  {
    "temp": 234.56175231933594,
    "load": 368856,
    "rate": 11.383187384605408,
    "requestedRate": 10.393792201919696,
    "time": 30910
  },
  {
    "temp": 234.22511291503906,
    "load": 372061,
    "rate": 11.4035169839859,
    "requestedRate": 10.393792201919696,
    "time": 31081
  },
  {
    "temp": 233.87469482421875,
    "load": 371789,
    "rate": 11.479858553409576,
    "requestedRate": 10.393792201919696,
    "time": 31235
  },
  {
    "temp": 233.68263244628906,
    "load": 375194,
    "rate": 11.641612064838409,
    "requestedRate": 10.393792201919696,
    "time": 31406
  },
  {
    "temp": 233.35543823242188,
    "load": 374376,
    "rate": 11.617793319225312,
    "requestedRate": 10.393792201919696,
    "time": 31577
  },
  {
    "temp": 233.00770568847656,
    "load": 394873,
    "rate": 11.573242042064667,
    "requestedRate": 10.393792201919696,
    "time": 31762
  },
  {
    "temp": 232.6636962890625,
    "load": 409219,
    "rate": 11.362708225250245,
    "requestedRate": 10.393792201919696,
    "time": 31952
  },
  {
    "temp": 232.5113983154297,
    "load": 416046,
    "rate": 11.291770169734955,
    "requestedRate": 10.393792201919696,
    "time": 32150
  },
  {
    "temp": 232.15374755859375,
    "load": 405358,
    "rate": 11.206181395053864,
    "requestedRate": 10.393792201919696,
    "time": 32342
  },
  {
    "temp": 231.78651428222656,
    "load": 399940,
    "rate": 11.30373144865036,
    "requestedRate": 10.393792201919696,
    "time": 32535
  },
  {
    "temp": 231.3962860107422,
    "load": 400414,
    "rate": 11.337188894748687,
    "requestedRate": 10.393792201919696,
    "time": 32712
  },
  {
    "temp": 231.0419464111328,
    "load": 395047,
    "rate": 11.315629384517669,
    "requestedRate": 10.393792201919696,
    "time": 32887
  },
  {
    "temp": 230.6768341064453,
    "load": 397079,
    "rate": 11.370455431938172,
    "requestedRate": 10.393792201919696,
    "time": 33073
  },
  {
    "temp": 230.51702880859375,
    "load": 401018,
    "rate": 11.336385669708251,
    "requestedRate": 10.393792201919696,
    "time": 33254
  },
  {
    "temp": 230.1654510498047,
    "load": 401939,
    "rate": 11.404294695854187,
    "requestedRate": 10.393792201919696,
    "time": 33457
  },
  {
    "temp": 229.8189697265625,
    "load": 406863,
    "rate": 11.553711268901825,
    "requestedRate": 10.393792201919696,
    "time": 33633
  },
  {
    "temp": 229.45887756347656,
    "load": 418684,
    "rate": 11.624784808158875,
    "requestedRate": 10.393792201919696,
    "time": 33828
  },
  {
    "temp": 229.10696411132812,
    "load": 428884,
    "rate": 11.503464395999908,
    "requestedRate": 10.393792201919696,
    "time": 33992
  },
  {
    "temp": 228.76026916503906,
    "load": 433323,
    "rate": 11.42663807630539,
    "requestedRate": 10.393792201919696,
    "time": 34186
  },
  {
    "temp": 228.5789031982422,
    "load": 435168,
    "rate": 11.306048748493195,
    "requestedRate": 10.393792201919696,
    "time": 34378
  },
  {
    "temp": 228.20974731445312,
    "load": 426412,
    "rate": 11.208863797187805,
    "requestedRate": 10.393792201919696,
    "time": 34558
  },
  {
    "temp": 227.83853149414062,
    "load": 422400,
    "rate": 11.237808051109313,
    "requestedRate": 10.393792201919696,
    "time": 34745
  },
  {
    "temp": 227.4794921875,
    "load": 415805,
    "rate": 11.321190376281738,
    "requestedRate": 10.393792201919696,
    "time": 34944
  },
  {
    "temp": 227.12823486328125,
    "load": 418141,
    "rate": 11.321276593208314,
    "requestedRate": 10.393792201919696,
    "time": 35144
  },
  {
    "temp": 226.78196716308594,
    "load": 415653,
    "rate": 11.387025797367096,
    "requestedRate": 10.393792201919696,
    "time": 35326
  },
  {
    "temp": 226.3883056640625,
    "load": 408295,
    "rate": 11.402504374980927,
    "requestedRate": 10.393792201919696,
    "time": 35491
  },
  {
    "temp": 226.20895385742188,
    "load": 411558,
    "rate": 11.330908255577087,
    "requestedRate": 10.393792201919696,
    "time": 35684
  },
  {
    "temp": 225.85623168945312,
    "load": 418749,
    "rate": 11.431862998008729,
    "requestedRate": 10.393792201919696,
    "time": 35874
  },
  {
    "temp": 225.48204040527344,
    "load": 433586,
    "rate": 11.628809731006623,
    "requestedRate": 10.393792201919696,
    "time": 36057
  },
  {
    "temp": 225.10421752929688,
    "load": 441306,
    "rate": 11.561544692516327,
    "requestedRate": 10.393792201919696,
    "time": 36225
  },
  {
    "temp": 224.6903533935547,
    "load": 452789,
    "rate": 11.423072390556335,
    "requestedRate": 10.393792201919696,
    "time": 36398
  },
  {
    "temp": 224.51321411132812,
    "load": 460896,
    "rate": 11.321614422798156,
    "requestedRate": 10.393792201919696,
    "time": 36569
  },
  {
    "temp": 224.13665771484375,
    "load": 455137,
    "rate": 11.243621535301209,
    "requestedRate": 10.393792201919696,
    "time": 36757
  },
  {
    "temp": 223.75732421875,
    "load": 443980,
    "rate": 11.251292202472687,
    "requestedRate": 10.393792201919696,
    "time": 36939
  },
  {
    "temp": 223.40997314453125,
    "load": 438836,
    "rate": 11.290607120990753,
    "requestedRate": 10.393792201919696,
    "time": 37153
  },
  {
    "temp": 222.9987030029297,
    "load": 443580,
    "rate": 11.303269572257996,
    "requestedRate": 10.393792201919696,
    "time": 37331
  },
  {
    "temp": 222.61404418945312,
    "load": 451444,
    "rate": 11.294902131557464,
    "requestedRate": 10.393792201919696,
    "time": 37511
  },
  {
    "temp": 222.44728088378906,
    "load": 450036,
    "rate": 11.321581871509553,
    "requestedRate": 10.393792201919696,
    "time": 37708
  },
  {
    "temp": 222.08566284179688,
    "load": 448024,
    "rate": 11.326616764068604,
    "requestedRate": 10.393792201919696,
    "time": 37908
  },
  {
    "temp": 221.66531372070312,
    "load": 452308,
    "rate": 11.33536690235138,
    "requestedRate": 10.393792201919696,
    "time": 38098
  },
  {
    "temp": 221.2748260498047,
    "load": 464342,
    "rate": 11.469378798007964,
    "requestedRate": 10.393792201919696,
    "time": 38274
  },
  {
    "temp": 220.9034423828125,
    "load": 481963,
    "rate": 11.436481761932374,
    "requestedRate": 10.393792201919696,
    "time": 38458
  },
  {
    "temp": 220.53382873535156,
    "load": 487209,
    "rate": 11.417098789215087,
    "requestedRate": 10.393792201919696,
    "time": 38637
  },
  {
    "temp": 220.3388671875,
    "load": 491689,
    "rate": 11.31934023141861,
    "requestedRate": 10.393792201919696,
    "time": 38806
  },
  {
    "temp": 220.0069580078125,
    "load": 485793,
    "rate": 11.226203956604003,
    "requestedRate": 10.393792201919696,
    "time": 38971
  },
  {
    "temp": 219.69219970703125,
    "load": 477703,
    "rate": 11.173548288345337,
    "requestedRate": 10.393792201919696,
    "time": 39163
  },
  {
    "temp": 219.36793518066406,
    "load": 464140,
    "rate": 11.247674610614776,
    "requestedRate": 10.393792201919696,
    "time": 39334
  },
  {
    "temp": 219.20147705078125,
    "load": 457563,
    "rate": 11.285628533363342,
    "requestedRate": 10.393792201919696,
    "time": 39525
  },
  {
    "temp": 218.9105987548828,
    "load": 457871,
    "rate": 11.404744255542756,
    "requestedRate": 10.393792201919696,
    "time": 39734
  },
  {
    "temp": 218.60162353515625,
    "load": 465610,
    "rate": 11.373051617145538,
    "requestedRate": 10.393792201919696,
    "time": 39926
  },
  {
    "temp": 218.3015594482422,
    "load": 468827,
    "rate": 11.35727040052414,
    "requestedRate": 10.393792201919696,
    "time": 40124
  },
  {
    "temp": 217.97901916503906,
    "load": 471353,
    "rate": 11.320272781848907,
    "requestedRate": 10.393792201919696,
    "time": 40331
  },
  {
    "temp": 217.66770935058594,
    "load": 487632,
    "rate": 11.43219290971756,
    "requestedRate": 10.393792201919696,
    "time": 40503
  },
  {
    "temp": 217.37635803222656,
    "load": 499114,
    "rate": 11.480652101039887,
    "requestedRate": 10.393792201919696,
    "time": 40695
  },
  {
    "temp": 217.09779357910156,
    "load": 514523,
    "rate": 11.423704941272735,
    "requestedRate": 10.393792201919696,
    "time": 40884
  },
  {
    "temp": 216.78646850585938,
    "load": 518576,
    "rate": 11.335081858634949,
    "requestedRate": 10.393792201919696,
    "time": 41072
  },
  {
    "temp": 216.48231506347656,
    "load": 511321,
    "rate": 11.245866694450378,
    "requestedRate": 10.393792201919696,
    "time": 41232
  },
  {
    "temp": 216.33010864257812,
    "load": 489864,
    "rate": 11.13615653514862,
    "requestedRate": 10.393792201919696,
    "time": 41441
  },
  {
    "temp": 215.96766662597656,
    "load": 477302,
    "rate": 11.23494001865387,
    "requestedRate": 10.393792201919696,
    "time": 41657
  },
  {
    "temp": 215.60267639160156,
    "load": 480407,
    "rate": 11.332298283576964,
    "requestedRate": 10.393792201919696,
    "time": 41837
  },
  {
    "temp": 215.2744140625,
    "load": 485087,
    "rate": 11.39058532476425,
    "requestedRate": 10.393792201919696,
    "time": 41989
  },
  {
    "temp": 214.923583984375,
    "load": 489711,
    "rate": 11.37084516763687,
    "requestedRate": 10.393792201919696,
    "time": 42179
  },
  {
    "temp": 214.60696411132812,
    "load": 492198,
    "rate": 11.296893038749694,
    "requestedRate": 10.393792201919696,
    "time": 42366
  },
  {
    "temp": 214.4332733154297,
    "load": 494671,
    "rate": 11.306971621513366,
    "requestedRate": 10.393792201919696,
    "time": 42569
  },
  {
    "temp": 214.10894775390625,
    "load": 507696,
    "rate": 11.396998808383941,
    "requestedRate": 10.393792201919696,
    "time": 42756
  },
  {
    "temp": 213.8220672607422,
    "load": 518182,
    "rate": 11.43442927122116,
    "requestedRate": 10.393792201919696,
    "time": 42934
  },
  {
    "temp": 213.52333068847656,
    "load": 542532,
    "rate": 11.412195861339569,
    "requestedRate": 10.393792201919696,
    "time": 43109
  },
  {
    "temp": 213.2093505859375,
    "load": 549523,
    "rate": 11.345339033603668,
    "requestedRate": 10.393792201919696,
    "time": 43273
  },
  {
    "temp": 213.04653930664062,
    "load": 554158,
    "rate": 11.309124405384063,
    "requestedRate": 10.393792201919696,
    "time": 43450
  },
  {
    "temp": 212.730224609375,
    "load": 540787,
    "rate": 11.201340930461884,
    "requestedRate": 10.393792201919696,
    "time": 43623
  },
  {
    "temp": 212.38705444335938,
    "load": 521561,
    "rate": 11.138197588920594,
    "requestedRate": 10.393792201919696,
    "time": 43804
  },
  {
    "temp": 212.08811950683594,
    "load": 517081,
    "rate": 11.290888645648955,
    "requestedRate": 10.393792201919696,
    "time": 43985
  },
  {
    "temp": 211.9448699951172,
    "load": 518007,
    "rate": 11.33934871673584,
    "requestedRate": 10.393792201919696,
    "time": 44169
  },
  {
    "temp": 211.646484375,
    "load": 525706,
    "rate": 11.353532280921936,
    "requestedRate": 10.393792201919696,
    "time": 44335
  },
  {
    "temp": 211.312255859375,
    "load": 531564,
    "rate": 11.273691887855529,
    "requestedRate": 10.393792201919696,
    "time": 44527
  },
  {
    "temp": 211.00624084472656,
    "load": 527306,
    "rate": 11.31729565858841,
    "requestedRate": 10.393792201919696,
    "time": 44712
  },
  {
    "temp": 210.70803833007812,
    "load": 533597,
    "rate": 11.236579899787902,
    "requestedRate": 10.393792201919696,
    "time": 44895
  },
  {
    "temp": 210.38160705566406,
    "load": 553583,
    "rate": 11.22234179019928,
    "requestedRate": 10.393792201919696,
    "time": 45079
  },
  {
    "temp": 210.22146606445312,
    "load": 559697,
    "rate": 11.340115871429443,
    "requestedRate": 10.393792201919696,
    "time": 45289
  },
  {
    "temp": 209.9090118408203,
    "load": 580582,
    "rate": 11.371622879505157,
    "requestedRate": 10.393792201919696,
    "time": 45487
  },
  {
    "temp": 209.55552673339844,
    "load": 585335,
    "rate": 11.212264966964721,
    "requestedRate": 10.393792201919696,
    "time": 45675
  },
  {
    "temp": 209.23719787597656,
    "load": 578967,
    "rate": 11.263771662712097,
    "requestedRate": 10.393792201919696,
    "time": 45882
  },
  {
    "temp": 208.93112182617188,
    "load": 558195,
    "rate": 11.165666477680206,
    "requestedRate": 10.393792201919696,
    "time": 46063
  },
  {
    "temp": 208.59963989257812,
    "load": 547005,
    "rate": 11.175796966552735,
    "requestedRate": 10.393792201919696,
    "time": 46234
  },
  {
    "temp": 208.2570037841797,
    "load": 541524,
    "rate": 11.267473711967469,
    "requestedRate": 10.393792201919696,
    "time": 46419
  },
  {
    "temp": 207.94561767578125,
    "load": 553680,
    "rate": 11.258440289497376,
    "requestedRate": 10.393792201919696,
    "time": 46609
  },
  {
    "temp": 207.61328125,
    "load": 554860,
    "rate": 11.280660502910614,
    "requestedRate": 10.393792201919696,
    "time": 46801
  },
  {
    "temp": 207.25730895996094,
    "load": 559026,
    "rate": 11.284890410900116,
    "requestedRate": 10.393792201919696,
    "time": 47000
  },
  {
    "temp": 207.10800170898438,
    "load": 579497,
    "rate": 11.166992282867431,
    "requestedRate": 10.393792201919696,
    "time": 47172
  },
  {
    "temp": 206.74972534179688,
    "load": 591209,
    "rate": 11.160025427341461,
    "requestedRate": 10.393792201919696,
    "time": 47359
  },
  {
    "temp": 206.42832946777344,
    "load": 608027,
    "rate": 11.303464879989624,
    "requestedRate": 10.393792201919696,
    "time": 47531
  },
  {
    "temp": 206.08958435058594,
    "load": 612259,
    "rate": 11.338897397518158,
    "requestedRate": 10.393792201919696,
    "time": 47711
  },
  {
    "temp": 205.91798400878906,
    "load": 620312,
    "rate": 11.287525305747986,
    "requestedRate": 10.393792201919696,
    "time": 47892
  },
  {
    "temp": 205.6094512939453,
    "load": 605969,
    "rate": 11.227435626983642,
    "requestedRate": 10.393792201919696,
    "time": 48068
  },
  {
    "temp": 205.2764129638672,
    "load": 597131,
    "rate": 11.137915184497833,
    "requestedRate": 10.393792201919696,
    "time": 48248
  },
  {
    "temp": 204.94300842285156,
    "load": 587155,
    "rate": 11.18105092048645,
    "requestedRate": 10.393792201919696,
    "time": 48460
  },
  {
    "temp": 204.60682678222656,
    "load": 588314,
    "rate": 11.208291070461273,
    "requestedRate": 10.393792201919696,
    "time": 48672
  },
  {
    "temp": 204.2790985107422,
    "load": 614599,
    "rate": 11.354467470645904,
    "requestedRate": 10.393792201919696,
    "time": 48848
  },
  {
    "temp": 203.9260711669922,
    "load": 602666,
    "rate": 11.254549970626831,
    "requestedRate": 10.393792201919696,
    "time": 49029
  },
  {
    "temp": 203.59779357910156,
    "load": 607861,
    "rate": 11.184748570919037,
    "requestedRate": 10.393792201919696,
    "time": 49235
  },
  {
    "temp": 203.26487731933594,
    "load": 610238,
    "rate": 11.11839584827423,
    "requestedRate": 10.393792201919696,
    "time": 49425
  },
  {
    "temp": 203.09535217285156,
    "load": 633135,
    "rate": 11.138262691497802,
    "requestedRate": 10.393792201919696,
    "time": 49623
  },
  {
    "temp": 202.58839416503906,
    "load": 643922,
    "rate": 11.249383993148804,
    "requestedRate": 10.393792201919696,
    "time": 49835
  },
  {
    "temp": 202.40066528320312,
    "load": 630452,
    "rate": 11.272505965232849,
    "requestedRate": 10.393792201919696,
    "time": 50017
  },
  {
    "temp": 202.0586700439453,
    "load": 633784,
    "rate": 11.250708918571473,
    "requestedRate": 10.393792201919696,
    "time": 50216
  },
  {
    "temp": 201.70164489746094,
    "load": 628819,
    "rate": 11.192176423072814,
    "requestedRate": 10.393792201919696,
    "time": 50411
  },
  {
    "temp": 201.35545349121094,
    "load": 630827,
    "rate": 11.137945096492768,
    "requestedRate": 10.393792201919696,
    "time": 50639
  },
  {
    "temp": 201.0315399169922,
    "load": 630374,
    "rate": 11.053756906986237,
    "requestedRate": 10.393792201919696,
    "time": 50812
  },
  {
    "temp": 200.70144653320312,
    "load": 634493,
    "rate": 11.20431277513504,
    "requestedRate": 10.393792201919696,
    "time": 50993
  },
  {
    "temp": 200.36727905273438,
    "load": 662177,
    "rate": 11.311548156738281,
    "requestedRate": 10.393792201919696,
    "time": 51192
  },
  {
    "temp": 200.0797119140625,
    "load": 659982,
    "rate": 11.231480784416199,
    "requestedRate": 10.393792201919696,
    "time": 51399
  },
  {
    "temp": 199.7687225341797,
    "load": 674859,
    "rate": 11.168896973133087,
    "requestedRate": 10.393792201919696,
    "time": 51588
  },
  {
    "temp": 199.4755096435547,
    "load": 677039,
    "rate": 11.064912321567535,
    "requestedRate": 10.393792201919696,
    "time": 51793
  },
  {
    "temp": 199.1895751953125,
    "load": 688868,
    "rate": 11.005990090370178,
    "requestedRate": 10.393792201919696,
    "time": 51966
  },
  {
    "temp": 198.88372802734375,
    "load": 705412,
    "rate": 11.13466005563736,
    "requestedRate": 10.393792201919696,
    "time": 52172
  },
  {
    "temp": 198.61427307128906,
    "load": 714681,
    "rate": 11.148361508846282,
    "requestedRate": 10.393792201919696,
    "time": 52349
  },
  {
    "temp": 198.4695587158203,
    "load": 712146,
    "rate": 11.145678226947783,
    "requestedRate": 10.393792201919696,
    "time": 52547
  },
  {
    "temp": 198.20181274414062,
    "load": 707416,
    "rate": 11.101294105052947,
    "requestedRate": 10.393792201919696,
    "time": 52732
  },
  {
    "temp": 197.92398071289062,
    "load": 728811,
    "rate": 11.07662814617157,
    "requestedRate": 10.393792201919696,
    "time": 52948
  },
  {
    "temp": 197.6315155029297,
    "load": 719084,
    "rate": 11.06145748615265,
    "requestedRate": 10.393792201919696,
    "time": 53143
  },
  {
    "temp": 197.34605407714844,
    "load": 711929,
    "rate": 11.101755981445312,
    "requestedRate": 10.393792201919696,
    "time": 53333
  },
  {
    "temp": 197.06100463867188,
    "load": 669075,
    "rate": 7.571899523735047,
    "requestedRate": 10.393792201919696,
    "time": 53500
  },
  {
    "temp": 196.78436279296875,
    "load": 492447,
    "rate": 9.628329820632935,
    "requestedRate": 10.393792201919696,
    "time": 53712
  },
  {
    "temp": 196.50086975097656,
    "load": 613599,
    "rate": 10.617028584480286,
    "requestedRate": 10.393792201919696,
    "time": 53893
  },
  {
    "temp": 196.2047576904297,
    "load": 655925,
    "rate": 10.936332092285156,
    "requestedRate": 10.393792201919696,
    "time": 54061
  },
  {
    "temp": 196.08126831054688,
    "load": 641847,
    "rate": 11.015745799541474,
    "requestedRate": 10.393792201919696,
    "time": 54235
  },
  {
    "temp": 195.78880310058594,
    "load": 631496,
    "rate": 11.087528429031371,
    "requestedRate": 10.393792201919696,
    "time": 54450
  },
  {
    "temp": 195.5197296142578,
    "load": 626404,
    "rate": 11.16686823606491,
    "requestedRate": 10.393792201919696,
    "time": 54631
  },
  {
    "temp": 195.22877502441406,
    "load": 637341,
    "rate": 11.240258195400237,
    "requestedRate": 10.393792201919696,
    "time": 54822
  },
  {
    "temp": 194.94837951660156,
    "load": 642003,
    "rate": 11.194067916870116,
    "requestedRate": 10.393792201919696,
    "time": 55010
  },
  {
    "temp": 194.69522094726562,
    "load": 657340,
    "rate": 11.13617061138153,
    "requestedRate": 10.393792201919696,
    "time": 55201
  },
  {
    "temp": 194.41650390625,
    "load": 718229,
    "rate": 11.099172112941742,
    "requestedRate": 10.393792201919696,
    "time": 55380
  },
  {
    "temp": 194.28213500976562,
    "load": 730367,
    "rate": 11.121684408187866,
    "requestedRate": 10.393792201919696,
    "time": 55554
  },
  {
    "temp": 193.97398376464844,
    "load": 644671,
    "rate": 5.943842425346374,
    "requestedRate": 10.393792201919696,
    "time": 55737
  },
  {
    "temp": 193.70306396484375,
    "load": 411561,
    "rate": 8.370004334449767,
    "requestedRate": 10.393792201919696,
    "time": 55928
  },
  {
    "temp": 193.43141174316406,
    "load": 632943,
    "rate": 10.285214824676514,
    "requestedRate": 10.393792201919696,
    "time": 56118
  },
  {
    "temp": 193.1346893310547,
    "load": 647881,
    "rate": 10.837235412597655,
    "requestedRate": 10.393792201919696,
    "time": 56302
  },
  {
    "temp": 193.010986328125,
    "load": 640345,
    "rate": 10.962735586166382,
    "requestedRate": 10.393792201919696,
    "time": 56479
  },
  {
    "temp": 192.7182159423828,
    "load": 675311,
    "rate": 11.024897990226746,
    "requestedRate": 10.393792201919696,
    "time": 56672
  },
  {
    "temp": 192.4407501220703,
    "load": 690327,
    "rate": 11.005450794696808,
    "requestedRate": 10.393792201919696,
    "time": 56852
  },
  {
    "temp": 192.13214111328125,
    "load": 667923,
    "rate": 10.960430603027344,
    "requestedRate": 10.393792201919696,
    "time": 57034
  }
]