[
  {
    "temp": 287.8643493652344,
    "load": 69700,
    "rate": 1.984422447681427,
    "requestedRate": 2.078758440383939,
    "time": 47
  },
  {
    "temp": 287.74578857421875,
    "load": 69698,
    "rate": 2.0294927859306333,
    "requestedRate": 2.078758440383939,
    "time": 209
  },
  {
    "temp": 287.669921875,
    "load": 69753,
    "rate": 2.0323795133829115,
    "requestedRate": 2.078758440383939,
    "time": 396
  },
  {
    "temp": 287.6429443359375,
    "load": 69461,
    "rate": 2.0040917837619783,
    "requestedRate": 2.078758440383939,
    "time": 578
  },
  {
    "temp": 287.6040954589844,
    "load": 69254,
    "rate": 2.06499238550663,
    "requestedRate": 2.078758440383939,
    "time": 756
  },
  {
    "temp": 287.536865234375,
    "load": 69294,
    "rate": 1.986897445321083,
    "requestedRate": 2.078758440383939,
    "time": 970
  },
  {
    "temp": 287.40911865234375,
    "load": 69653,
    "rate": 2.104354811310768,
    "requestedRate": 2.078758440383939,
    "time": 1197
  },
  {
    "temp": 287.2257080078125,
    "load": 69826,
    "rate": 2.0614423155784607,
    "requestedRate": 2.078758440383939,
    "time": 1418
  },
  {
    "temp": 286.9632263183594,
    "load": 69859,
    "rate": 2.1275275897979737,
    "requestedRate": 2.078758440383939,
    "time": 1640
  },
  {
    "temp": 286.86407470703125,
    "load": 70033,
    "rate": 2.0620330774784086,
    "requestedRate": 2.078758440383939,
    "time": 1851
  },
  {
    "temp": 286.8006286621094,
    "load": 69959,
    "rate": 2.143055654168129,
    "requestedRate": 2.078758440383939,
    "time": 2071
  },
  {
    "temp": 286.7600402832031,
    "load": 69943,
    "rate": 2.0880112051963806,
    "requestedRate": 2.078758440383939,
    "time": 2250
  },
  {
    "temp": 286.7340393066406,
    "load": 70203,
    "rate": 2.1227469491958617,
    "requestedRate": 2.078758440383939,
    "time": 2473
  },
  {
    "temp": 286.6326904296875,
    "load": 70237,
    "rate": 2.069243407845497,
    "requestedRate": 2.078758440383939,
    "time": 2699
  },
  {
    "temp": 286.4915771484375,
    "load": 70054,
    "rate": 2.1118387484550474,
    "requestedRate": 2.078758440383939,
    "time": 2912
  },
  {
    "temp": 286.1739196777344,
    "load": 70396,
    "rate": 2.0207217532396315,
    "requestedRate": 2.078758440383939,
    "time": 3177
  },
  {
    "temp": 286.053955078125,
    "load": 70611,
    "rate": 2.071204842925072,
    "requestedRate": 2.078758440383939,
    "time": 3402
  },
  {
    "temp": 285.9771728515625,
    "load": 70534,
    "rate": 2.0412141090631484,
    "requestedRate": 2.078758440383939,
    "time": 3641
  },
  {
    "temp": 285.67333984375,
    "load": 70820,
    "rate": 2.0902891355752944,
    "requestedRate": 2.078758440383939,
    "time": 3874
  },
  {
    "temp": 285.4286193847656,
    "load": 70864,
    "rate": 2.0507459181547163,
    "requestedRate": 2.078758440383939,
    "time": 4094
  },
  {
    "temp": 285.27197265625,
    "load": 70305,
    "rate": 2.0771665674448014,
    "requestedRate": 2.078758440383939,
    "time": 4324
  },
  {
    "temp": 285.1360778808594,
    "load": 70831,
    "rate": 2.032511038184166,
    "requestedRate": 2.078758440383939,
    "time": 4567
  },
  {
    "temp": 284.8475036621094,
    "load": 71009,
    "rate": 2.069891354441643,
    "requestedRate": 2.078758440383939,
    "time": 4760
  },
  {
    "temp": 284.59503173828125,
    "load": 71148,
    "rate": 1.993392527103424,
    "requestedRate": 2.078758440383939,
    "time": 5071
  },
  {
    "temp": 284.37603759765625,
    "load": 71297,
    "rate": 2.0095689779520036,
    "requestedRate": 2.078758440383939,
    "time": 5330
  },
  {
    "temp": 284.1323547363281,
    "load": 71754,
    "rate": 2.0178858321905135,
    "requestedRate": 2.078758440383939,
    "time": 5543
  },
  {
    "temp": 283.7257080078125,
    "load": 71451,
    "rate": 1.9752629989385604,
    "requestedRate": 2.078758440383939,
    "time": 5775
  },
  {
    "temp": 283.5721130371094,
    "load": 71467,
    "rate": 2.003803660869598,
    "requestedRate": 2.078758440383939,
    "time": 5992
  },
  {
    "temp": 283.27899169921875,
    "load": 71711,
    "rate": 1.9964417910575867,
    "requestedRate": 2.078758440383939,
    "time": 6211
  },
  {
    "temp": 282.98126220703125,
    "load": 71759,
    "rate": 2.002884746789932,
    "requestedRate": 2.078758440383939,
    "time": 6423
  },
  {
    "temp": 282.74835205078125,
    "load": 71704,
    "rate": 1.9994514656066895,
    "requestedRate": 2.078758440383939,
    "time": 6643
  },
  {
    "temp": 282.41290283203125,
    "load": 71867,
    "rate": 2.0199130296707155,
    "requestedRate": 2.078758440383939,
    "time": 6830
  },
  {
    "temp": 282.1219787597656,
    "load": 71981,
    "rate": 2.0467955553531647,
    "requestedRate": 2.078758440383939,
    "time": 7044
  },
  {
    "temp": 281.8510437011719,
    "load": 71738,
    "rate": 2.0318934434652327,
    "requestedRate": 2.078758440383939,
    "time": 7243
  },
  {
    "temp": 281.4573974609375,
    "load": 71694,
    "rate": 2.0850171464681626,
    "requestedRate": 2.078758440383939,
    "time": 7471
  },
  {
    "temp": 281.0747375488281,
    "load": 71840,
    "rate": 2.0267268061637878,
    "requestedRate": 2.078758440383939,
    "time": 7697
  },
  {
    "temp": 280.6641845703125,
    "load": 71995,
    "rate": 2.0735942834615706,
    "requestedRate": 2.078758440383939,
    "time": 7907
  },
  {
    "temp": 280.4014587402344,
    "load": 71847,
    "rate": 2.0353900676965715,
    "requestedRate": 2.078758440383939,
    "time": 8125
  },
  {
    "temp": 280.08428955078125,
    "load": 71828,
    "rate": 2.046022462248802,
    "requestedRate": 2.078758440383939,
    "time": 8343
  },
  {
    "temp": 279.8067932128906,
    "load": 72095,
    "rate": 2.009148890376091,
    "requestedRate": 2.078758440383939,
    "time": 8575
  },
  {
    "temp": 279.3922119140625,
    "load": 72575,
    "rate": 2.043158608675003,
    "requestedRate": 2.078758440383939,
    "time": 8791
  },
  {
    "temp": 279.1403503417969,
    "load": 72810,
    "rate": 2.0283009248971937,
    "requestedRate": 2.078758440383939,
    "time": 9001
  },
  {
    "temp": 278.8611755371094,
    "load": 72677,
    "rate": 2.0223132473230363,
    "requestedRate": 2.078758440383939,
    "time": 9212
  },
  {
    "temp": 278.57696533203125,
    "load": 72608,
    "rate": 1.9949673056602477,
    "requestedRate": 2.078758440383939,
    "time": 9388
  },
  {
    "temp": 278.3330078125,
    "load": 72609,
    "rate": 1.9798219388723373,
    "requestedRate": 2.078758440383939,
    "time": 9584
  },
  {
    "temp": 278.01544189453125,
    "load": 72730,
    "rate": 2.0195155960321425,
    "requestedRate": 2.078758440383939,
    "time": 9781
  },
  {
    "temp": 277.81219482421875,
    "load": 72610,
    "rate": 2.000713927745819,
    "requestedRate": 2.078758440383939,
    "time": 10003
  },
  {
    "temp": 277.4834289550781,
    "load": 72546,
    "rate": 1.990424421429634,
    "requestedRate": 2.078758440383939,
    "time": 10245
  },
  {
    "temp": 276.6036376953125,
    "load": 73108,
    "rate": 1.99540718793869,
    "requestedRate": 2.078758440383939,
    "time": 10863
  },
  {
    "temp": 276.262939453125,
    "load": 73512,
    "rate": 2.0411644023656845,
    "requestedRate": 2.078758440383939,
    "time": 11076
  },
  {
    "temp": 276.02001953125,
    "load": 73639,
    "rate": 2.0130216139554977,
    "requestedRate": 2.078758440383939,
    "time": 11319
  },
  {
    "temp": 275.52618408203125,
    "load": 73693,
    "rate": 2.0157625204324723,
    "requestedRate": 2.078758440383939,
    "time": 11539
  },
  {
    "temp": 275.2629089355469,
    "load": 74082,
    "rate": 2.011037964820862,
    "requestedRate": 2.078758440383939,
    "time": 11752
  },
  {
    "temp": 274.9329833984375,
    "load": 74224,
    "rate": 2.031179954409599,
    "requestedRate": 2.078758440383939,
    "time": 11977
  },
  {
    "temp": 274.6286926269531,
    "load": 74206,
    "rate": 1.9713929146528244,
    "requestedRate": 2.078758440383939,
    "time": 12189
  },
  {
    "temp": 274.3035583496094,
    "load": 74369,
    "rate": 2.0162112003564836,
    "requestedRate": 2.078758440383939,
    "time": 12402
  },
  {
    "temp": 274.03338623046875,
    "load": 74384,
    "rate": 1.9942305028438567,
    "requestedRate": 2.078758440383939,
    "time": 12627
  },
  {
    "temp": 273.5802001953125,
    "load": 74532,
    "rate": 2.0129826843738554,
    "requestedRate": 2.078758440383939,
    "time": 12879
  },
  {
    "temp": 273.23516845703125,
    "load": 74627,
    "rate": 2.0106629651784895,
    "requestedRate": 2.078758440383939,
    "time": 13098
  },
  {
    "temp": 272.9646911621094,
    "load": 74640,
    "rate": 2.047425466775894,
    "requestedRate": 2.078758440383939,
    "time": 13330
  },
  {
    "temp": 272.4667663574219,
    "load": 74678,
    "rate": 1.9652508383989333,
    "requestedRate": 2.078758440383939,
    "time": 13547
  },
  {
    "temp": 272.18731689453125,
    "load": 74738,
    "rate": 2.014946758747101,
    "requestedRate": 2.078758440383939,
    "time": 13756
  },
  {
    "temp": 271.8470458984375,
    "load": 74939,
    "rate": 1.9960067474842071,
    "requestedRate": 2.078758440383939,
    "time": 13947
  },
  {
    "temp": 271.5050964355469,
    "load": 74989,
    "rate": 2.027398506402969,
    "requestedRate": 2.078758440383939,
    "time": 14165
  },
  {
    "temp": 271.1869201660156,
    "load": 74974,
    "rate": 1.9318743306398392,
    "requestedRate": 2.078758440383939,
    "time": 14378
  },
  {
    "temp": 270.8591003417969,
    "load": 75132,
    "rate": 2.0042829126119615,
    "requestedRate": 2.078758440383939,
    "time": 14599
  },
  {
    "temp": 270.5499572753906,
    "load": 75258,
    "rate": 1.9417305529117583,
    "requestedRate": 2.078758440383939,
    "time": 14784
  },
  {
    "temp": 270.2030944824219,
    "load": 75288,
    "rate": 2.010788771510124,
    "requestedRate": 2.078758440383939,
    "time": 15000
  },
  {
    "temp": 269.9065856933594,
    "load": 75482,
    "rate": 1.9656933599710464,
    "requestedRate": 2.078758440383939,
    "time": 15206
  },
  {
    "temp": 269.5181579589844,
    "load": 75542,
    "rate": 2.0429382276535035,
    "requestedRate": 2.078758440383939,
    "time": 15429
  },
  {
    "temp": 269.2447204589844,
    "load": 75565,
    "rate": 2.0394684362411497,
    "requestedRate": 2.078758440383939,
    "time": 15626
  },
  {
    "temp": 268.84619140625,
    "load": 75635,
    "rate": 2.0627544844150543,
    "requestedRate": 2.078758440383939,
    "time": 15840
  },
  {
    "temp": 268.5911560058594,
    "load": 75597,
    "rate": 2.0866198575496675,
    "requestedRate": 2.078758440383939,
    "time": 16048
  },
  {
    "temp": 268.20440673828125,
    "load": 75554,
    "rate": 2.019803718924522,
    "requestedRate": 2.078758440383939,
    "time": 16255
  },
  {
    "temp": 267.6950378417969,
    "load": 75823,
    "rate": 2.062528384923935,
    "requestedRate": 2.078758440383939,
    "time": 16501
  },
  {
    "temp": 267.4073791503906,
    "load": 75658,
    "rate": 2.046750247478485,
    "requestedRate": 2.078758440383939,
    "time": 16720
  },
  {
    "temp": 267.0494384765625,
    "load": 75767,
    "rate": 2.057824063897133,
    "requestedRate": 2.078758440383939,
    "time": 16922
  },
  {
    "temp": 266.7396240234375,
    "load": 75844,
    "rate": 2.063872885107994,
    "requestedRate": 2.078758440383939,
    "time": 17145
  },
  {
    "temp": 266.348876953125,
    "load": 76101,
    "rate": 2.0967943346500397,
    "requestedRate": 2.078758440383939,
    "time": 17377
  },
  {
    "temp": 265.8111877441406,
    "load": 76117,
    "rate": 2.088364870548248,
    "requestedRate": 2.078758440383939,
    "time": 17655
  },
  {
    "temp": 264.8610534667969,
    "load": 76498,
    "rate": 2.0939768886566164,
    "requestedRate": 2.078758440383939,
    "time": 18142
  },
  {
    "temp": 264.2460021972656,
    "load": 76680,
    "rate": 2.0507850676774977,
    "requestedRate": 2.078758440383939,
    "time": 18425
  },
  {
    "temp": 263.85888671875,
    "load": 76747,
    "rate": 2.08750028192997,
    "requestedRate": 2.078758440383939,
    "time": 18636
  },
  {
    "temp": 263.4869689941406,
    "load": 77044,
    "rate": 2.025615223646164,
    "requestedRate": 2.078758440383939,
    "time": 18835
  },
  {
    "temp": 263.14959716796875,
    "load": 77432,
    "rate": 2.0768463331460953,
    "requestedRate": 2.078758440383939,
    "time": 19053
  },
  {
    "temp": 262.7350158691406,
    "load": 77275,
    "rate": 2.037292558550835,
    "requestedRate": 2.078758440383939,
    "time": 19269
  },
  {
    "temp": 262.44482421875,
    "load": 77382,
    "rate": 2.0804740422964096,
    "requestedRate": 2.078758440383939,
    "time": 19476
  },
  {
    "temp": 262.03558349609375,
    "load": 77586,
    "rate": 2.04232635140419,
    "requestedRate": 2.078758440383939,
    "time": 19679
  },
  {
    "temp": 261.5129089355469,
    "load": 77990,
    "rate": 2.102082599401474,
    "requestedRate": 2.078758440383939,
    "time": 19905
  },
  {
    "temp": 261.0914611816406,
    "load": 78186,
    "rate": 2.0318881648778917,
    "requestedRate": 2.078758440383939,
    "time": 20082
  },
  {
    "temp": 260.88641357421875,
    "load": 78093,
    "rate": 2.076152858734131,
    "requestedRate": 2.078758440383939,
    "time": 20280
  },
  {
    "temp": 260.5438537597656,
    "load": 78226,
    "rate": 2.064268339276314,
    "requestedRate": 2.078758440383939,
    "time": 20492
  },
  {
    "temp": 260.0343017578125,
    "load": 78478,
    "rate": 2.0950433832406996,
    "requestedRate": 2.078758440383939,
    "time": 20719
  },
  {
    "temp": 259.7113952636719,
    "load": 78746,
    "rate": 2.058059840798378,
    "requestedRate": 2.078758440383939,
    "time": 20919
  },
  {
    "temp": 259.4136047363281,
    "load": 78819,
    "rate": 2.0810190564393998,
    "requestedRate": 2.078758440383939,
    "time": 21129
  },
  {
    "temp": 259.1501159667969,
    "load": 79006,
    "rate": 2.0569286835193634,
    "requestedRate": 2.078758440383939,
    "time": 21349
  },
  {
    "temp": 258.8402404785156,
    "load": 78612,
    "rate": 2.056475824713707,
    "requestedRate": 2.078758440383939,
    "time": 21566
  },
  {
    "temp": 258.55078125,
    "load": 78766,
    "rate": 2.0515421050786973,
    "requestedRate": 2.078758440383939,
    "time": 21786
  },
  {
    "temp": 258.2698059082031,
    "load": 79048,
    "rate": 2.0666703164577482,
    "requestedRate": 2.078758440383939,
    "time": 21980
  },
  {
    "temp": 257.98065185546875,
    "load": 79284,
    "rate": 2.088332759141922,
    "requestedRate": 2.078758440383939,
    "time": 22185
  },
  {
    "temp": 257.7409362792969,
    "load": 79235,
    "rate": 2.028355470299721,
    "requestedRate": 2.078758440383939,
    "time": 22393
  },
  {
    "temp": 257.4416809082031,
    "load": 79167,
    "rate": 2.0288169068098068,
    "requestedRate": 2.078758440383939,
    "time": 22591
  },
  {
    "temp": 256.9933166503906,
    "load": 79464,
    "rate": 1.9775950348377227,
    "requestedRate": 2.078758440383939,
    "time": 22824
  },
  {
    "temp": 256.6898193359375,
    "load": 79569,
    "rate": 2.029809281229973,
    "requestedRate": 2.078758440383939,
    "time": 23062
  },
  {
    "temp": 256.4226379394531,
    "load": 80081,
    "rate": 1.9876566821336745,
    "requestedRate": 2.078758440383939,
    "time": 23292
  },
  {
    "temp": 256.1058654785156,
    "load": 80286,
    "rate": 2.03181514441967,
    "requestedRate": 2.078758440383939,
    "time": 23484
  },
  {
    "temp": 255.83932495117188,
    "load": 80230,
    "rate": 1.9780751663446425,
    "requestedRate": 2.078758440383939,
    "time": 23702
  },
  {
    "temp": 255.55027770996094,
    "load": 80060,
    "rate": 2.0322761410474777,
    "requestedRate": 2.078758440383939,
    "time": 23910
  },
  {
    "temp": 255.27415466308594,
    "load": 80658,
    "rate": 1.9993340170383453,
    "requestedRate": 2.078758440383939,
    "time": 24103
  },
  {
    "temp": 255.00173950195312,
    "load": 80898,
    "rate": 2.041746806502342,
    "requestedRate": 2.078758440383939,
    "time": 24326
  },
  {
    "temp": 254.5511474609375,
    "load": 81458,
    "rate": 2.041673346161842,
    "requestedRate": 2.078758440383939,
    "time": 24518
  },
  {
    "temp": 254.3748016357422,
    "load": 81671,
    "rate": 1.9616383051872253,
    "requestedRate": 2.078758440383939,
    "time": 24713
  },
  {
    "temp": 253.939453125,
    "load": 81627,
    "rate": 1.9800022906064987,
    "requestedRate": 2.078758440383939,
    "time": 24929
  },
  {
    "temp": 253.67819213867188,
    "load": 81874,
    "rate": 1.9673554551601409,
    "requestedRate": 2.078758440383939,
    "time": 25146
  },
  {
    "temp": 253.3651885986328,
    "load": 82070,
    "rate": 1.9829099124670029,
    "requestedRate": 2.078758440383939,
    "time": 25355
  },
  {
    "temp": 253.0554962158203,
    "load": 82190,
    "rate": 1.9476647847890853,
    "requestedRate": 2.078758440383939,
    "time": 25571
  },
  {
    "temp": 252.7843780517578,
    "load": 82350,
    "rate": 2.0006329894065855,
    "requestedRate": 2.078758440383939,
    "time": 25782
  },
  {
    "temp": 252.4468536376953,
    "load": 82442,
    "rate": 1.9636025995016098,
    "requestedRate": 2.078758440383939,
    "time": 26008
  },
  {
    "temp": 252.1396942138672,
    "load": 82611,
    "rate": 2.0044588655233384,
    "requestedRate": 2.078758440383939,
    "time": 26229
  },
  {
    "temp": 251.68324279785156,
    "load": 82626,
    "rate": 2.010749841928482,
    "requestedRate": 2.078758440383939,
    "time": 26444
  },
  {
    "temp": 251.41404724121094,
    "load": 83051,
    "rate": 2.055141441822052,
    "requestedRate": 2.078758440383939,
    "time": 26661
  },
  {
    "temp": 251.07772827148438,
    "load": 83274,
    "rate": 1.9998950868844985,
    "requestedRate": 2.078758440383939,
    "time": 26863
  },
  {
    "temp": 250.73487854003906,
    "load": 83207,
    "rate": 2.062520467042923,
    "requestedRate": 2.078758440383939,
    "time": 27049
  },
  {
    "temp": 250.4562225341797,
    "load": 83405,
    "rate": 1.9875539696216582,
    "requestedRate": 2.078758440383939,
    "time": 27264
  },
  {
    "temp": 250.1366424560547,
    "load": 83652,
    "rate": 2.078061287999153,
    "requestedRate": 2.078758440383939,
    "time": 27462
  },
  {
    "temp": 249.8045196533203,
    "load": 83747,
    "rate": 2.012775939702988,
    "requestedRate": 2.078758440383939,
    "time": 27663
  },
  {
    "temp": 249.5099334716797,
    "load": 83656,
    "rate": 2.082719861268997,
    "requestedRate": 2.078758440383939,
    "time": 27875
  },
  {
    "temp": 249.20294189453125,
    "load": 83866,
    "rate": 2.0455159378051757,
    "requestedRate": 2.078758440383939,
    "time": 28083
  },
  {
    "temp": 248.8424072265625,
    "load": 83873,
    "rate": 2.082091489434242,
    "requestedRate": 2.078758440383939,
    "time": 28297
  },
  {
    "temp": 248.52053833007812,
    "load": 84273,
    "rate": 2.084351164698601,
    "requestedRate": 2.078758440383939,
    "time": 28508
  },
  {
    "temp": 248.2416534423828,
    "load": 84459,
    "rate": 2.09081567466259,
    "requestedRate": 2.078758440383939,
    "time": 28707
  },
  {
    "temp": 247.9173583984375,
    "load": 84608,
    "rate": 2.0451092666387556,
    "requestedRate": 2.078758440383939,
    "time": 28914
  },
  {
    "temp": 247.58221435546875,
    "load": 84544,
    "rate": 2.0644412130117415,
    "requestedRate": 2.078758440383939,
    "time": 29101
  },
  {
    "temp": 247.29026794433594,
    "load": 84834,
    "rate": 2.0585536086559295,
    "requestedRate": 2.078758440383939,
    "time": 29317
  },
  {
    "temp": 246.962158203125,
    "load": 85059,
    "rate": 2.0348274582624435,
    "requestedRate": 2.078758440383939,
    "time": 29534
  },
  {
    "temp": 246.6245880126953,
    "load": 85317,
    "rate": 2.0942436772584916,
    "requestedRate": 2.078758440383939,
    "time": 29740
  },
  {
    "temp": 246.30372619628906,
    "load": 85337,
    "rate": 2.0102314406633375,
    "requestedRate": 2.078758440383939,
    "time": 29948
  },
  {
    "temp": 246.0209197998047,
    "load": 85058,
    "rate": 2.0496565496921537,
    "requestedRate": 2.078758440383939,
    "time": 30158
  },
  {
    "temp": 245.65768432617188,
    "load": 85241,
    "rate": 2.011821835041046,
    "requestedRate": 2.078758440383939,
    "time": 30358
  },
  {
    "temp": 245.33407592773438,
    "load": 85418,
    "rate": 2.051598849892616,
    "requestedRate": 2.078758440383939,
    "time": 30556
  },
  {
    "temp": 245.05404663085938,
    "load": 85372,
    "rate": 1.9940116614103316,
    "requestedRate": 2.078758440383939,
    "time": 30756
  },
  {
    "temp": 244.71080017089844,
    "load": 85308,
    "rate": 2.0232194048166274,
    "requestedRate": 2.078758440383939,
    "time": 30958
  },
  {
    "temp": 244.3452911376953,
    "load": 85662,
    "rate": 2.0008219188451766,
    "requestedRate": 2.078758440383939,
    "time": 31190
  },
  {
    "temp": 243.8759307861328,
    "load": 85479,
    "rate": 2.0325642639398573,
    "requestedRate": 2.078758440383939,
    "time": 31398
  },
  {
    "temp": 243.53759765625,
    "load": 85848,
    "rate": 2.0745149570703507,
    "requestedRate": 2.078758440383939,
    "time": 31614
  },
  {
    "temp": 243.22535705566406,
    "load": 86191,
    "rate": 2.03139439702034,
    "requestedRate": 2.078758440383939,
    "time": 31820
  },
  {
    "temp": 242.88427734375,
    "load": 86192,
    "rate": 1.9853255259990692,
    "requestedRate": 2.078758440383939,
    "time": 32043
  },
  {
    "temp": 242.52017211914062,
    "load": 86156,
    "rate": 1.9730158603191374,
    "requestedRate": 2.078758440383939,
    "time": 32257
  },
  {
    "temp": 242.2005615234375,
    "load": 86324,
    "rate": 2.0481756860017777,
    "requestedRate": 2.078758440383939,
    "time": 32462
  },
  {
    "temp": 241.90032958984375,
    "load": 86165,
    "rate": 2.0418438005447386,
    "requestedRate": 2.078758440383939,
    "time": 32676
  },
  {
    "temp": 241.5623779296875,
    "load": 86257,
    "rate": 2.07913526058197,
    "requestedRate": 2.078758440383939,
    "time": 32911
  },
  {
    "temp": 241.05126953125,
    "load": 86657,
    "rate": 2.062227285504341,
    "requestedRate": 2.078758440383939,
    "time": 33118
  },
  {
    "temp": 240.67271423339844,
    "load": 86666,
    "rate": 2.0572988444566724,
    "requestedRate": 2.078758440383939,
    "time": 33313
  },
  {
    "temp": 240.3629608154297,
    "load": 86435,
    "rate": 2.0158753502368927,
    "requestedRate": 2.078758440383939,
    "time": 33519
  },
  {
    "temp": 240.06011962890625,
    "load": 86715,
    "rate": 2.073893623352051,
    "requestedRate": 2.078758440383939,
    "time": 33717
  },
  {
    "temp": 239.79544067382812,
    "load": 87724,
    "rate": 2.034401432275772,
    "requestedRate": 2.078758440383939,
    "time": 33939
  },
  {
    "temp": 239.50457763671875,
    "load": 87364,
    "rate": 2.066205360889435,
    "requestedRate": 2.078758440383939,
    "time": 34130
  },
  {
    "temp": 239.19699096679688,
    "load": 88047,
    "rate": 2.048493061065674,
    "requestedRate": 2.078758440383939,
    "time": 34346
  },
  {
    "temp": 238.93263244628906,
    "load": 87884,
    "rate": 2.052206327319145,
    "requestedRate": 2.078758440383939,
    "time": 34533
  },
  {
    "temp": 238.69259643554688,
    "load": 87220,
    "rate": 2.045080894231796,
    "requestedRate": 2.078758440383939,
    "time": 34748
  },
  {
    "temp": 238.43438720703125,
    "load": 87963,
    "rate": 2.0410403555631635,
    "requestedRate": 2.078758440383939,
    "time": 34940
  },
  {
    "temp": 238.14767456054688,
    "load": 88246,
    "rate": 2.0302174919843674,
    "requestedRate": 2.078758440383939,
    "time": 35154
  },
  {
    "temp": 237.8966827392578,
    "load": 88092,
    "rate": 1.9958730232715607,
    "requestedRate": 2.078758440383939,
    "time": 35371
  },
  {
    "temp": 237.6314697265625,
    "load": 88018,
    "rate": 2.0017408329248427,
    "requestedRate": 2.078758440383939,
    "time": 35591
  },
  {
    "temp": 237.390869140625,
    "load": 88168,
    "rate": 1.9889699506759644,
    "requestedRate": 2.078758440383939,
    "time": 35805
  },
  {
    "temp": 237.1154327392578,
    "load": 88431,
    "rate": 2.0178482222557066,
    "requestedRate": 2.078758440383939,
    "time": 36029
  },
  {
    "temp": 236.7226104736328,
    "load": 88318,
    "rate": 2.020956430435181,
    "requestedRate": 2.078758440383939,
    "time": 36238
  },
  {
    "temp": 236.44480895996094,
    "load": 88753,
    "rate": 2.0250174236297607,
    "requestedRate": 2.078758440383939,
    "time": 36452
  },
  {
    "temp": 236.14556884765625,
    "load": 88823,
    "rate": 1.9883582943677902,
    "requestedRate": 2.078758440383939,
    "time": 36661
  },
  {
    "temp": 235.85955810546875,
    "load": 88672,
    "rate": 2.0429960721731186,
    "requestedRate": 2.078758440383939,
    "time": 36898
  },
  {
    "temp": 235.528076171875,
    "load": 90134,
    "rate": 1.9953649592399596,
    "requestedRate": 2.078758440383939,
    "time": 37131
  },
  {
    "temp": 235.11903381347656,
    "load": 89339,
    "rate": 2.0265574514865876,
    "requestedRate": 2.078758440383939,
    "time": 37336
  },
  {
    "temp": 234.8651885986328,
    "load": 89378,
    "rate": 1.9829699563980103,
    "requestedRate": 2.078758440383939,
    "time": 37540
  },
  {
    "temp": 234.74493408203125,
    "load": 89587,
    "rate": 1.9784330105781556,
    "requestedRate": 2.078758440383939,
    "time": 37722
  },
  {
    "temp": 234.4503173828125,
    "load": 89221,
    "rate": 1.9282123106718063,
    "requestedRate": 2.078758440383939,
    "time": 37937
  },
  {
    "temp": 234.06246948242188,
    "load": 89044,
    "rate": 1.9776438617706298,
    "requestedRate": 2.078758440383939,
    "time": 38189
  },
  {
    "temp": 233.78411865234375,
    "load": 89390,
    "rate": 1.9597232776880265,
    "requestedRate": 2.078758440383939,
    "time": 38408
  },
  {
    "temp": 233.51150512695312,
    "load": 89267,
    "rate": 2.0166682380437853,
    "requestedRate": 2.078758440383939,
    "time": 38613
  },
  {
    "temp": 233.22906494140625,
    "load": 89754,
    "rate": 1.9725293505191803,
    "requestedRate": 2.078758440383939,
    "time": 38834
  },
  {
    "temp": 232.9605712890625,
    "load": 89970,
    "rate": 2.019834950566292,
    "requestedRate": 2.078758440383939,
    "time": 39025
  },
  {
    "temp": 232.68414306640625,
    "load": 89903,
    "rate": 2.007049112319946,
    "requestedRate": 2.078758440383939,
    "time": 39244
  },
  {
    "temp": 232.4026336669922,
    "load": 90034,
    "rate": 2.0113458824157715,
    "requestedRate": 2.078758440383939,
    "time": 39441
  },
  {
    "temp": 232.10101318359375,
    "load": 91335,
    "rate": 1.9970939165353774,
    "requestedRate": 2.078758440383939,
    "time": 39649
  },
  {
    "temp": 231.81349182128906,
    "load": 91087,
    "rate": 1.9772787594795227,
    "requestedRate": 2.078758440383939,
    "time": 39849
  },
  {
    "temp": 231.53500366210938,
    "load": 90561,
    "rate": 2.04751696228981,
    "requestedRate": 2.078758440383939,
    "time": 40064
  },
  {
    "temp": 231.23532104492188,
    "load": 90630,
    "rate": 2.017267797589302,
    "requestedRate": 2.078758440383939,
    "time": 40259
  },
  {
    "temp": 230.9895477294922,
    "load": 91558,
    "rate": 2.077593693137169,
    "requestedRate": 2.078758440383939,
    "time": 40485
  },
  {
    "temp": 230.54417419433594,
    "load": 92031,
    "rate": 2.039783831834793,
    "requestedRate": 2.078758440383939,
    "time": 40709
  },
  {
    "temp": 230.253662109375,
    "load": 92004,
    "rate": 2.1015142714977264,
    "requestedRate": 2.078758440383939,
    "time": 40920
  },
  {
    "temp": 229.99688720703125,
    "load": 92975,
    "rate": 2.0803900247812273,
    "requestedRate": 2.078758440383939,
    "time": 41119
  },
  {
    "temp": 229.72457885742188,
    "load": 92552,
    "rate": 2.1071524626016616,
    "requestedRate": 2.078758440383939,
    "time": 41329
  },
  {
    "temp": 229.4423370361328,
    "load": 93678,
    "rate": 2.031786112189293,
    "requestedRate": 2.078758440383939,
    "time": 41544
  },
  {
    "temp": 229.1402587890625,
    "load": 92972,
    "rate": 2.0779640740156173,
    "requestedRate": 2.078758440383939,
    "time": 41758
  },
  {
    "temp": 228.8693084716797,
    "load": 92938,
    "rate": 2.019029086232185,
    "requestedRate": 2.078758440383939,
    "time": 41983
  },
  {
    "temp": 228.41673278808594,
    "load": 93101,
    "rate": 2.0697228795289995,
    "requestedRate": 2.078758440383939,
    "time": 42181
  },
  {
    "temp": 228.25344848632812,
    "load": 93086,
    "rate": 1.9765270006656646,
    "requestedRate": 2.078758440383939,
    "time": 42378
  },
  {
    "temp": 227.82608032226562,
    "load": 93667,
    "rate": 2.045174809098244,
    "requestedRate": 2.078758440383939,
    "time": 42593
  },
  {
    "temp": 227.5255126953125,
    "load": 93708,
    "rate": 2.023359067440033,
    "requestedRate": 2.078758440383939,
    "time": 42800
  },
  {
    "temp": 227.2285614013672,
    "load": 94333,
    "rate": 2.082496840953827,
    "requestedRate": 2.078758440383939,
    "time": 42997
  },
  {
    "temp": 227.08360290527344,
    "load": 94053,
    "rate": 2.0683053588867186,
    "requestedRate": 2.078758440383939,
    "time": 43185
  },
  {
    "temp": 226.66839599609375,
    "load": 94003,
    "rate": 2.079127122759819,
    "requestedRate": 2.078758440383939,
    "time": 43399
  },
  {
    "temp": 226.36622619628906,
    "load": 94560,
    "rate": 2.0683522063493727,
    "requestedRate": 2.078758440383939,
    "time": 43609
  },
  {
    "temp": 226.05136108398438,
    "load": 94968,
    "rate": 2.0712563091516496,
    "requestedRate": 2.078758440383939,
    "time": 43805
  },
  {
    "temp": 225.74188232421875,
    "load": 95788,
    "rate": 2.105216540694237,
    "requestedRate": 2.078758440383939,
    "time": 44003
  },
  {
    "temp": 225.60748291015625,
    "load": 95937,
    "rate": 2.0577189320325853,
    "requestedRate": 2.078758440383939,
    "time": 44197
  },
  {
    "temp": 225.15415954589844,
    "load": 95666,
    "rate": 2.0442361003160476,
    "requestedRate": 2.078758440383939,
    "time": 44432
  },
  {
    "temp": 224.84376525878906,
    "load": 95633,
    "rate": 2.031988238096237,
    "requestedRate": 2.078758440383939,
    "time": 44629
  },
  {
    "temp": 224.54052734375,
    "load": 96377,
    "rate": 2.1042369228601454,
    "requestedRate": 2.078758440383939,
    "time": 44870
  },
  {
    "temp": 224.2587432861328,
    "load": 97495,
    "rate": 2.031720569729805,
    "requestedRate": 2.078758440383939,
    "time": 45054
  },
  {
    "temp": 223.97378540039062,
    "load": 96877,
    "rate": 2.0472213613986967,
    "requestedRate": 2.078758440383939,
    "time": 45254
  },
  {
    "temp": 223.66995239257812,
    "load": 97348,
    "rate": 2.0124416291713714,
    "requestedRate": 2.078758440383939,
    "time": 45466
  },
  {
    "temp": 223.3540496826172,
    "load": 97865,
    "rate": 2.046185658574104,
    "requestedRate": 2.078758440383939,
    "time": 45671
  },
  {
    "temp": 223.0303955078125,
    "load": 97792,
    "rate": 2.0288890475034713,
    "requestedRate": 2.078758440383939,
    "time": 45922
  },
  {
    "temp": 222.6112823486328,
    "load": 98181,
    "rate": 2.106078929901123,
    "requestedRate": 2.078758440383939,
    "time": 46142
  },
  {
    "temp": 222.2952423095703,
    "load": 99449,
    "rate": 2.0473352909088134,
    "requestedRate": 2.078758440383939,
    "time": 46351
  },
  {
    "temp": 221.98837280273438,
    "load": 99465,
    "rate": 2.069298833012581,
    "requestedRate": 2.078758440383939,
    "time": 46540
  },
  {
    "temp": 221.67051696777344,
    "load": 100150,
    "rate": 2.042021073102951,
    "requestedRate": 2.078758440383939,
    "time": 46761
  },
  {
    "temp": 221.3456268310547,
    "load": 100171,
    "rate": 2.0628402614593506,
    "requestedRate": 2.078758440383939,
    "time": 46965
  },
  {
    "temp": 221.01622009277344,
    "load": 99820,
    "rate": 2.1114934408664703,
    "requestedRate": 2.078758440383939,
    "time": 47150
  },
  {
    "temp": 220.68394470214844,
    "load": 98942,
    "rate": 2.0354311966896055,
    "requestedRate": 2.078758440383939,
    "time": 47351
  },
  {
    "temp": 220.40447998046875,
    "load": 99277,
    "rate": 2.041491014957428,
    "requestedRate": 2.078758440383939,
    "time": 47569
  },
  {
    "temp": 220.14105224609375,
    "load": 99210,
    "rate": 2.0092199313640595,
    "requestedRate": 2.078758440383939,
    "time": 47761
  },
  {
    "temp": 219.88034057617188,
    "load": 99327,
    "rate": 2.0433105880022047,
    "requestedRate": 2.078758440383939,
    "time": 47982
  },
  {
    "temp": 219.62139892578125,
    "load": 99529,
    "rate": 1.9945676726102828,
    "requestedRate": 2.078758440383939,
    "time": 48183
  },
  {
    "temp": 219.36355590820312,
    "load": 99229,
    "rate": 2.014369413256645,
    "requestedRate": 2.078758440383939,
    "time": 48426
  },
  {
    "temp": 219.10643005371094,
    "load": 98989,
    "rate": 1.9629982012510299,
    "requestedRate": 2.078758440383939,
    "time": 48629
  },
  {
    "temp": 218.86256408691406,
    "load": 98935,
    "rate": 2.028982962369919,
    "requestedRate": 2.078758440383939,
    "time": 48838
  },
  {
    "temp": 218.62718200683594,
    "load": 99529,
    "rate": 1.983129853606224,
    "requestedRate": 2.078758440383939,
    "time": 49053
  },
  {
    "temp": 218.27139282226562,
    "load": 99513,
    "rate": 2.033773720264435,
    "requestedRate": 2.078758440383939,
    "time": 49294
  },
  {
    "temp": 218.04159545898438,
    "load": 99577,
    "rate": 1.986141727566719,
    "requestedRate": 2.078758440383939,
    "time": 49508
  },
  {
    "temp": 217.7896270751953,
    "load": 99470,
    "rate": 1.9980053526163102,
    "requestedRate": 2.078758440383939,
    "time": 49720
  },
  {
    "temp": 217.5362548828125,
    "load": 99107,
    "rate": 1.960232001543045,
    "requestedRate": 2.078758440383939,
    "time": 49956
  },
  {
    "temp": 217.18272399902344,
    "load": 99334,
    "rate": 2.016094631552696,
    "requestedRate": 2.078758440383939,
    "time": 50176
  },
  {
    "temp": 216.93292236328125,
    "load": 99567,
    "rate": 1.951071233153343,
    "requestedRate": 2.078758440383939,
    "time": 50385
  },
  {
    "temp": 216.6809539794922,
    "load": 99088,
    "rate": 1.985298473238945,
    "requestedRate": 2.078758440383939,
    "time": 50590
  },
  {
    "temp": 216.42758178710938,
    "load": 99928,
    "rate": 1.9721222394704818,
    "requestedRate": 2.078758440383939,
    "time": 50805
  },
  {
    "temp": 216.17332458496094,
    "load": 99810,
    "rate": 1.9801087421178818,
    "requestedRate": 2.078758440383939,
    "time": 51027
  },
  {
    "temp": 215.86732482910156,
    "load": 100070,
    "rate": 1.962513011097908,
    "requestedRate": 2.078758440383939,
    "time": 51235
  },
  {
    "temp": 215.56915283203125,
    "load": 99955,
    "rate": 2.0039659774303438,
    "requestedRate": 2.078758440383939,
    "time": 51440
  },
  {
    "temp": 215.2964324951172,
    "load": 100388,
    "rate": 1.9929119557142256,
    "requestedRate": 2.078758440383939,
    "time": 51657
  },
  {
    "temp": 215.02980041503906,
    "load": 100474,
    "rate": 1.972922825217247,
    "requestedRate": 2.078758440383939,
    "time": 51840
  },
  {
    "temp": 214.7670440673828,
    "load": 100778,
    "rate": 2.0235167652368546,
    "requestedRate": 2.078758440383939,
    "time": 52049
  },
  {
    "temp": 214.50677490234375,
    "load": 101023,
    "rate": 1.9897219294309616,
    "requestedRate": 2.078758440383939,
    "time": 52289
  },
  {
    "temp": 214.1333770751953,
    "load": 101068,
    "rate": 2.0533920300006865,
    "requestedRate": 2.078758440383939,
    "time": 52518
  },
  {
    "temp": 213.87608337402344,
    "load": 101448,
    "rate": 2.0483969467878342,
    "requestedRate": 2.078758440383939,
    "time": 52742
  },
  {
    "temp": 213.61932373046875,
    "load": 102233,
    "rate": 2.0713456052541734,
    "requestedRate": 2.078758440383939,
    "time": 52941
  },
  {
    "temp": 213.3628692626953,
    "load": 102560,
    "rate": 2.043395265340805,
    "requestedRate": 2.078758440383939,
    "time": 53148
  },
  {
    "temp": 213.1066436767578,
    "load": 103158,
    "rate": 2.063777210712433,
    "requestedRate": 2.078758440383939,
    "time": 53356
  },
  {
    "temp": 212.85055541992188,
    "load": 103312,
    "rate": 2.0605321991443635,
    "requestedRate": 2.078758440383939,
    "time": 53568
  },
  {
    "temp": 212.5945587158203,
    "load": 103351,
    "rate": 2.1321958404779435,
    "requestedRate": 2.078758440383939,
    "time": 53800
  },
  {
    "temp": 212.19644165039062,
    "load": 104379,
    "rate": 2.114271957278252,
    "requestedRate": 2.078758440383939,
    "time": 54002
  },
  {
    "temp": 211.94053649902344,
    "load": 104477,
    "rate": 2.1323942273855208,
    "requestedRate": 2.078758440383939,
    "time": 54200
  },
  {
    "temp": 211.6846466064453,
    "load": 104654,
    "rate": 2.07254956305027,
    "requestedRate": 2.078758440383939,
    "time": 54433
  },
  {
    "temp": 211.4415740966797,
    "load": 104998,
    "rate": 2.089288183450699,
    "requestedRate": 2.078758440383939,
    "time": 54649
  },
  {
    "temp": 211.1811065673828,
    "load": 104923,
    "rate": 2.003217737674713,
    "requestedRate": 2.078758440383939,
    "time": 54871
  },
  {
    "temp": 210.93508911132812,
    "load": 104658,
    "rate": 2.0413484930992127,
    "requestedRate": 2.078758440383939,
    "time": 55081
  },
  {
    "temp": 210.67274475097656,
    "load": 105321,
    "rate": 2.0067825436592104,
    "requestedRate": 2.078758440383939,
    "time": 55315
  },
  {
    "temp": 210.29754638671875,
    "load": 105657,
    "rate": 2.0642602014541627,
    "requestedRate": 2.078758440383939,
    "time": 55541
  },
  {
    "temp": 210.03956604003906,
    "load": 105606,
    "rate": 2.014143313765526,
    "requestedRate": 2.078758440383939,
    "time": 55732
  },
  {
    "temp": 209.78236389160156,
    "load": 106069,
    "rate": 2.058202802538872,
    "requestedRate": 2.078758440383939,
    "time": 55943
  },
  {
    "temp": 209.525634765625,
    "load": 106549,
    "rate": 1.9922046250104903,
    "requestedRate": 2.078758440383939,
    "time": 56116
  },
  {
    "temp": 209.2692413330078,
    "load": 106541,
    "rate": 2.020271533727646,
    "requestedRate": 2.078758440383939,
    "time": 56348
  },
  {
    "temp": 209.01304626464844,
    "load": 108100,
    "rate": 2.033732151389122,
    "requestedRate": 2.078758440383939,
    "time": 56551
  },
  {
    "temp": 208.7569580078125,
    "load": 109507,
    "rate": 2.0459124916791915,
    "requestedRate": 2.078758440383939,
    "time": 56756
  },
  {
    "temp": 208.5009765625,
    "load": 108738,
    "rate": 2.0238561344146726,
    "requestedRate": 2.078758440383939,
    "time": 56975
  },
  {
    "temp": 208.24502563476562,
    "load": 109016,
    "rate": 2.0241205036640166,
    "requestedRate": 2.078758440383939,
    "time": 57223
  },
  {
    "temp": 207.98912048339844,
    "load": 109321,
    "rate": 2.045397609472275,
    "requestedRate": 2.078758440383939,
    "time": 57444
  },
  {
    "temp": 207.7332305908203,
    "load": 109097,
    "rate": 2.009359374046326,
    "requestedRate": 2.078758440383939,
    "time": 57623
  },
  {
    "temp": 207.47735595703125,
    "load": 109631,
    "rate": 2.0283255583047866,
    "requestedRate": 2.078758440383939,
    "time": 57831
  },
  {
    "temp": 207.079345703125,
    "load": 110319,
    "rate": 2.029829075932503,
    "requestedRate": 2.078758440383939,
    "time": 58077
  },
  {
    "temp": 206.82350158691406,
    "load": 110844,
    "rate": 2.0159272563457487,
    "requestedRate": 2.078758440383939,
    "time": 58286
  },
  {
    "temp": 206.56765747070312,
    "load": 110401,
    "rate": 2.008425943851471,
    "requestedRate": 2.078758440383939,
    "time": 58487
  },
  {
    "temp": 206.3015899658203,
    "load": 111275,
    "rate": 2.0690846103429794,
    "requestedRate": 2.078758440383939,
    "time": 58684
  },
  {
    "temp": 206.04942321777344,
    "load": 111421,
    "rate": 2.0335027527809144,
    "requestedRate": 2.078758440383939,
    "time": 58898
  },
  {
    "temp": 205.79592895507812,
    "load": 111865,
    "rate": 2.0696408414840697,
    "requestedRate": 2.078758440383939,
    "time": 59105
  },
  {
    "temp": 205.5211181640625,
    "load": 112569,
    "rate": 2.0329968881607057,
    "requestedRate": 2.078758440383939,
    "time": 59322
  },
  {
    "temp": 205.232666015625,
    "load": 112733,
    "rate": 2.010452261567116,
    "requestedRate": 2.078758440383939,
    "time": 59542
  },
  {
    "temp": 204.806396484375,
    "load": 111926,
    "rate": 1.9714914482831956,
    "requestedRate": 2.078758440383939,
    "time": 59788
  },
  {
    "temp": 204.5398712158203,
    "load": 111924,
    "rate": 2.0296617007255553,
    "requestedRate": 2.078758440383939,
    "time": 60018
  },
  {
    "temp": 204.2771759033203,
    "load": 112551,
    "rate": 2.0068029981851576,
    "requestedRate": 2.078758440383939,
    "time": 60254
  },
  {
    "temp": 203.9016876220703,
    "load": 113068,
    "rate": 2.050467032790184,
    "requestedRate": 2.078758440383939,
    "time": 60470
  },
  {
    "temp": 203.63079833984375,
    "load": 113427,
    "rate": 2.006547866463661,
    "requestedRate": 2.078758440383939,
    "time": 60657
  },
  {
    "temp": 203.36532592773438,
    "load": 113291,
    "rate": 1.9965577000379562,
    "requestedRate": 2.078758440383939,
    "time": 60862
  },
  {
    "temp": 203.0905303955078,
    "load": 113549,
    "rate": 1.9896728825569152,
    "requestedRate": 2.078758440383939,
    "time": 61058
  },
  {
    "temp": 202.8097686767578,
    "load": 114040,
    "rate": 2.0156624472141265,
    "requestedRate": 2.078758440383939,
    "time": 61281
  },
  {
    "temp": 202.52517700195312,
    "load": 114901,
    "rate": 2.01146487057209,
    "requestedRate": 2.078758440383939,
    "time": 61485
  },
  {
    "temp": 202.25094604492188,
    "load": 114858,
    "rate": 1.980962993502617,
    "requestedRate": 2.078758440383939,
    "time": 61688
  },
  {
    "temp": 201.98333740234375,
    "load": 115031,
    "rate": 2.0088752835988997,
    "requestedRate": 2.078758440383939,
    "time": 61870
  },
  {
    "temp": 201.8654327392578,
    "load": 115469,
    "rate": 1.9777753865718841,
    "requestedRate": 2.078758440383939,
    "time": 62071
  },
  {
    "temp": 201.4592742919922,
    "load": 116379,
    "rate": 2.021690593957901,
    "requestedRate": 2.078758440383939,
    "time": 62290
  },
  {
    "temp": 201.20033264160156,
    "load": 117472,
    "rate": 1.9964475095272063,
    "requestedRate": 2.078758440383939,
    "time": 62518
  },
  {
    "temp": 200.93226623535156,
    "load": 118117,
    "rate": 2.023026956319809,
    "requestedRate": 2.078758440383939,
    "time": 62709
  },
  {
    "temp": 200.66860961914062,
    "load": 117810,
    "rate": 2.00563884973526,
    "requestedRate": 2.078758440383939,
    "time": 62916
  },
  {
    "temp": 200.40542602539062,
    "load": 118198,
    "rate": 2.036667485833168,
    "requestedRate": 2.078758440383939,
    "time": 63147
  },
  {
    "temp": 200.1614532470703,
    "load": 119076,
    "rate": 1.9907620310783385,
    "requestedRate": 2.078758440383939,
    "time": 63358
  },
  {
    "temp": 199.9234161376953,
    "load": 119012,
    "rate": 2.013759736418724,
    "requestedRate": 2.078758440383939,
    "time": 63584
  },
  {
    "temp": 199.54856872558594,
    "load": 119467,
    "rate": 1.9799501645565032,
    "requestedRate": 2.078758440383939,
    "time": 63797
  },
  {
    "temp": 199.30184936523438,
    "load": 119508,
    "rate": 2.0081103283166883,
    "requestedRate": 2.078758440383939,
    "time": 64030
  },
  {
    "temp": 199.07025146484375,
    "load": 119384,
    "rate": 1.9572911685705185,
    "requestedRate": 2.078758440383939,
    "time": 64255
  },
  {
    "temp": 198.81761169433594,
    "load": 119495,
    "rate": 2.025205913186073,
    "requestedRate": 2.078758440383939,
    "time": 64448
  },
  {
    "temp": 198.5719757080078,
    "load": 120407,
    "rate": 1.9686220961809158,
    "requestedRate": 2.078758440383939,
    "time": 64681
  },
  {
    "temp": 198.341064453125,
    "load": 120507,
    "rate": 2.015663986802101,
    "requestedRate": 2.078758440383939,
    "time": 64898
  },
  {
    "temp": 198.00213623046875,
    "load": 121013,
    "rate": 1.9878654062747956,
    "requestedRate": 2.078758440383939,
    "time": 65097
  },
  {
    "temp": 197.88772583007812,
    "load": 121440,
    "rate": 2.0226534962654115,
    "requestedRate": 2.078758440383939,
    "time": 65296
  },
  {
    "temp": 197.66561889648438,
    "load": 122111,
    "rate": 1.9965675973892212,
    "requestedRate": 2.078758440383939,
    "time": 65499
  },
  {
    "temp": 197.4333953857422,
    "load": 122122,
    "rate": 2.028865073919296,
    "requestedRate": 2.078758440383939,
    "time": 65711
  },
  {
    "temp": 197.091064453125,
    "load": 123557,
    "rate": 2.066411445736885,
    "requestedRate": 2.078758440383939,
    "time": 65926
  },
  {
    "temp": 196.869140625,
    "load": 124201,
    "rate": 2.042505383491516,
    "requestedRate": 2.078758440383939,
    "time": 66139
  },
  {
    "temp": 196.65338134765625,
    "load": 124655,
    "rate": 2.042476571202278,
    "requestedRate": 2.078758440383939,
    "time": 66379
  },
  {
    "temp": 196.4170379638672,
    "load": 124827,
    "rate": 2.0761825507879257,
    "requestedRate": 2.078758440383939,
    "time": 66615
  },
  {
    "temp": 196.0711212158203,
    "load": 125733,
    "rate": 2.0425286972522736,
    "requestedRate": 2.078758440383939,
    "time": 66822
  },
  {
    "temp": 195.85601806640625,
    "load": 125145,
    "rate": 2.0557583767175673,
    "requestedRate": 2.078758440383939,
    "time": 67017
  },
  {
    "temp": 195.7510986328125,
    "load": 125689,
    "rate": 2.0803242623806,
    "requestedRate": 2.078758440383939,
    "time": 67213
  },
  {
    "temp": 195.5037841796875,
    "load": 126323,
    "rate": 2.0362427794933318,
    "requestedRate": 2.078758440383939,
    "time": 67417
  },
  {
    "temp": 195.2718048095703,
    "load": 127081,
    "rate": 2.075089223384857,
    "requestedRate": 2.078758440383939,
    "time": 67629
  },
  {
    "temp": 194.95242309570312,
    "load": 128124,
    "rate": 2.0666316068172454,
    "requestedRate": 2.078758440383939,
    "time": 67843
  },
  {
    "temp": 194.71829223632812,
    "load": 128646,
    "rate": 2.0916556298732756,
    "requestedRate": 2.078758440383939,
    "time": 68039
  },
  {
    "temp": 194.60546875,
    "load": 128605,
    "rate": 2.040538229942322,
    "requestedRate": 2.078758440383939,
    "time": 68252
  },
  {
    "temp": 194.25746154785156,
    "load": 129735,
    "rate": 2.0979067969322203,
    "requestedRate": 2.078758440383939,
    "time": 68464
  },
  {
    "temp": 194.0319061279297,
    "load": 130708,
    "rate": 2.030610086917877,
    "requestedRate": 2.078758440383939,
    "time": 68679
  },
  {
    "temp": 193.8138427734375,
    "load": 130480,
    "rate": 2.104349092841148,
    "requestedRate": 2.078758440383939,
    "time": 68880
  },
  {
    "temp": 193.60057067871094,
    "load": 130554,
    "rate": 2.0588599866628647,
    "requestedRate": 2.078758440383939,
    "time": 69062
  },
  {
    "temp": 193.37400817871094,
    "load": 130815,
    "rate": 2.0848491114377974,
    "requestedRate": 2.078758440383939,
    "time": 69275
  },
  {
    "temp": 193.13890075683594,
    "load": 130822,
    "rate": 2.026738023161888,
    "requestedRate": 2.078758440383939,
    "time": 69466
  },
  {
    "temp": 192.9147186279297,
    "load": 130129,
    "rate": 2.034908396601677,
    "requestedRate": 2.078758440383939,
    "time": 69692
  },
  {
    "temp": 192.6770782470703,
    "load": 131775,
    "rate": 2.046296508908272,
    "requestedRate": 2.078758440383939,
    "time": 69926
  },
  {
    "temp": 192.32504272460938,
    "load": 131782,
    "rate": 2.0502888804674146,
    "requestedRate": 2.078758440383939,
    "time": 70149
  },
  {
    "temp": 192.0887908935547,
    "load": 132043,
    "rate": 2.045132580399513,
    "requestedRate": 2.078758440383939,
    "time": 70357
  },
  {
    "temp": 191.86387634277344,
    "load": 132697,
    "rate": 2.0441494435071945,
    "requestedRate": 2.078758440383939,
    "time": 70540
  },
  {
    "temp": 191.6155242919922,
    "load": 133328,
    "rate": 2.0240307676792146,
    "requestedRate": 2.078758440383939,
    "time": 70781
  },
  {
    "temp": 191.3828582763672,
    "load": 133187,
    "rate": 2.0098335671424867,
    "requestedRate": 2.078758440383939,
    "time": 70999
  },
  {
    "temp": 191.16026306152344,
    "load": 134176,
    "rate": 1.9968955296278,
    "requestedRate": 2.078758440383939,
    "time": 71232
  },
  {
    "temp": 190.9195098876953,
    "load": 134226,
    "rate": 1.9998739725351333,
    "requestedRate": 2.078758440383939,
    "time": 71468
  },
  {
    "temp": 190.55870056152344,
    "load": 134446,
    "rate": 2.0205436009168625,
    "requestedRate": 2.078758440383939,
    "time": 71691
  },
  {
    "temp": 190.32977294921875,
    "load": 135141,
    "rate": 2.022690006494522,
    "requestedRate": 2.078758440383939,
    "time": 71887
  },
  {
    "temp": 190.10955810546875,
    "load": 136227,
    "rate": 2.023672483563423,
    "requestedRate": 2.078758440383939,
    "time": 72093
  },
  {
    "temp": 189.87033081054688,
    "load": 137054,
    "rate": 2.008348744511604,
    "requestedRate": 2.078758440383939,
    "time": 72302
  },
  {
    "temp": 189.64353942871094,
    "load": 137804,
    "rate": 2.0491445267200468,
    "requestedRate": 2.078758440383939,
    "time": 72498
  },
  {
    "temp": 189.3837127685547,
    "load": 138658,
    "rate": 2.017102841734886,
    "requestedRate": 2.078758440383939,
    "time": 72712
  },
  {
    "temp": 189.15191650390625,
    "load": 138765,
    "rate": 2.091483196020126,
    "requestedRate": 2.078758440383939,
    "time": 72901
  },
  {
    "temp": 188.9216766357422,
    "load": 139565,
    "rate": 2.0459303069114685,
    "requestedRate": 2.078758440383939,
    "time": 73097
  },
  {
    "temp": 188.70062255859375,
    "load": 140029,
    "rate": 2.0628510385751726,
    "requestedRate": 2.078758440383939,
    "time": 73292
  },
  {
    "temp": 188.4608612060547,
    "load": 139813,
    "rate": 2.039287424683571,
    "requestedRate": 2.078758440383939,
    "time": 73507
  },
  {
    "temp": 188.2255096435547,
    "load": 140191,
    "rate": 2.0206320172548295,
    "requestedRate": 2.078758440383939,
    "time": 73721
  },
  {
    "temp": 188.00119018554688,
    "load": 141504,
    "rate": 2.022242426276207,
    "requestedRate": 2.078758440383939,
    "time": 73936
  },
  {
    "temp": 187.763427734375,
    "load": 141426,
    "rate": 1.9951670122146605,
    "requestedRate": 2.078758440383939,
    "time": 74138
  },
  {
    "temp": 187.51707458496094,
    "load": 141380,
    "rate": 2.0091154593229295,
    "requestedRate": 2.078758440383939,
    "time": 74360
  },
  {
    "temp": 187.28570556640625,
    "load": 142263,
    "rate": 2.014314208030701,
    "requestedRate": 2.078758440383939,
    "time": 74568
  },
  {
    "temp": 187.06393432617188,
    "load": 143123,
    "rate": 2.0504428392648695,
    "requestedRate": 2.078758440383939,
    "time": 74786
  },
  {
    "temp": 186.7263946533203,
    "load": 143998,
    "rate": 2.0200245398283005,
    "requestedRate": 2.078758440383939,
    "time": 75021
  },
  {
    "temp": 186.48484802246094,
    "load": 145043,
    "rate": 2.041519827246666,
    "requestedRate": 2.078758440383939,
    "time": 75238
  },
  {
    "temp": 186.22378540039062,
    "load": 145125,
    "rate": 1.997807405591011,
    "requestedRate": 2.078758440383939,
    "time": 75435
  },
  {
    "temp": 185.98301696777344,
    "load": 145007,
    "rate": 2.0379594200849533,
    "requestedRate": 2.078758440383939,
    "time": 75635
  },
  {
    "temp": 185.74496459960938,
    "load": 145972,
    "rate": 2.001387827396393,
    "requestedRate": 2.078758440383939,
    "time": 75825
  },
  {
    "temp": 185.49842834472656,
    "load": 147211,
    "rate": 2.032132299542427,
    "requestedRate": 2.078758440383939,
    "time": 76052
  },
  {
    "temp": 185.25669860839844,
    "load": 147615,
    "rate": 2.0053025597333907,
    "requestedRate": 2.078758440383939,
    "time": 76271
  },
  {
    "temp": 185.02830505371094,
    "load": 147730,
    "rate": 2.034906637072563,
    "requestedRate": 2.078758440383939,
    "time": 76484
  },
  {
    "temp": 184.7920379638672,
    "load": 149112,
    "rate": 1.9572561979293823,
    "requestedRate": 2.078758440383939,
    "time": 76751
  },
  {
    "temp": 184.4305419921875,
    "load": 148638,
    "rate": 1.9435778385400773,
    "requestedRate": 2.078758440383939,
    "time": 76963
  },
  {
    "temp": 184.2047119140625,
    "load": 150040,
    "rate": 2.0544798588752746,
    "requestedRate": 2.078758440383939,
    "time": 77180
  },
  {
    "temp": 183.97828674316406,
    "load": 150207,
    "rate": 2.1457123231887816,
    "requestedRate": 2.078758440383939,
    "time": 77382
  },
  {
    "temp": 183.735107421875,
    "load": 150990,
    "rate": 2.130949434041977,
    "requestedRate": 2.078758440383939,
    "time": 77596
  },
  {
    "temp": 183.50575256347656,
    "load": 152306,
    "rate": 2.034005538225174,
    "requestedRate": 2.078758440383939,
    "time": 77807
  },
  {
    "temp": 183.24432373046875,
    "load": 152919,
    "rate": 1.9853270655870436,
    "requestedRate": 2.078758440383939,
    "time": 78018
  },
  {
    "temp": 182.89938354492188,
    "load": 152240,
    "rate": 2.025934358239174,
    "requestedRate": 2.078758440383939,
    "time": 78225
  },
  {
    "temp": 182.7753143310547,
    "load": 153364,
    "rate": 1.9949690651893615,
    "requestedRate": 2.078758440383939,
    "time": 78422
  },
  {
    "temp": 182.4119415283203,
    "load": 154482,
    "rate": 2.0280273181200026,
    "requestedRate": 2.078758440383939,
    "time": 78641
  },
  {
    "temp": 182.1757354736328,
    "load": 154659,
    "rate": 2.0317201298475265,
    "requestedRate": 2.078758440383939,
    "time": 78849
  },
  {
    "temp": 181.9508514404297,
    "load": 156736,
    "rate": 2.05828528046608,
    "requestedRate": 2.078758440383939,
    "time": 79052
  },
  {
    "temp": 181.7250518798828,
    "load": 156894,
    "rate": 2.027369694113731,
    "requestedRate": 2.078758440383939,
    "time": 79256
  },
  {
    "temp": 181.4822540283203,
    "load": 156675,
    "rate": 2.059752287864685,
    "requestedRate": 2.078758440383939,
    "time": 79465
  },
  {
    "temp": 181.242919921875,
    "load": 157668,
    "rate": 2.029740219712257,
    "requestedRate": 2.078758440383939,
    "time": 79677
  },
  {
    "temp": 180.98532104492188,
    "load": 158287,
    "rate": 2.018490890264511,
    "requestedRate": 2.078758440383939,
    "time": 79877
  },
  {
    "temp": 180.7467498779297,
    "load": 158118,
    "rate": 2.0561800038814546,
    "requestedRate": 2.078758440383939,
    "time": 80087
  },
  {
    "temp": 180.52035522460938,
    "load": 158378,
    "rate": 2.0333855241537093,
    "requestedRate": 2.078758440383939,
    "time": 80299
  },
  {
    "temp": 180.27964782714844,
    "load": 159839,
    "rate": 2.0404861038923263,
    "requestedRate": 2.078758440383939,
    "time": 80516
  },
  {
    "temp": 180.07093811035156,
    "load": 160137,
    "rate": 2.019856724739075,
    "requestedRate": 2.078758440383939,
    "time": 80721
  },
  {
    "temp": 179.8434600830078,
    "load": 160379,
    "rate": 2.1026746809482573,
    "requestedRate": 2.078758440383939,
    "time": 80930
  },
  {
    "temp": 179.62786865234375,
    "load": 162352,
    "rate": 2.024673875570297,
    "requestedRate": 2.078758440383939,
    "time": 81137
  },
  {
    "temp": 179.4284210205078,
    "load": 162654,
    "rate": 2.0323982083797456,
    "requestedRate": 2.078758440383939,
    "time": 81358
  },
  {
    "temp": 179.10089111328125,
    "load": 162722,
    "rate": 1.986762181520462,
    "requestedRate": 2.078758440383939,
    "time": 81560
  },
  {
    "temp": 178.90675354003906,
    "load": 164044,
    "rate": 2.0520224565267564,
    "requestedRate": 2.078758440383939,
    "time": 82179
  },
  {
    "temp": 178.30784606933594,
    "load": 164975,
    "rate": 2.020422633290291,
    "requestedRate": 2.078758440383939,
    "time": 82367
  },
  {
    "temp": 178.2068328857422,
    "load": 165651,
    "rate": 2.0486437207460404,
    "requestedRate": 2.078758440383939,
    "time": 82554
  },
  {
    "temp": 177.8922119140625,
    "load": 166496,
    "rate": 2.040567262172699,
    "requestedRate": 2.078758440383939,
    "time": 82781
  },
  {
    "temp": 177.70294189453125,
    "load": 166878,
    "rate": 2.0172255688905714,
    "requestedRate": 2.078758440383939,
    "time": 82972
  },
  {
    "temp": 177.49302673339844,
    "load": 167962,
    "rate": 2.02709608733654,
    "requestedRate": 2.078758440383939,
    "time": 83165
  },
  {
    "temp": 177.38424682617188,
    "load": 168285,
    "rate": 1.985402945280075,
    "requestedRate": 2.078758440383939,
    "time": 83350
  },
  {
    "temp": 177.1934356689453,
    "load": 168882,
    "rate": 2.0268528324365613,
    "requestedRate": 2.078758440383939,
    "time": 83582
  },
  {
    "temp": 176.8843231201172,
    "load": 170117,
    "rate": 1.972754790186882,
    "requestedRate": 2.078758440383939,
    "time": 83798
  },
  {
    "temp": 176.6890869140625,
    "load": 170243,
    "rate": 1.9938214123249054,
    "requestedRate": 2.078758440383939,
    "time": 84015
  },
  {
    "temp": 176.489013671875,
    "load": 171485,
    "rate": 1.9874666529893874,
    "requestedRate": 2.078758440383939,
    "time": 84230
  },
  {
    "temp": 176.29266357421875,
    "load": 172529,
    "rate": 2.043354576230049,
    "requestedRate": 2.078758440383939,
    "time": 84432
  },
  {
    "temp": 176.09869384765625,
    "load": 174021,
    "rate": 2.0141373753547667,
    "requestedRate": 2.078758440383939,
    "time": 84639
  },
  {
    "temp": 175.88748168945312,
    "load": 174029,
    "rate": 2.0011441326141357,
    "requestedRate": 2.078758440383939,
    "time": 84867
  },
  {
    "temp": 175.6822967529297,
    "load": 175444,
    "rate": 2.019669114947319,
    "requestedRate": 2.078758440383939,
    "time": 85057
  },
  {
    "temp": 175.48951721191406,
    "load": 176227,
    "rate": 2.031821082830429,
    "requestedRate": 2.078758440383939,
    "time": 85276
  },
  {
    "temp": 175.31321716308594,
    "load": 176802,
    "rate": 2.0520693039894105,
    "requestedRate": 2.078758440383939,
    "time": 85495
  },
  {
    "temp": 174.99420166015625,
    "load": 177504,
    "rate": 2.093201376199722,
    "requestedRate": 2.078758440383939,
    "time": 85724
  },
  {
    "temp": 174.80328369140625,
    "load": 177943,
    "rate": 2.07140300989151,
    "requestedRate": 2.078758440383939,
    "time": 85929
  },
  {
    "temp": 174.59913635253906,
    "load": 178369,
    "rate": 2.0695827770233155,
    "requestedRate": 2.078758440383939,
    "time": 86166
  },
  {
    "temp": 174.3745574951172,
    "load": 178874,
    "rate": 2.0643437790870665,
    "requestedRate": 2.078758440383939,
    "time": 86374
  },
  {
    "temp": 174.1608428955078,
    "load": 179360,
    "rate": 2.030111700296402,
    "requestedRate": 2.078758440383939,
    "time": 86599
  },
  {
    "temp": 173.85130310058594,
    "load": 179847,
    "rate": 2.038196736574173,
    "requestedRate": 2.078758440383939,
    "time": 86824
  },
  {
    "temp": 173.64154052734375,
    "load": 181001,
    "rate": 1.9953511029481887,
    "requestedRate": 2.078758440383939,
    "time": 87033
  },
  {
    "temp": 173.44583129882812,
    "load": 181955,
    "rate": 2.0321147042512893,
    "requestedRate": 2.078758440383939,
    "time": 87264
  },
  {
    "temp": 173.23863220214844,
    "load": 182991,
    "rate": 2.018013617992401,
    "requestedRate": 2.078758440383939,
    "time": 87482
  },
  {
    "temp": 173.0377197265625,
    "load": 184300,
    "rate": 2.0486529582738875,
    "requestedRate": 2.078758440383939,
    "time": 87693
  },
  {
    "temp": 172.84765625,
    "load": 184413,
    "rate": 1.9678681379556655,
    "requestedRate": 2.078758440383939,
    "time": 87923
  },
  {
    "temp": 172.5380096435547,
    "load": 184449,
    "rate": 2.004057692885399,
    "requestedRate": 2.078758440383939,
    "time": 88135
  },
  {
    "temp": 172.309326171875,
    "load": 186735,
    "rate": 1.9829402643442153,
    "requestedRate": 2.078758440383939,
    "time": 88339
  },
  {
    "temp": 172.1014862060547,
    "load": 190616,
    "rate": 2.0405234938859937,
    "requestedRate": 2.078758440383939,
    "time": 88573
  },
  {
    "temp": 171.90701293945312,
    "load": 191499,
    "rate": 2.000495966076851,
    "requestedRate": 2.078758440383939,
    "time": 88782
  },
  {
    "temp": 171.70059204101562,
    "load": 192208,
    "rate": 2.042704210281372,
    "requestedRate": 2.078758440383939,
    "time": 88973
  },
  {
    "temp": 171.50018310546875,
    "load": 194548,
    "rate": 1.9628895503282546,
    "requestedRate": 2.078758440383939,
    "time": 89179
  },
  {
    "temp": 171.2848358154297,
    "load": 194994,
    "rate": 2.0007601153850554,
    "requestedRate": 2.078758440383939,
    "time": 89384
  },
  {
    "temp": 171.07701110839844,
    "load": 195763,
    "rate": 1.9618076598644256,
    "requestedRate": 2.078758440383939,
    "time": 89587
  },
  {
    "temp": 170.87571716308594,
    "load": 197449,
    "rate": 1.9696124911308288,
    "requestedRate": 2.078758440383939,
    "time": 89782
  },
  {
    "temp": 170.6649169921875,
    "load": 198187,
    "rate": 1.9790943735837936,
    "requestedRate": 2.078758440383939,
    "time": 89986
  },
  {
    "temp": 170.47537231445312,
    "load": 199624,
    "rate": 1.9885707575082778,
    "requestedRate": 2.078758440383939,
    "time": 90194
  },
  {
    "temp": 170.2772216796875,
    "load": 201268,
    "rate": 1.9751765620708466,
    "requestedRate": 2.078758440383939,
    "time": 90402
  },
  {
    "temp": 170.0803985595703,
    "load": 201263,
    "rate": 1.9541990160942078,
    "requestedRate": 2.078758440383939,
    "time": 90624
  },
  {
    "temp": 169.87588500976562,
    "load": 201943,
    "rate": 2.0359957855939865,
    "requestedRate": 2.078758440383939,
    "time": 90815
  },
  {
    "temp": 169.68353271484375,
    "load": 202939,
    "rate": 1.928221988081932,
    "requestedRate": 2.078758440383939,
    "time": 91020
  },
  {
    "temp": 169.4989776611328,
    "load": 202426,
    "rate": 2.027705544233322,
    "requestedRate": 2.078758440383939,
    "time": 91228
  },
  {
    "temp": 169.29208374023438,
    "load": 202147,
    "rate": 1.9737071353197098,
    "requestedRate": 2.078758440383939,
    "time": 91436
  },
  {
    "temp": 169.0811309814453,
    "load": 201793,
    "rate": 2.0919048231840134,
    "requestedRate": 2.078758440383939,
    "time": 91629
  },
  {
    "temp": 168.86756896972656,
    "load": 201160,
    "rate": 1.983315703868866,
    "requestedRate": 2.078758440383939,
    "time": 91845
  },
  {
    "temp": 168.56671142578125,
    "load": 199795,
    "rate": 2.0461792802810668,
    "requestedRate": 2.078758440383939,
    "time": 92040
  },
  {
    "temp": 168.4674835205078,
    "load": 201283,
    "rate": 1.9890145987272263,
    "requestedRate": 2.078758440383939,
    "time": 92241
  },
  {
    "temp": 168.2631072998047,
    "load": 202703,
    "rate": 2.020505331158638,
    "requestedRate": 2.078758440383939,
    "time": 92467
  },
  {
    "temp": 167.9615020751953,
    "load": 203363,
    "rate": 2.0573694455623626,
    "requestedRate": 2.078758440383939,
    "time": 92693
  },
  {
    "temp": 167.76171875,
    "load": 204791,
    "rate": 2.116528553366661,
    "requestedRate": 2.078758440383939,
    "time": 92901
  },
  {
    "temp": 167.5655517578125,
    "load": 205817,
    "rate": 2.0849241113662718,
    "requestedRate": 2.078758440383939,
    "time": 93116
  },
  {
    "temp": 167.36146545410156,
    "load": 204989,
    "rate": 2.080620303153992,
    "requestedRate": 2.078758440383939,
    "time": 93327
  },
  {
    "temp": 167.1608428955078,
    "load": 206704,
    "rate": 2.0669984686374665,
    "requestedRate": 2.078758440383939,
    "time": 93543
  },
  {
    "temp": 166.9624481201172,
    "load": 207758,
    "rate": 2.0430972450971603,
    "requestedRate": 2.078758440383939,
    "time": 93741
  },
  {
    "temp": 166.77401733398438,
    "load": 207862,
    "rate": 2.0833414149284364,
    "requestedRate": 2.078758440383939,
    "time": 93956
  },
  {
    "temp": 166.56463623046875,
    "load": 207759,
    "rate": 2.05873703956604,
    "requestedRate": 2.078758440383939,
    "time": 94133
  },
  {
    "temp": 166.36917114257812,
    "load": 208435,
    "rate": 2.08175321996212,
    "requestedRate": 2.078758440383939,
    "time": 94348
  },
  {
    "temp": 166.17405700683594,
    "load": 209086,
    "rate": 2.0490356558561325,
    "requestedRate": 2.078758440383939,
    "time": 94540
  },
  {
    "temp": 165.97064208984375,
    "load": 209279,
    "rate": 2.1037378764152526,
    "requestedRate": 2.078758440383939,
    "time": 94737
  },
  {
    "temp": 165.7704620361328,
    "load": 210573,
    "rate": 2.018886344432831,
    "requestedRate": 2.078758440383939,
    "time": 94957
  },
  {
    "temp": 165.47268676757812,
    "load": 212359,
    "rate": 2.053118863105774,
    "requestedRate": 2.078758440383939,
    "time": 95187
  },
  {
    "temp": 165.26736450195312,
    "load": 211231,
    "rate": 2.05012084543705,
    "requestedRate": 2.078758440383939,
    "time": 95405
  },
  {
    "temp": 165.07449340820312,
    "load": 213730,
    "rate": 2.1196957057714463,
    "requestedRate": 2.078758440383939,
    "time": 95606
  },
  {
    "temp": 164.88275146484375,
    "load": 216403,
    "rate": 2.0430255442857743,
    "requestedRate": 2.078758440383939,
    "time": 95847
  },
  {
    "temp": 164.68490600585938,
    "load": 217142,
    "rate": 2.063963500857353,
    "requestedRate": 2.078758440383939,
    "time": 96044
  },
  {
    "temp": 164.489990234375,
    "load": 218703,
    "rate": 2.0138771849870682,
    "requestedRate": 2.078758440383939,
    "time": 96274
  },
  {
    "temp": 164.30377197265625,
    "load": 219434,
    "rate": 2.044041452407837,
    "requestedRate": 2.078758440383939,
    "time": 96499
  },
  {
    "temp": 164.0042724609375,
    "load": 220117,
    "rate": 2.004275214672089,
    "requestedRate": 2.078758440383939,
    "time": 96692
  },
  {
    "temp": 163.79998779296875,
    "load": 222201,
    "rate": 2.0586033153533934,
    "requestedRate": 2.078758440383939,
    "time": 96904
  },
  {
    "temp": 163.5428924560547,
    "load": 223383,
    "rate": 2.0037082064151766,
    "requestedRate": 2.078758440383939,
    "time": 97106
  },
  {
    "temp": 163.42398071289062,
    "load": 223856,
    "rate": 2.017027841806412,
    "requestedRate": 2.078758440383939,
    "time": 97289
  },
  {
    "temp": 163.19808959960938,
    "load": 225417,
    "rate": 2.023055548667908,
    "requestedRate": 2.078758440383939,
    "time": 97523
  },
  {
    "temp": 162.8617401123047,
    "load": 228069,
    "rate": 2.034486109614372,
    "requestedRate": 2.078758440383939,
    "time": 97723
  },
  {
    "temp": 162.64703369140625,
    "load": 230530,
    "rate": 2.0737997084856032,
    "requestedRate": 2.078758440383939,
    "time": 97931
  },
  {
    "temp": 162.44815063476562,
    "load": 232454,
    "rate": 2.054472380876541,
    "requestedRate": 2.078758440383939,
    "time": 98122
  },
  {
    "temp": 162.22525024414062,
    "load": 234945,
    "rate": 2.0679842448234558,
    "requestedRate": 2.078758440383939,
    "time": 98336
  },
  {
    "temp": 162.0211181640625,
    "load": 234385,
    "rate": 2.042570046186447,
    "requestedRate": 2.078758440383939,
    "time": 98542
  },
  {
    "temp": 161.82901000976562,
    "load": 233930,
    "rate": 2.0776271241903306,
    "requestedRate": 2.078758440383939,
    "time": 98771
  },
  {
    "temp": 161.6377716064453,
    "load": 234980,
    "rate": 2.018649907708168,
    "requestedRate": 2.078758440383939,
    "time": 98969
  },
  {
    "temp": 161.4334259033203,
    "load": 234679,
    "rate": 2.0629645282030107,
    "requestedRate": 2.078758440383939,
    "time": 99172
  },
  {
    "temp": 161.2411651611328,
    "load": 234461,
    "rate": 2.0645861542224884,
    "requestedRate": 2.078758440383939,
    "time": 99373
  },
  {
    "temp": 161.02252197265625,
    "load": 236553,
    "rate": 2.098309729099274,
    "requestedRate": 2.078758440383939,
    "time": 99612
  },
  {
    "temp": 160.82113647460938,
    "load": 238617,
    "rate": 2.0585780221223833,
    "requestedRate": 2.078758440383939,
    "time": 99811
  },
  {
    "temp": 160.63076782226562,
    "load": 241225,
    "rate": 2.0434423327445983,
    "requestedRate": 2.078758440383939,
    "time": 100009
  },
  {
    "temp": 160.42015075683594,
    "load": 245532,
    "rate": 2.014247125983238,
    "requestedRate": 2.078758440383939,
    "time": 100211
  },
  {
    "temp": 160.21026611328125,
    "load": 248017,
    "rate": 1.9986796921491623,
    "requestedRate": 2.078758440383939,
    "time": 100420
  },
  {
    "temp": 160.0017852783203,
    "load": 249818,
    "rate": 2.0124768197536467,
    "requestedRate": 2.078758440383939,
    "time": 100618
  },
  {
    "temp": 159.81031799316406,
    "load": 250870,
    "rate": 2.0087373805046083,
    "requestedRate": 2.078758440383939,
    "time": 100819
  },
  {
    "temp": 159.62974548339844,
    "load": 251098,
    "rate": 2.0389768677949904,
    "requestedRate": 2.078758440383939,
    "time": 101006
  },
  {
    "temp": 159.4561309814453,
    "load": 253009,
    "rate": 2.002421110868454,
    "requestedRate": 2.078758440383939,
    "time": 101213
  },
  {
    "temp": 159.2740936279297,
    "load": 256025,
    "rate": 2.041482217311859,
    "requestedRate": 2.078758440383939,
    "time": 101402
  },
  {
    "temp": 159.08663940429688,
    "load": 258618,
    "rate": 1.9667031097412109,
    "requestedRate": 2.078758440383939,
    "time": 101613
  },
  {
    "temp": 158.90863037109375,
    "load": 258847,
    "rate": 1.9908473682403565,
    "requestedRate": 2.078758440383939,
    "time": 101823
  },
  {
    "temp": 158.7044219970703,
    "load": 260357,
    "rate": 1.9945524966716766,
    "requestedRate": 2.078758440383939,
    "time": 102037
  },
  {
    "temp": 158.5157012939453,
    "load": 262415,
    "rate": 2.0115086388587953,
    "requestedRate": 2.078758440383939,
    "time": 102214
  },
  {
    "temp": 158.33688354492188,
    "load": 262706,
    "rate": 2.0130466872453687,
    "requestedRate": 2.078758440383939,
    "time": 102422
  },
  {
    "temp": 158.14505004882812,
    "load": 263553,
    "rate": 2.0110406041145326,
    "requestedRate": 2.078758440383939,
    "time": 102639
  },
  {
    "temp": 157.95779418945312,
    "load": 264492,
    "rate": 1.9847767728567123,
    "requestedRate": 2.078758440383939,
    "time": 102826
  },
  {
    "temp": 157.75572204589844,
    "load": 262908,
    "rate": 1.9796985518932342,
    "requestedRate": 2.078758440383939,
    "time": 103039
  },
  {
    "temp": 157.568359375,
    "load": 260992,
    "rate": 2.0376563411951065,
    "requestedRate": 2.078758440383939,
    "time": 103238
  },
  {
    "temp": 157.38233947753906,
    "load": 261238,
    "rate": 1.961387352347374,
    "requestedRate": 2.078758440383939,
    "time": 103453
  },
  {
    "temp": 157.11184692382812,
    "load": 262217,
    "rate": 2.022848144173622,
    "requestedRate": 2.078758440383939,
    "time": 103689
  },
  {
    "temp": 156.94024658203125,
    "load": 261858,
    "rate": 1.9911662828922272,
    "requestedRate": 2.078758440383939,
    "time": 103884
  },
  {
    "temp": 156.74819946289062,
    "load": 263023,
    "rate": 2.044958167076111,
    "requestedRate": 2.078758440383939,
    "time": 104098
  },
  {
    "temp": 156.5672607421875,
    "load": 266002,
    "rate": 1.9631668961048125,
    "requestedRate": 2.078758440383939,
    "time": 104319
  },
  {
    "temp": 156.39341735839844,
    "load": 267022,
    "rate": 2.060037771463394,
    "requestedRate": 2.078758440383939,
    "time": 104531
  },
  {
    "temp": 156.21766662597656,
    "load": 269702,
    "rate": 2.0218434530496596,
    "requestedRate": 2.078758440383939,
    "time": 104746
  },
  {
    "temp": 156.0406951904297,
    "load": 270753,
    "rate": 2.0560451799631116,
    "requestedRate": 2.078758440383939,
    "time": 104977
  },
  {
    "temp": 155.75877380371094,
    "load": 272552,
    "rate": 1.9924148887395858,
    "requestedRate": 2.078758440383939,
    "time": 105199
  },
  {
    "temp": 155.58580017089844,
    "load": 275228,
    "rate": 2.0507228243350983,
    "requestedRate": 2.078758440383939,
    "time": 105418
  },
  {
    "temp": 155.39126586914062,
    "load": 278464,
    "rate": 1.9656839025020598,
    "requestedRate": 2.078758440383939,
    "time": 105649
  },
  {
    "temp": 155.20870971679688,
    "load": 279370,
    "rate": 2.040971733927727,
    "requestedRate": 2.078758440383939,
    "time": 105869
  },
  {
    "temp": 155.02577209472656,
    "load": 282230,
    "rate": 2.0053137767314912,
    "requestedRate": 2.078758440383939,
    "time": 106051
  },
  {
    "temp": 154.82647705078125,
    "load": 285238,
    "rate": 2.0332157295942306,
    "requestedRate": 2.078758440383939,
    "time": 106251
  },
  {
    "temp": 154.64088439941406,
    "load": 286276,
    "rate": 2.002596843838692,
    "requestedRate": 2.078758440383939,
    "time": 106452
  },
  {
    "temp": 154.4640655517578,
    "load": 286756,
    "rate": 2.0029773420095442,
    "requestedRate": 2.078758440383939,
    "time": 106667
  },
  {
    "temp": 154.2864227294922,
    "load": 289534,
    "rate": 2.029902756214142,
    "requestedRate": 2.078758440383939,
    "time": 106854
  },
  {
    "temp": 154.10824584960938,
    "load": 291921,
    "rate": 1.984404412508011,
    "requestedRate": 2.078758440383939,
    "time": 107053
  },
  {
    "temp": 153.9232940673828,
    "load": 290545,
    "rate": 2.0513844072818754,
    "requestedRate": 2.078758440383939,
    "time": 107300
  },
  {
    "temp": 153.64544677734375,
    "load": 292437,
    "rate": 2.016428722143173,
    "requestedRate": 2.078758440383939,
    "time": 107514
  },
  {
    "temp": 153.45297241210938,
    "load": 292881,
    "rate": 2.037139039635658,
    "requestedRate": 2.078758440383939,
    "time": 107764
  },
  {
    "temp": 153.27175903320312,
    "load": 295478,
    "rate": 2.032001874446869,
    "requestedRate": 2.078758440383939,
    "time": 107993
  },
  {
    "temp": 152.98426818847656,
    "load": 298655,
    "rate": 2.040553625822067,
    "requestedRate": 2.078758440383939,
    "time": 108240
  },
  {
    "temp": 152.79766845703125,
    "load": 297682,
    "rate": 2.045733899474144,
    "requestedRate": 2.078758440383939,
    "time": 108446
  },
  {
    "temp": 152.6040802001953,
    "load": 300440,
    "rate": 2.076319134235382,
    "requestedRate": 2.078758440383939,
    "time": 108687
  },
  {
    "temp": 152.40602111816406,
    "load": 301478,
    "rate": 2.0572695922851563,
    "requestedRate": 2.078758440383939,
    "time": 108877
  },
  {
    "temp": 152.22122192382812,
    "load": 302146,
    "rate": 2.0798553478717805,
    "requestedRate": 2.078758440383939,
    "time": 109098
  },
  {
    "temp": 152.044921875,
    "load": 305792,
    "rate": 2.0253574526309968,
    "requestedRate": 2.078758440383939,
    "time": 109291
  },
  {
    "temp": 151.8482666015625,
    "load": 308421,
    "rate": 2.0038692033290864,
    "requestedRate": 2.078758440383939,
    "time": 109499
  },
  {
    "temp": 151.6643524169922,
    "load": 309944,
    "rate": 1.9614995223283767,
    "requestedRate": 2.078758440383939,
    "time": 109700
  },
  {
    "temp": 151.4886016845703,
    "load": 314028,
    "rate": 2.0454492956399917,
    "requestedRate": 2.078758440383939,
    "time": 109900
  },
  {
    "temp": 151.31004333496094,
    "load": 320456,
    "rate": 2.0060767525434495,
    "requestedRate": 2.078758440383939,
    "time": 110133
  },
  {
    "temp": 151.0293426513672,
    "load": 324912,
    "rate": 2.0408415287733077,
    "requestedRate": 2.078758440383939,
    "time": 110345
  },
  {
    "temp": 150.85006713867188,
    "load": 323316,
    "rate": 2.014089868068695,
    "requestedRate": 2.078758440383939,
    "time": 110578
  },
  {
    "temp": 150.67727661132812,
    "load": 321406,
    "rate": 2.041058830618858,
    "requestedRate": 2.078758440383939,
    "time": 110814
  },
  {
    "temp": 150.49253845214844,
    "load": 316887,
    "rate": 2.027015148997307,
    "requestedRate": 2.078758440383939,
    "time": 111019
  },
  {
    "temp": 150.30819702148438,
    "load": 318860,
    "rate": 2.087536132335663,
    "requestedRate": 2.078758440383939,
    "time": 111214
  },
  {
    "temp": 150.12411499023438,
    "load": 323928,
    "rate": 2.0365625739097597,
    "requestedRate": 2.078758440383939,
    "time": 111418
  },
  {
    "temp": 149.94827270507812,
    "load": 327217,
    "rate": 2.071102570295334,
    "requestedRate": 2.078758440383939,
    "time": 111601
  },
  {
    "temp": 149.77769470214844,
    "load": 330722,
    "rate": 2.048233090639114,
    "requestedRate": 2.078758440383939,
    "time": 111821
  },
  {
    "temp": 149.61048889160156,
    "load": 336042,
    "rate": 2.0239423513412476,
    "requestedRate": 2.078758440383939,
    "time": 112052
  },
  {
    "temp": 149.32986450195312,
    "load": 338237,
    "rate": 2.005778292417526,
    "requestedRate": 2.078758440383939,
    "time": 112252
  },
  {
    "temp": 149.14974975585938,
    "load": 338592,
    "rate": 2.0447320675849916,
    "requestedRate": 2.078758440383939,
    "time": 112497
  },
  {
    "temp": 148.9844970703125,
    "load": 342464,
    "rate": 2.0218342155218125,
    "requestedRate": 2.078758440383939,
    "time": 112725
  },
  {
    "temp": 148.81263732910156,
    "load": 346331,
    "rate": 1.9736873406171798,
    "requestedRate": 2.078758440383939,
    "time": 112921
  },
  {
    "temp": 148.6446075439453,
    "load": 352147,
    "rate": 2.0099230831861497,
    "requestedRate": 2.078758440383939,
    "time": 113137
  },
  {
    "temp": 148.4790496826172,
    "load": 356025,
    "rate": 1.9939753711223602,
    "requestedRate": 2.078758440383939,
    "time": 113360
  },
  {
    "temp": 148.30215454101562,
    "load": 356445,
    "rate": 2.015802989602089,
    "requestedRate": 2.078758440383939,
    "time": 113558
  },
  {
    "temp": 148.02545166015625,
    "load": 354646,
    "rate": 2.0258859711885453,
    "requestedRate": 2.078758440383939,
    "time": 113764
  },
  {
    "temp": 147.8506317138672,
    "load": 356163,
    "rate": 2.057806688547134,
    "requestedRate": 2.078758440383939,
    "time": 113974
  },
  {
    "temp": 147.6807098388672,
    "load": 360110,
    "rate": 1.9428762263059616,
    "requestedRate": 2.078758440383939,
    "time": 114192
  },
  {
    "temp": 147.4945831298828,
    "load": 365529,
    "rate": 1.98339928150177,
    "requestedRate": 2.078758440383939,
    "time": 114390
  },
  {
    "temp": 147.31741333007812,
    "load": 373086,
    "rate": 1.979524358510971,
    "requestedRate": 2.078758440383939,
    "time": 114602
  },
  {
    "temp": 147.13954162597656,
    "load": 383537,
    "rate": 2.0054294657707215,
    "requestedRate": 2.078758440383939,
    "time": 114818
  },
  {
    "temp": 146.96766662597656,
    "load": 384238,
    "rate": 1.9530062752962112,
    "requestedRate": 2.078758440383939,
    "time": 115039
  },
  {
    "temp": 146.79962158203125,
    "load": 390358,
    "rate": 2.0058082044124603,
    "requestedRate": 2.078758440383939,
    "time": 115251
  },
  {
    "temp": 146.634033203125,
    "load": 397104,
    "rate": 1.8911471700668334,
    "requestedRate": 2.078758440383939,
    "time": 115463
  },
  {
    "temp": 146.37301635742188,
    "load": 401476,
    "rate": 1.9478356790542601,
    "requestedRate": 2.078758440383939,
    "time": 115709
  },
  {
    "temp": 146.20623779296875,
    "load": 415148,
    "rate": 1.9571290719509125,
    "requestedRate": 2.078758440383939,
    "time": 115917
  },
  {
    "temp": 146.02210998535156,
    "load": 429961,
    "rate": 1.9728867548704148,
    "requestedRate": 2.078758440383939,
    "time": 116119
  },
  {
    "temp": 145.8462371826172,
    "load": 432980,
    "rate": 1.9485447692871094,
    "requestedRate": 2.078758440383939,
    "time": 116344
  },
  {
    "temp": 145.67564392089844,
    "load": 437810,
    "rate": 1.9822962766885757,
    "requestedRate": 2.078758440383939,
    "time": 116544
  },
  {
    "temp": 145.5084228515625,
    "load": 446248,
    "rate": 1.978592467904091,
    "requestedRate": 2.078758440383939,
    "time": 116760
  },
  {
    "temp": 145.33529663085938,
    "load": 455420,
    "rate": 1.997574707865715,
    "requestedRate": 2.078758440383939,
    "time": 116979
  },
  {
    "temp": 145.07867431640625,
    "load": 468536,
    "rate": 2.0379822939634322,
    "requestedRate": 2.078758440383939,
    "time": 117173
  },
  {
    "temp": 144.9761962890625,
    "load": 480536,
    "rate": 1.9928756654262543,
    "requestedRate": 2.078758440383939,
    "time": 117367
  },
  {
    "temp": 144.79637145996094,
    "load": 487365,
    "rate": 2.025291030406952,
    "requestedRate": 2.078758440383939,
    "time": 117591
  },
  {
    "temp": 144.54737854003906,
    "load": 492364,
    "rate": 1.9710898357629776,
    "requestedRate": 2.078758440383939,
    "time": 117807
  },
  {
    "temp": 144.38006591796875,
    "load": 507591,
    "rate": 2.025775340795517,
    "requestedRate": 2.078758440383939,
    "time": 118009
  },
  {
    "temp": 144.21493530273438,
    "load": 533058,
    "rate": 1.9170458990335464,
    "requestedRate": 2.078758440383939,
    "time": 118210
  },
  {
    "temp": 144.0512237548828,
    "load": 559883,
    "rate": 1.9281188356876373,
    "requestedRate": 2.078758440383939,
    "time": 118442
  },
  {
    "temp": 143.88841247558594,
    "load": 582708,
    "rate": 1.8964561092853547,
    "requestedRate": 2.078758440383939,
    "time": 118672
  },
  {
    "temp": 143.71005249023438,
    "load": 592415,
    "rate": 1.9537078875303269,
    "requestedRate": 2.078758440383939,
    "time": 118871
  },
  {
    "temp": 143.52980041503906,
    "load": 597586,
    "rate": 1.9542850130796432,
    "requestedRate": 2.078758440383939,
    "time": 119098
  },
  {
    "temp": 143.2694854736328,
    "load": 622636,
    "rate": 2.0195842176675796,
    "requestedRate": 2.078758440383939,
    "time": 119341
  },
  {
    "temp": 143.10435485839844,
    "load": 648339,
    "rate": 1.9818293416500092,
    "requestedRate": 2.078758440383939,
    "time": 119541
  },
  {
    "temp": 142.93418884277344,
    "load": 673711,
    "rate": 2.0325902169942855,
    "requestedRate": 2.078758440383939,
    "time": 119760
  },
  {
    "temp": 142.75917053222656,
    "load": 690942,
    "rate": 1.9731306695938111,
    "requestedRate": 2.078758440383939,
    "time": 120011
  },
  {
    "temp": 142.48155212402344,
    "load": 679380,
    "rate": -1.4134016945958137,
    "requestedRate": 2.078758440383939,
    "time": 120230
  }
]