[
  {
    "temp": 288.3960876464844,
    "load": 112191,
    "rate": 8.909105579853058,
    "requestedRate": 8.315033761535757,
    "time": 52
  },
  {
    "temp": 288.3910827636719,
    "load": 112633,
    "rate": 9.02386118888855,
    "requestedRate": 8.315033761535757,
    "time": 222
  },
  {
    "temp": 288.3893127441406,
    "load": 120807,
    "rate": 9.070737683773041,
    "requestedRate": 8.315033761535757,
    "time": 378
  },
  {
    "temp": 288.3867492675781,
    "load": 125013,
    "rate": 9.045620405673981,
    "requestedRate": 8.315033761535757,
    "time": 519
  },
  {
    "temp": 288.3858337402344,
    "load": 127867,
    "rate": 9.052880222797393,
    "requestedRate": 8.315033761535757,
    "time": 662
  },
  {
    "temp": 288.384521484375,
    "load": 132052,
    "rate": 9.09255672454834,
    "requestedRate": 8.315033761535757,
    "time": 837
  },
  {
    "temp": 288.3840637207031,
    "load": 133504,
    "rate": 8.998640098571776,
    "requestedRate": 8.315033761535757,
    "time": 1013
  },
  {
    "temp": 288.3833923339844,
    "load": 134248,
    "rate": 8.975006103515625,
    "requestedRate": 8.315033761535757,
    "time": 1194
  },
  {
    "temp": 288.3829650878906,
    "load": 135219,
    "rate": 8.915775074958802,
    "requestedRate": 8.315033761535757,
    "time": 1389
  },
  {
    "temp": 288.3826904296875,
    "load": 136769,
    "rate": 8.920829322338104,
    "requestedRate": 8.315033761535757,
    "time": 1567
  },
  {
    "temp": 288.38250732421875,
    "load": 136644,
    "rate": 8.917915542125701,
    "requestedRate": 8.315033761535757,
    "time": 1724
  },
  {
    "temp": 288.3824462890625,
    "load": 135881,
    "rate": 8.99680666923523,
    "requestedRate": 8.315033761535757,
    "time": 1890
  },
  {
    "temp": 288.3823547363281,
    "load": 133481,
    "rate": 8.967884409427644,
    "requestedRate": 8.315033761535757,
    "time": 2060
  },
  {
    "temp": 288.3822937011719,
    "load": 132509,
    "rate": 8.87236925125122,
    "requestedRate": 8.315033761535757,
    "time": 2224
  },
  {
    "temp": 288.38226318359375,
    "load": 132024,
    "rate": 8.950121083259582,
    "requestedRate": 8.315033761535757,
    "time": 2393
  },
  {
    "temp": 288.3822326660156,
    "load": 134201,
    "rate": 8.901647815704345,
    "requestedRate": 8.315033761535757,
    "time": 2575
  },
  {
    "temp": 288.3822326660156,
    "load": 133991,
    "rate": 8.91386070728302,
    "requestedRate": 8.315033761535757,
    "time": 2727
  },
  {
    "temp": 288.3822326660156,
    "load": 132934,
    "rate": 8.994836876392364,
    "requestedRate": 8.315033761535757,
    "time": 2930
  },
  {
    "temp": 288.3822326660156,
    "load": 132382,
    "rate": 9.125337631702424,
    "requestedRate": 8.315033761535757,
    "time": 3109
  },
  {
    "temp": 288.2551574707031,
    "load": 132494,
    "rate": 9.113119461536407,
    "requestedRate": 8.315033761535757,
    "time": 3283
  },
  {
    "temp": 288.06365966796875,
    "load": 133140,
    "rate": 9.1653950715065,
    "requestedRate": 8.315033761535757,
    "time": 3455
  },
  {
    "temp": 288.0002746582031,
    "load": 133699,
    "rate": 9.113642921447754,
    "requestedRate": 8.315033761535757,
    "time": 3643
  },
  {
    "temp": 287.8327941894531,
    "load": 133472,
    "rate": 9.110919170379638,
    "requestedRate": 8.315033761535757,
    "time": 3832
  },
  {
    "temp": 287.7255859375,
    "load": 133783,
    "rate": 9.143542599678039,
    "requestedRate": 8.315033761535757,
    "time": 4032
  },
  {
    "temp": 287.656982421875,
    "load": 133992,
    "rate": 9.066443552970886,
    "requestedRate": 8.315033761535757,
    "time": 4172
  },
  {
    "temp": 287.6130676269531,
    "load": 133185,
    "rate": 8.996414294242859,
    "requestedRate": 8.315033761535757,
    "time": 4352
  },
  {
    "temp": 287.5974426269531,
    "load": 132061,
    "rate": 8.87498479127884,
    "requestedRate": 8.315033761535757,
    "time": 4546
  },
  {
    "temp": 287.5749816894531,
    "load": 133552,
    "rate": 8.939790887832642,
    "requestedRate": 8.315033761535757,
    "time": 4733
  },
  {
    "temp": 287.4335021972656,
    "load": 134697,
    "rate": 8.978336012363433,
    "requestedRate": 8.315033761535757,
    "time": 4920
  },
  {
    "temp": 287.1650695800781,
    "load": 134376,
    "rate": 9.090363471508025,
    "requestedRate": 8.315033761535757,
    "time": 5087
  },
  {
    "temp": 286.9932556152344,
    "load": 137462,
    "rate": 9.010962960720063,
    "requestedRate": 8.315033761535757,
    "time": 5270
  },
  {
    "temp": 286.9321594238281,
    "load": 140723,
    "rate": 8.90337479352951,
    "requestedRate": 8.315033761535757,
    "time": 5438
  },
  {
    "temp": 286.8442077636719,
    "load": 141095,
    "rate": 8.99312397480011,
    "requestedRate": 8.315033761535757,
    "time": 5636
  },
  {
    "temp": 286.70318603515625,
    "load": 141684,
    "rate": 9.027062652111054,
    "requestedRate": 8.315033761535757,
    "time": 5804
  },
  {
    "temp": 286.3926696777344,
    "load": 142110,
    "rate": 9.103997182846069,
    "requestedRate": 8.315033761535757,
    "time": 5969
  },
  {
    "temp": 286.2822570800781,
    "load": 141626,
    "rate": 9.15496018409729,
    "requestedRate": 8.315033761535757,
    "time": 6152
  },
  {
    "temp": 286.123291015625,
    "load": 141614,
    "rate": 9.220559828281402,
    "requestedRate": 8.315033761535757,
    "time": 6342
  },
  {
    "temp": 286.02154541015625,
    "load": 140417,
    "rate": 9.155210916996001,
    "requestedRate": 8.315033761535757,
    "time": 6541
  },
  {
    "temp": 285.71923828125,
    "load": 138426,
    "rate": 9.133617975711822,
    "requestedRate": 8.315033761535757,
    "time": 6728
  },
  {
    "temp": 285.4579772949219,
    "load": 138787,
    "rate": 9.069448828697205,
    "requestedRate": 8.315033761535757,
    "time": 6916
  },
  {
    "temp": 285.290771484375,
    "load": 137392,
    "rate": 8.959871513843536,
    "requestedRate": 8.315033761535757,
    "time": 7118
  },
  {
    "temp": 285.1413879394531,
    "load": 136831,
    "rate": 9.067969944477081,
    "requestedRate": 8.315033761535757,
    "time": 7298
  },
  {
    "temp": 284.78314208984375,
    "load": 135188,
    "rate": 9.065674638748169,
    "requestedRate": 8.315033761535757,
    "time": 7483
  },
  {
    "temp": 284.65576171875,
    "load": 133027,
    "rate": 9.053208374977112,
    "requestedRate": 8.315033761535757,
    "time": 7638
  },
  {
    "temp": 284.42999267578125,
    "load": 131619,
    "rate": 8.966103765964508,
    "requestedRate": 8.315033761535757,
    "time": 7825
  },
  {
    "temp": 284.09063720703125,
    "load": 131266,
    "rate": 8.985923101902008,
    "requestedRate": 8.315033761535757,
    "time": 8019
  },
  {
    "temp": 283.8056640625,
    "load": 133526,
    "rate": 8.918795306682586,
    "requestedRate": 8.315033761535757,
    "time": 8197
  },
  {
    "temp": 283.704345703125,
    "load": 132779,
    "rate": 9.094142060279847,
    "requestedRate": 8.315033761535757,
    "time": 8358
  },
  {
    "temp": 283.3890075683594,
    "load": 134124,
    "rate": 8.999711651802063,
    "requestedRate": 8.315033761535757,
    "time": 8548
  },
  {
    "temp": 283.0516662597656,
    "load": 135270,
    "rate": 9.023942127227784,
    "requestedRate": 8.315033761535757,
    "time": 8737
  },
  {
    "temp": 282.75103759765625,
    "load": 135335,
    "rate": 9.123108308315278,
    "requestedRate": 8.315033761535757,
    "time": 8898
  },
  {
    "temp": 282.56414794921875,
    "load": 133449,
    "rate": 9.202505300045013,
    "requestedRate": 8.315033761535757,
    "time": 9071
  },
  {
    "temp": 282.21875,
    "load": 132220,
    "rate": 9.267279725074768,
    "requestedRate": 8.315033761535757,
    "time": 9275
  },
  {
    "temp": 281.9553527832031,
    "load": 132816,
    "rate": 9.090937077999115,
    "requestedRate": 8.315033761535757,
    "time": 9441
  },
  {
    "temp": 281.55804443359375,
    "load": 133818,
    "rate": 9.170041108131409,
    "requestedRate": 8.315033761535757,
    "time": 9611
  },
  {
    "temp": 281.2698669433594,
    "load": 136054,
    "rate": 9.12661768913269,
    "requestedRate": 8.315033761535757,
    "time": 9799
  },
  {
    "temp": 280.88787841796875,
    "load": 134980,
    "rate": 8.908897075653076,
    "requestedRate": 8.315033761535757,
    "time": 10004
  },
  {
    "temp": 280.6971740722656,
    "load": 133115,
    "rate": 8.915941350460052,
    "requestedRate": 8.315033761535757,
    "time": 10179
  },
  {
    "temp": 280.4225769042969,
    "load": 133972,
    "rate": 9.121575758457183,
    "requestedRate": 8.315033761535757,
    "time": 10365
  },
  {
    "temp": 280.0232849121094,
    "load": 135261,
    "rate": 9.046740345954895,
    "requestedRate": 8.315033761535757,
    "time": 10534
  },
  {
    "temp": 279.76776123046875,
    "load": 136321,
    "rate": 9.04702978849411,
    "requestedRate": 8.315033761535757,
    "time": 10708
  },
  {
    "temp": 279.6769104003906,
    "load": 137010,
    "rate": 9.04931981563568,
    "requestedRate": 8.315033761535757,
    "time": 10875
  },
  {
    "temp": 279.3473815917969,
    "load": 137323,
    "rate": 9.004930415153503,
    "requestedRate": 8.315033761535757,
    "time": 11037
  },
  {
    "temp": 279.1116638183594,
    "load": 139248,
    "rate": 9.004636573791505,
    "requestedRate": 8.315033761535757,
    "time": 11207
  },
  {
    "temp": 278.7373046875,
    "load": 140463,
    "rate": 8.988899345397948,
    "requestedRate": 8.315033761535757,
    "time": 11396
  },
  {
    "temp": 278.60418701171875,
    "load": 140168,
    "rate": 9.087740893363952,
    "requestedRate": 8.315033761535757,
    "time": 11582
  },
  {
    "temp": 278.3193359375,
    "load": 138373,
    "rate": 9.106904804706573,
    "requestedRate": 8.315033761535757,
    "time": 11771
  },
  {
    "temp": 278.031494140625,
    "load": 139724,
    "rate": 9.25855246067047,
    "requestedRate": 8.315033761535757,
    "time": 11946
  },
  {
    "temp": 277.7914123535156,
    "load": 139513,
    "rate": 9.300174121856688,
    "requestedRate": 8.315033761535757,
    "time": 12117
  },
  {
    "temp": 277.59912109375,
    "load": 138771,
    "rate": 9.14287309885025,
    "requestedRate": 8.315033761535757,
    "time": 12291
  },
  {
    "temp": 277.32220458984375,
    "load": 137436,
    "rate": 9.045533308982849,
    "requestedRate": 8.315033761535757,
    "time": 12456
  },
  {
    "temp": 277.02081298828125,
    "load": 138180,
    "rate": 9.128409769535065,
    "requestedRate": 8.315033761535757,
    "time": 12648
  },
  {
    "temp": 276.72857666015625,
    "load": 139149,
    "rate": 9.017486414909362,
    "requestedRate": 8.315033761535757,
    "time": 12834
  },
  {
    "temp": 276.5936279296875,
    "load": 138871,
    "rate": 8.971436898708344,
    "requestedRate": 8.315033761535757,
    "time": 13006
  },
  {
    "temp": 276.2813415527344,
    "load": 139434,
    "rate": 8.919329323768615,
    "requestedRate": 8.315033761535757,
    "time": 13197
  },
  {
    "temp": 276.03179931640625,
    "load": 139828,
    "rate": 9.083277847766876,
    "requestedRate": 8.315033761535757,
    "time": 13353
  },
  {
    "temp": 275.6982421875,
    "load": 140459,
    "rate": 9.016311929225921,
    "requestedRate": 8.315033761535757,
    "time": 13548
  },
  {
    "temp": 275.43511962890625,
    "load": 141519,
    "rate": 9.07766494989395,
    "requestedRate": 8.315033761535757,
    "time": 13711
  },
  {
    "temp": 275.2484436035156,
    "load": 142043,
    "rate": 8.975116074085236,
    "requestedRate": 8.315033761535757,
    "time": 13911
  },
  {
    "temp": 274.9237365722656,
    "load": 142348,
    "rate": 9.128700091838837,
    "requestedRate": 8.315033761535757,
    "time": 14067
  },
  {
    "temp": 274.54205322265625,
    "load": 143989,
    "rate": 8.982965333461761,
    "requestedRate": 8.315033761535757,
    "time": 14248
  },
  {
    "temp": 274.24810791015625,
    "load": 144584,
    "rate": 8.981823399066926,
    "requestedRate": 8.315033761535757,
    "time": 14422
  },
  {
    "temp": 274.0815124511719,
    "load": 144494,
    "rate": 9.055238871574401,
    "requestedRate": 8.315033761535757,
    "time": 14583
  },
  {
    "temp": 273.7298583984375,
    "load": 145264,
    "rate": 9.115859928131103,
    "requestedRate": 8.315033761535757,
    "time": 14781
  },
  {
    "temp": 273.380615234375,
    "load": 145376,
    "rate": 9.193857214450835,
    "requestedRate": 8.315033761535757,
    "time": 14968
  },
  {
    "temp": 273.0577697753906,
    "load": 144884,
    "rate": 9.164789793491364,
    "requestedRate": 8.315033761535757,
    "time": 15146
  },
  {
    "temp": 272.7083435058594,
    "load": 144836,
    "rate": 9.199341666698455,
    "requestedRate": 8.315033761535757,
    "time": 15309
  },
  {
    "temp": 272.53924560546875,
    "load": 143267,
    "rate": 9.135615041255951,
    "requestedRate": 8.315033761535757,
    "time": 15474
  },
  {
    "temp": 272.2026672363281,
    "load": 143021,
    "rate": 8.970239539146423,
    "requestedRate": 8.315033761535757,
    "time": 15665
  },
  {
    "temp": 271.85687255859375,
    "load": 144479,
    "rate": 8.966941301822661,
    "requestedRate": 8.315033761535757,
    "time": 15845
  },
  {
    "temp": 271.5113830566406,
    "load": 145157,
    "rate": 9.047177588939666,
    "requestedRate": 8.315033761535757,
    "time": 16028
  },
  {
    "temp": 271.3333435058594,
    "load": 146155,
    "rate": 9.088274030685424,
    "requestedRate": 8.315033761535757,
    "time": 16221
  },
  {
    "temp": 270.95281982421875,
    "load": 146614,
    "rate": 9.042866742610931,
    "requestedRate": 8.315033761535757,
    "time": 16373
  },
  {
    "temp": 270.60992431640625,
    "load": 146751,
    "rate": 8.970112853050232,
    "requestedRate": 8.315033761535757,
    "time": 16555
  },
  {
    "temp": 270.4259338378906,
    "load": 147065,
    "rate": 9.106169321537017,
    "requestedRate": 8.315033761535757,
    "time": 16713
  },
  {
    "temp": 270.0492248535156,
    "load": 149078,
    "rate": 8.995749192237854,
    "requestedRate": 8.315033761535757,
    "time": 16894
  },
  {
    "temp": 269.6839599609375,
    "load": 149031,
    "rate": 8.96833132982254,
    "requestedRate": 8.315033761535757,
    "time": 17080
  },
  {
    "temp": 269.350830078125,
    "load": 148364,
    "rate": 8.966395847797394,
    "requestedRate": 8.315033761535757,
    "time": 17279
  },
  {
    "temp": 268.91412353515625,
    "load": 148218,
    "rate": 9.063715403079986,
    "requestedRate": 8.315033761535757,
    "time": 17444
  },
  {
    "temp": 268.75885009765625,
    "load": 148587,
    "rate": 9.202808818817138,
    "requestedRate": 8.315033761535757,
    "time": 17609
  },
  {
    "temp": 268.41107177734375,
    "load": 148315,
    "rate": 9.238621394634247,
    "requestedRate": 8.315033761535757,
    "time": 17799
  },
  {
    "temp": 268.05810546875,
    "load": 149167,
    "rate": 9.215130801200866,
    "requestedRate": 8.315033761535757,
    "time": 17969
  },
  {
    "temp": 267.82568359375,
    "load": 148803,
    "rate": 9.120216522216797,
    "requestedRate": 8.315033761535757,
    "time": 18144
  },
  {
    "temp": 267.4909973144531,
    "load": 148826,
    "rate": 9.089417724609374,
    "requestedRate": 8.315033761535757,
    "time": 18332
  },
  {
    "temp": 267.0532531738281,
    "load": 149614,
    "rate": 9.057749719619752,
    "requestedRate": 8.315033761535757,
    "time": 18516
  },
  {
    "temp": 266.7420654296875,
    "load": 150418,
    "rate": 9.022704298496246,
    "requestedRate": 8.315033761535757,
    "time": 18686
  },
  {
    "temp": 266.5245056152344,
    "load": 150824,
    "rate": 8.998789658546448,
    "requestedRate": 8.315033761535757,
    "time": 18856
  },
  {
    "temp": 266.1801452636719,
    "load": 152283,
    "rate": 8.939331650733948,
    "requestedRate": 8.315033761535757,
    "time": 19016
  },
  {
    "temp": 265.7921447753906,
    "load": 152663,
    "rate": 9.109693658351897,
    "requestedRate": 8.315033761535757,
    "time": 19178
  },
  {
    "temp": 265.3948059082031,
    "load": 153687,
    "rate": 9.098003346920013,
    "requestedRate": 8.315033761535757,
    "time": 19358
  },
  {
    "temp": 265.1983337402344,
    "load": 156282,
    "rate": 8.976740119457245,
    "requestedRate": 8.315033761535757,
    "time": 19534
  },
  {
    "temp": 264.7415771484375,
    "load": 157033,
    "rate": 9.038325397968292,
    "requestedRate": 8.315033761535757,
    "time": 19734
  },
  {
    "temp": 264.3064270019531,
    "load": 159226,
    "rate": 9.040682287216187,
    "requestedRate": 8.315033761535757,
    "time": 19905
  },
  {
    "temp": 263.8975524902344,
    "load": 157130,
    "rate": 8.988652131557464,
    "requestedRate": 8.315033761535757,
    "time": 20088
  },
  {
    "temp": 263.4620361328125,
    "load": 157175,
    "rate": 9.079462308883667,
    "requestedRate": 8.315033761535757,
    "time": 20282
  },
  {
    "temp": 263.04052734375,
    "load": 159423,
    "rate": 9.123885140419006,
    "requestedRate": 8.315033761535757,
    "time": 20477
  },
  {
    "temp": 262.8182067871094,
    "load": 157856,
    "rate": 9.2230513215065,
    "requestedRate": 8.315033761535757,
    "time": 20652
  },
  {
    "temp": 262.4049377441406,
    "load": 158065,
    "rate": 9.166633780002593,
    "requestedRate": 8.315033761535757,
    "time": 20825
  },
  {
    "temp": 262.0100402832031,
    "load": 158403,
    "rate": 9.131512699127198,
    "requestedRate": 8.315033761535757,
    "time": 21009
  },
  {
    "temp": 261.5834655761719,
    "load": 161191,
    "rate": 9.045574657917022,
    "requestedRate": 8.315033761535757,
    "time": 21170
  },
  {
    "temp": 261.4042053222656,
    "load": 163079,
    "rate": 9.06867903470993,
    "requestedRate": 8.315033761535757,
    "time": 21345
  },
  {
    "temp": 260.9473876953125,
    "load": 159651,
    "rate": 8.86566808462143,
    "requestedRate": 8.315033761535757,
    "time": 21523
  },
  {
    "temp": 260.5355529785156,
    "load": 157538,
    "rate": 8.889612636566161,
    "requestedRate": 8.315033761535757,
    "time": 21721
  },
  {
    "temp": 260.19622802734375,
    "load": 159569,
    "rate": 9.024265880584716,
    "requestedRate": 8.315033761535757,
    "time": 21897
  },
  {
    "temp": 260.030029296875,
    "load": 160360,
    "rate": 9.175685677528381,
    "requestedRate": 8.315033761535757,
    "time": 22061
  },
  {
    "temp": 259.70867919921875,
    "load": 158958,
    "rate": 9.171813833713532,
    "requestedRate": 8.315033761535757,
    "time": 22199
  },
  {
    "temp": 259.52606201171875,
    "load": 158364,
    "rate": 9.151310040950776,
    "requestedRate": 8.315033761535757,
    "time": 22379
  },
  {
    "temp": 259.2403259277344,
    "load": 159444,
    "rate": 7.9917434048652645,
    "requestedRate": 8.315033761535757,
    "time": 22565
  },
  {
    "temp": 258.87518310546875,
    "load": 158617,
    "rate": 7.352645040750503,
    "requestedRate": 8.315033761535757,
    "time": 22753
  },
  {
    "temp": 258.55035400390625,
    "load": 158932,
    "rate": 8.112301940917968,
    "requestedRate": 8.315033761535757,
    "time": 22947
  },
  {
    "temp": 258.2695617675781,
    "load": 159294,
    "rate": 8.5932604265213,
    "requestedRate": 8.315033761535757,
    "time": 23103
  },
  {
    "temp": 258.0785827636719,
    "load": 160228,
    "rate": 8.825010645389558,
    "requestedRate": 8.315033761535757,
    "time": 23277
  },
  {
    "temp": 257.8035888671875,
    "load": 160013,
    "rate": 9.05856350183487,
    "requestedRate": 8.315033761535757,
    "time": 23450
  },
  {
    "temp": 257.46356201171875,
    "load": 160233,
    "rate": 9.066413640975952,
    "requestedRate": 8.315033761535757,
    "time": 23599
  },
  {
    "temp": 257.31988525390625,
    "load": 159699,
    "rate": 9.169793014526366,
    "requestedRate": 8.315033761535757,
    "time": 23796
  },
  {
    "temp": 256.9899597167969,
    "load": 159576,
    "rate": 9.067823903560638,
    "requestedRate": 8.315033761535757,
    "time": 23969
  },
  {
    "temp": 256.61474609375,
    "load": 160475,
    "rate": 9.094383115768432,
    "requestedRate": 8.315033761535757,
    "time": 24163
  },
  {
    "temp": 256.2834777832031,
    "load": 161323,
    "rate": 9.00136736869812,
    "requestedRate": 8.315033761535757,
    "time": 24350
  },
  {
    "temp": 255.97576904296875,
    "load": 162543,
    "rate": 8.950853047370911,
    "requestedRate": 8.315033761535757,
    "time": 24510
  },
  {
    "temp": 255.78790283203125,
    "load": 162910,
    "rate": 8.946524605751037,
    "requestedRate": 8.315033761535757,
    "time": 24682
  },
  {
    "temp": 255.51736450195312,
    "load": 163356,
    "rate": 9.096221823692321,
    "requestedRate": 8.315033761535757,
    "time": 24866
  },
  {
    "temp": 255.18016052246094,
    "load": 164593,
    "rate": 9.101704516410827,
    "requestedRate": 8.315033761535757,
    "time": 25054
  },
  {
    "temp": 254.8003387451172,
    "load": 166502,
    "rate": 8.971789684295654,
    "requestedRate": 8.315033761535757,
    "time": 25231
  },
  {
    "temp": 254.4888916015625,
    "load": 166374,
    "rate": 9.014249761104583,
    "requestedRate": 8.315033761535757,
    "time": 25429
  },
  {
    "temp": 254.1710968017578,
    "load": 166114,
    "rate": 8.874328486919403,
    "requestedRate": 8.315033761535757,
    "time": 25602
  },
  {
    "temp": 253.97962951660156,
    "load": 165319,
    "rate": 9.107721226215363,
    "requestedRate": 8.315033761535757,
    "time": 25759
  },
  {
    "temp": 253.65834045410156,
    "load": 167211,
    "rate": 9.093156723976135,
    "requestedRate": 8.315033761535757,
    "time": 25936
  },
  {
    "temp": 253.33425903320312,
    "load": 166996,
    "rate": 8.959976205825805,
    "requestedRate": 8.315033761535757,
    "time": 26109
  },
  {
    "temp": 253.15066528320312,
    "load": 166534,
    "rate": 9.06339516878128,
    "requestedRate": 8.315033761535757,
    "time": 26297
  },
  {
    "temp": 252.8452911376953,
    "load": 166060,
    "rate": 9.0797350358963,
    "requestedRate": 8.315033761535757,
    "time": 26491
  },
  {
    "temp": 252.48582458496094,
    "load": 165697,
    "rate": 9.164135248661042,
    "requestedRate": 8.315033761535757,
    "time": 26667
  },
  {
    "temp": 252.128173828125,
    "load": 165018,
    "rate": 9.1334041929245,
    "requestedRate": 8.315033761535757,
    "time": 26841
  },
  {
    "temp": 251.9807586669922,
    "load": 164104,
    "rate": 9.065481090545655,
    "requestedRate": 8.315033761535757,
    "time": 27032
  },
  {
    "temp": 251.6226806640625,
    "load": 164084,
    "rate": 9.012211346626282,
    "requestedRate": 8.315033761535757,
    "time": 27199
  },
  {
    "temp": 251.28414916992188,
    "load": 166004,
    "rate": 8.93774983406067,
    "requestedRate": 8.315033761535757,
    "time": 27380
  },
  {
    "temp": 250.92623901367188,
    "load": 167188,
    "rate": 8.891064248085021,
    "requestedRate": 8.315033761535757,
    "time": 27567
  },
  {
    "temp": 250.6014862060547,
    "load": 168291,
    "rate": 9.017729229927063,
    "requestedRate": 8.315033761535757,
    "time": 27742
  },
  {
    "temp": 250.39488220214844,
    "load": 168468,
    "rate": 9.089568164348602,
    "requestedRate": 8.315033761535757,
    "time": 27930
  },
  {
    "temp": 250.02902221679688,
    "load": 169390,
    "rate": 9.090187518596649,
    "requestedRate": 8.315033761535757,
    "time": 28092
  },
  {
    "temp": 249.69918823242188,
    "load": 170995,
    "rate": 9.045450611114502,
    "requestedRate": 8.315033761535757,
    "time": 28266
  },
  {
    "temp": 249.32406616210938,
    "load": 172064,
    "rate": 9.08372300863266,
    "requestedRate": 8.315033761535757,
    "time": 28441
  },
  {
    "temp": 249.12234497070312,
    "load": 172882,
    "rate": 9.040188739299774,
    "requestedRate": 8.315033761535757,
    "time": 28605
  },
  {
    "temp": 248.79083251953125,
    "load": 174260,
    "rate": 9.0199444770813,
    "requestedRate": 8.315033761535757,
    "time": 28786
  },
  {
    "temp": 248.4146270751953,
    "load": 174251,
    "rate": 9.019726295471191,
    "requestedRate": 8.315033761535757,
    "time": 28934
  },
  {
    "temp": 248.1897430419922,
    "load": 173573,
    "rate": 9.069977567195892,
    "requestedRate": 8.315033761535757,
    "time": 29101
  },
  {
    "temp": 247.82034301757812,
    "load": 173369,
    "rate": 9.141613276004792,
    "requestedRate": 8.315033761535757,
    "time": 29299
  },
  {
    "temp": 247.46543884277344,
    "load": 173463,
    "rate": 9.121335582733154,
    "requestedRate": 8.315033761535757,
    "time": 29489
  },
  {
    "temp": 247.07427978515625,
    "load": 173436,
    "rate": 9.17110562324524,
    "requestedRate": 8.315033761535757,
    "time": 29644
  },
  {
    "temp": 246.88963317871094,
    "load": 173979,
    "rate": 9.13387838602066,
    "requestedRate": 8.315033761535757,
    "time": 29809
  },
  {
    "temp": 246.5417022705078,
    "load": 174009,
    "rate": 9.028402533531189,
    "requestedRate": 8.315033761535757,
    "time": 30013
  },
  {
    "temp": 246.15501403808594,
    "load": 174146,
    "rate": 9.039174370765686,
    "requestedRate": 8.315033761535757,
    "time": 30212
  },
  {
    "temp": 245.7799530029297,
    "load": 174175,
    "rate": 9.032672910690307,
    "requestedRate": 8.315033761535757,
    "time": 30387
  },
  {
    "temp": 245.35763549804688,
    "load": 174977,
    "rate": 9.021901953220368,
    "requestedRate": 8.315033761535757,
    "time": 30556
  },
  {
    "temp": 244.97799682617188,
    "load": 175398,
    "rate": 9.076139438152314,
    "requestedRate": 8.315033761535757,
    "time": 30746
  },
  {
    "temp": 244.80252075195312,
    "load": 177607,
    "rate": 9.14920476436615,
    "requestedRate": 8.315033761535757,
    "time": 30935
  },
  {
    "temp": 244.38577270507812,
    "load": 179655,
    "rate": 9.054576408863067,
    "requestedRate": 8.315033761535757,
    "time": 31116
  },
  {
    "temp": 243.99147033691406,
    "load": 178817,
    "rate": 8.982687327861786,
    "requestedRate": 8.315033761535757,
    "time": 31297
  },
  {
    "temp": 243.5933074951172,
    "load": 178716,
    "rate": 8.941054229736327,
    "requestedRate": 8.315033761535757,
    "time": 31472
  },
  {
    "temp": 243.42135620117188,
    "load": 179628,
    "rate": 8.986354186534882,
    "requestedRate": 8.315033761535757,
    "time": 31658
  },
  {
    "temp": 243.0097198486328,
    "load": 180400,
    "rate": 9.046867032051086,
    "requestedRate": 8.315033761535757,
    "time": 31818
  },
  {
    "temp": 242.58221435546875,
    "load": 180776,
    "rate": 9.16691970348358,
    "requestedRate": 8.315033761535757,
    "time": 32006
  },
  {
    "temp": 242.18104553222656,
    "load": 180737,
    "rate": 9.286496422290801,
    "requestedRate": 8.315033761535757,
    "time": 32202
  },
  {
    "temp": 241.76026916503906,
    "load": 180439,
    "rate": 9.11647928237915,
    "requestedRate": 8.315033761535757,
    "time": 32390
  },
  {
    "temp": 241.36337280273438,
    "load": 179971,
    "rate": 9.056973767280578,
    "requestedRate": 8.315033761535757,
    "time": 32578
  },
  {
    "temp": 241.18174743652344,
    "load": 181327,
    "rate": 9.02400810956955,
    "requestedRate": 8.315033761535757,
    "time": 32760
  },
  {
    "temp": 240.75621032714844,
    "load": 181530,
    "rate": 9.088793091773987,
    "requestedRate": 8.315033761535757,
    "time": 32928
  },
  {
    "temp": 240.36241149902344,
    "load": 182487,
    "rate": 9.069426834583282,
    "requestedRate": 8.315033761535757,
    "time": 33087
  },
  {
    "temp": 240.0428924560547,
    "load": 182858,
    "rate": 8.959480018615723,
    "requestedRate": 8.315033761535757,
    "time": 33279
  },
  {
    "temp": 239.8992919921875,
    "load": 182555,
    "rate": 8.937855405807495,
    "requestedRate": 8.315033761535757,
    "time": 33481
  },
  {
    "temp": 239.571044921875,
    "load": 183853,
    "rate": 9.048711018562317,
    "requestedRate": 8.315033761535757,
    "time": 33683
  },
  {
    "temp": 239.25302124023438,
    "load": 185614,
    "rate": 9.03044094800949,
    "requestedRate": 8.315033761535757,
    "time": 33870
  },
  {
    "temp": 238.96849060058594,
    "load": 187495,
    "rate": 8.955214040279388,
    "requestedRate": 8.315033761535757,
    "time": 34036
  },
  {
    "temp": 238.66493225097656,
    "load": 187275,
    "rate": 9.110318291187287,
    "requestedRate": 8.315033761535757,
    "time": 34209
  },
  {
    "temp": 238.52700805664062,
    "load": 186962,
    "rate": 9.015544774532318,
    "requestedRate": 8.315033761535757,
    "time": 34371
  },
  {
    "temp": 238.2069549560547,
    "load": 185321,
    "rate": 8.908063058853148,
    "requestedRate": 8.315033761535757,
    "time": 34563
  },
  {
    "temp": 237.88063049316406,
    "load": 185172,
    "rate": 9.043464982509613,
    "requestedRate": 8.315033761535757,
    "time": 34750
  },
  {
    "temp": 237.5773162841797,
    "load": 186623,
    "rate": 9.011335101127624,
    "requestedRate": 8.315033761535757,
    "time": 34941
  },
  {
    "temp": 237.27523803710938,
    "load": 188693,
    "rate": 9.030250918865203,
    "requestedRate": 8.315033761535757,
    "time": 35124
  },
  {
    "temp": 236.97393798828125,
    "load": 189444,
    "rate": 9.183741681575775,
    "requestedRate": 8.315033761535757,
    "time": 35300
  },
  {
    "temp": 236.83680725097656,
    "load": 191519,
    "rate": 9.119392182826996,
    "requestedRate": 8.315033761535757,
    "time": 35476
  },
  {
    "temp": 236.53140258789062,
    "load": 192423,
    "rate": 9.062232120037079,
    "requestedRate": 8.315033761535757,
    "time": 35647
  },
  {
    "temp": 236.2549591064453,
    "load": 193540,
    "rate": 9.037055897712708,
    "requestedRate": 8.315033761535757,
    "time": 35807
  },
  {
    "temp": 236.05918884277344,
    "load": 193354,
    "rate": 9.036016895771027,
    "requestedRate": 8.315033761535757,
    "time": 35990
  },
  {
    "temp": 235.7266845703125,
    "load": 193534,
    "rate": 9.000316050052643,
    "requestedRate": 8.315033761535757,
    "time": 36169
  },
  {
    "temp": 235.3924102783203,
    "load": 192965,
    "rate": 9.112869608402253,
    "requestedRate": 8.315033761535757,
    "time": 36353
  },
  {
    "temp": 235.09075927734375,
    "load": 193868,
    "rate": 9.084137377738953,
    "requestedRate": 8.315033761535757,
    "time": 36527
  },
  {
    "temp": 234.79310607910156,
    "load": 194301,
    "rate": 9.040174663066864,
    "requestedRate": 8.315033761535757,
    "time": 36690
  },
  {
    "temp": 234.6197967529297,
    "load": 194984,
    "rate": 9.099739122390748,
    "requestedRate": 8.315033761535757,
    "time": 36880
  },
  {
    "temp": 234.30276489257812,
    "load": 195115,
    "rate": 9.034600474834441,
    "requestedRate": 8.315033761535757,
    "time": 37058
  },
  {
    "temp": 233.9783935546875,
    "load": 194587,
    "rate": 9.020174095630646,
    "requestedRate": 8.315033761535757,
    "time": 37216
  },
  {
    "temp": 233.83306884765625,
    "load": 193729,
    "rate": 9.00725563287735,
    "requestedRate": 8.315033761535757,
    "time": 37392
  },
  {
    "temp": 233.51583862304688,
    "load": 194928,
    "rate": 9.062828600406647,
    "requestedRate": 8.315033761535757,
    "time": 37572
  },
  {
    "temp": 233.19134521484375,
    "load": 194736,
    "rate": 9.067586367130279,
    "requestedRate": 8.315033761535757,
    "time": 37755
  },
  {
    "temp": 232.86219787597656,
    "load": 194402,
    "rate": 9.018030989170075,
    "requestedRate": 8.315033761535757,
    "time": 37934
  },
  {
    "temp": 232.5570831298828,
    "load": 194615,
    "rate": 9.107287502288818,
    "requestedRate": 8.315033761535757,
    "time": 38124
  },
  {
    "temp": 232.4092254638672,
    "load": 196527,
    "rate": 9.136757855415343,
    "requestedRate": 8.315033761535757,
    "time": 38290
  },
  {
    "temp": 232.10523986816406,
    "load": 198029,
    "rate": 9.076898674964905,
    "requestedRate": 8.315033761535757,
    "time": 38480
  },
  {
    "temp": 231.78919982910156,
    "load": 199616,
    "rate": 9.065788128376006,
    "requestedRate": 8.315033761535757,
    "time": 38655
  },
  {
    "temp": 231.46548461914062,
    "load": 200341,
    "rate": 9.047729201316834,
    "requestedRate": 8.315033761535757,
    "time": 38835
  },
  {
    "temp": 231.13685607910156,
    "load": 200949,
    "rate": 8.96076271533966,
    "requestedRate": 8.315033761535757,
    "time": 39029
  },
  {
    "temp": 230.9525146484375,
    "load": 202479,
    "rate": 9.054131247997283,
    "requestedRate": 8.315033761535757,
    "time": 39203
  },
  {
    "temp": 230.6195831298828,
    "load": 206275,
    "rate": 9.142846705913543,
    "requestedRate": 8.315033761535757,
    "time": 39373
  },
  {
    "temp": 230.28506469726562,
    "load": 207732,
    "rate": 9.095594551563263,
    "requestedRate": 8.315033761535757,
    "time": 39558
  },
  {
    "temp": 229.9495086669922,
    "load": 207181,
    "rate": 8.990641279220581,
    "requestedRate": 8.315033761535757,
    "time": 39732
  },
  {
    "temp": 229.80020141601562,
    "load": 207493,
    "rate": 9.016531870365142,
    "requestedRate": 8.315033761535757,
    "time": 39913
  },
  {
    "temp": 229.4637451171875,
    "load": 207104,
    "rate": 8.986399054527283,
    "requestedRate": 8.315033761535757,
    "time": 40108
  },
  {
    "temp": 229.126953125,
    "load": 207073,
    "rate": 8.995657696723939,
    "requestedRate": 8.315033761535757,
    "time": 40293
  },
  {
    "temp": 228.78993225097656,
    "load": 207270,
    "rate": 9.01198612689972,
    "requestedRate": 8.315033761535757,
    "time": 40471
  },
  {
    "temp": 228.4797821044922,
    "load": 206710,
    "rate": 9.068347363471984,
    "requestedRate": 8.315033761535757,
    "time": 40669
  },
  {
    "temp": 228.1328125,
    "load": 206404,
    "rate": 9.069945895671845,
    "requestedRate": 8.315033761535757,
    "time": 40844
  },
  {
    "temp": 227.9419708251953,
    "load": 207030,
    "rate": 9.141459317207337,
    "requestedRate": 8.315033761535757,
    "time": 41015
  },
  {
    "temp": 227.59967041015625,
    "load": 208754,
    "rate": 9.124953174591065,
    "requestedRate": 8.315033761535757,
    "time": 41201
  },
  {
    "temp": 227.25914001464844,
    "load": 209976,
    "rate": 9.098847041130066,
    "requestedRate": 8.315033761535757,
    "time": 41372
  },
  {
    "temp": 226.9197235107422,
    "load": 210472,
    "rate": 9.078810403347015,
    "requestedRate": 8.315033761535757,
    "time": 41546
  },
  {
    "temp": 226.76905822753906,
    "load": 211058,
    "rate": 8.944545135498046,
    "requestedRate": 8.315033761535757,
    "time": 41705
  },
  {
    "temp": 226.4576416015625,
    "load": 211607,
    "rate": 8.94632050037384,
    "requestedRate": 8.315033761535757,
    "time": 41878
  },
  {
    "temp": 226.13687133789062,
    "load": 215044,
    "rate": 9.057458517551423,
    "requestedRate": 8.315033761535757,
    "time": 42045
  },
  {
    "temp": 225.94033813476562,
    "load": 215981,
    "rate": 9.031144759654998,
    "requestedRate": 8.315033761535757,
    "time": 42229
  },
  {
    "temp": 225.58985900878906,
    "load": 215546,
    "rate": 9.051164681911468,
    "requestedRate": 8.315033761535757,
    "time": 42413
  },
  {
    "temp": 225.26095581054688,
    "load": 213687,
    "rate": 9.11780948638916,
    "requestedRate": 8.315033761535757,
    "time": 42572
  },
  {
    "temp": 225.10464477539062,
    "load": 216753,
    "rate": 9.129447011947631,
    "requestedRate": 8.315033761535757,
    "time": 42721
  },
  {
    "temp": 224.7581024169922,
    "load": 219620,
    "rate": 9.040241525173187,
    "requestedRate": 8.315033761535757,
    "time": 42915
  },
  {
    "temp": 224.41485595703125,
    "load": 219003,
    "rate": 8.96167239189148,
    "requestedRate": 8.315033761535757,
    "time": 43111
  },
  {
    "temp": 224.07369995117188,
    "load": 219470,
    "rate": 8.8955211353302,
    "requestedRate": 8.315033761535757,
    "time": 43307
  },
  {
    "temp": 223.73390197753906,
    "load": 219806,
    "rate": 8.980004045963287,
    "requestedRate": 8.315033761535757,
    "time": 43495
  },
  {
    "temp": 223.3949737548828,
    "load": 220157,
    "rate": 9.092049100399016,
    "requestedRate": 8.315033761535757,
    "time": 43640
  },
  {
    "temp": 223.2069854736328,
    "load": 220970,
    "rate": 9.170539054870606,
    "requestedRate": 8.315033761535757,
    "time": 43834
  },
  {
    "temp": 222.86880493164062,
    "load": 221730,
    "rate": 9.132248182296753,
    "requestedRate": 8.315033761535757,
    "time": 44016
  },
  {
    "temp": 222.53089904785156,
    "load": 221962,
    "rate": 9.03641982793808,
    "requestedRate": 8.315033761535757,
    "time": 44194
  },
  {
    "temp": 222.38076782226562,
    "load": 220878,
    "rate": 9.054676702022553,
    "requestedRate": 8.315033761535757,
    "time": 44321
  },
  {
    "temp": 222.04310607910156,
    "load": 219789,
    "rate": 9.024647698402404,
    "requestedRate": 8.315033761535757,
    "time": 44494
  },
  {
    "temp": 221.71905517578125,
    "load": 220382,
    "rate": 8.992863564491271,
    "requestedRate": 8.315033761535757,
    "time": 44672
  },
  {
    "temp": 221.37669372558594,
    "load": 218535,
    "rate": 9.099409210681916,
    "requestedRate": 8.315033761535757,
    "time": 44868
  },
  {
    "temp": 221.18748474121094,
    "load": 220047,
    "rate": 9.12958601474762,
    "requestedRate": 8.315033761535757,
    "time": 45050
  },
  {
    "temp": 220.84754943847656,
    "load": 220399,
    "rate": 9.158036720752715,
    "requestedRate": 8.315033761535757,
    "time": 45241
  },
  {
    "temp": 220.52032470703125,
    "load": 222139,
    "rate": 9.064762322902679,
    "requestedRate": 8.315033761535757,
    "time": 45425
  },
  {
    "temp": 220.21519470214844,
    "load": 221391,
    "rate": 9.059386961460113,
    "requestedRate": 8.315033761535757,
    "time": 45598
  },
  {
    "temp": 219.9278106689453,
    "load": 223330,
    "rate": 8.966365056037903,
    "requestedRate": 8.315033761535757,
    "time": 45764
  },
  {
    "temp": 219.80287170410156,
    "load": 223574,
    "rate": 9.025804588794708,
    "requestedRate": 8.315033761535757,
    "time": 45944
  },
  {
    "temp": 219.5308837890625,
    "load": 225316,
    "rate": 8.998765904903411,
    "requestedRate": 8.315033761535757,
    "time": 46123
  },
  {
    "temp": 219.26467895507812,
    "load": 225424,
    "rate": 8.8398135638237,
    "requestedRate": 8.315033761535757,
    "time": 46308
  },
  {
    "temp": 219.00221252441406,
    "load": 223290,
    "rate": 8.754466724395751,
    "requestedRate": 8.315033761535757,
    "time": 46487
  },
  {
    "temp": 218.8577117919922,
    "load": 216890,
    "rate": 8.818180153369903,
    "requestedRate": 8.315033761535757,
    "time": 46666
  },
  {
    "temp": 218.57801818847656,
    "load": 209921,
    "rate": 8.9965664935112,
    "requestedRate": 8.315033761535757,
    "time": 46844
  },
  {
    "temp": 218.31715393066406,
    "load": 209255,
    "rate": 9.469122347831727,
    "requestedRate": 8.315033761535757,
    "time": 47030
  },
  {
    "temp": 218.05809020996094,
    "load": 216728,
    "rate": 9.222065105438233,
    "requestedRate": 8.315033761535757,
    "time": 47209
  },
  {
    "temp": 217.7694854736328,
    "load": 219628,
    "rate": 9.156195373535157,
    "requestedRate": 8.315033761535757,
    "time": 47376
  },
  {
    "temp": 217.61569213867188,
    "load": 227633,
    "rate": 9.05673887014389,
    "requestedRate": 8.315033761535757,
    "time": 47560
  },
  {
    "temp": 217.3430633544922,
    "load": 231536,
    "rate": 9.120621213912964,
    "requestedRate": 8.315033761535757,
    "time": 47720
  },
  {
    "temp": 217.07647705078125,
    "load": 227472,
    "rate": 9.026340365409851,
    "requestedRate": 8.315033761535757,
    "time": 47885
  },
  {
    "temp": 216.93336486816406,
    "load": 226121,
    "rate": 9.08989895582199,
    "requestedRate": 8.315033761535757,
    "time": 48046
  },
  {
    "temp": 216.64285278320312,
    "load": 229927,
    "rate": 9.16108246564865,
    "requestedRate": 8.315033761535757,
    "time": 48217
  },
  {
    "temp": 216.35202026367188,
    "load": 225812,
    "rate": 9.051122453212738,
    "requestedRate": 8.315033761535757,
    "time": 48390
  },
  {
    "temp": 216.2258758544922,
    "load": 230820,
    "rate": 8.933693239688873,
    "requestedRate": 8.315033761535757,
    "time": 48560
  },
  {
    "temp": 215.9009552001953,
    "load": 234501,
    "rate": 9.032752969264983,
    "requestedRate": 8.315033761535757,
    "time": 48731
  },
  {
    "temp": 215.55996704101562,
    "load": 234392,
    "rate": 9.015482311248778,
    "requestedRate": 8.315033761535757,
    "time": 48915
  },
  {
    "temp": 215.23683166503906,
    "load": 233812,
    "rate": 8.989428963661194,
    "requestedRate": 8.315033761535757,
    "time": 49109
  },
  {
    "temp": 215.077880859375,
    "load": 233834,
    "rate": 8.910668921470641,
    "requestedRate": 8.315033761535757,
    "time": 49300
  },
  {
    "temp": 214.76710510253906,
    "load": 235949,
    "rate": 9.163950498104095,
    "requestedRate": 8.315033761535757,
    "time": 49471
  },
  {
    "temp": 214.46588134765625,
    "load": 237125,
    "rate": 9.137443192005158,
    "requestedRate": 8.315033761535757,
    "time": 49652
  },
  {
    "temp": 214.1809844970703,
    "load": 239969,
    "rate": 9.205926704406739,
    "requestedRate": 8.315033761535757,
    "time": 49832
  },
  {
    "temp": 213.86817932128906,
    "load": 244966,
    "rate": 9.130163140296936,
    "requestedRate": 8.315033761535757,
    "time": 50002
  },
  {
    "temp": 213.72711181640625,
    "load": 247124,
    "rate": 9.068539152145386,
    "requestedRate": 8.315033761535757,
    "time": 50167
  },
  {
    "temp": 213.43185424804688,
    "load": 249977,
    "rate": 9.059708955287933,
    "requestedRate": 8.315033761535757,
    "time": 50366
  },
  {
    "temp": 213.1508026123047,
    "load": 253554,
    "rate": 8.977689385414124,
    "requestedRate": 8.315033761535757,
    "time": 50514
  },
  {
    "temp": 212.99969482421875,
    "load": 255614,
    "rate": 8.9885799908638,
    "requestedRate": 8.315033761535757,
    "time": 50693
  },
  {
    "temp": 212.7002410888672,
    "load": 255344,
    "rate": 8.993110778331756,
    "requestedRate": 8.315033761535757,
    "time": 50865
  },
  {
    "temp": 212.40623474121094,
    "load": 255259,
    "rate": 9.023969399929047,
    "requestedRate": 8.315033761535757,
    "time": 51036
  },
  {
    "temp": 212.1003875732422,
    "load": 254858,
    "rate": 8.982309029102325,
    "requestedRate": 8.315033761535757,
    "time": 51222
  },
  {
    "temp": 211.95468139648438,
    "load": 255273,
    "rate": 8.892336387634277,
    "requestedRate": 8.315033761535757,
    "time": 51401
  },
  {
    "temp": 211.65277099609375,
    "load": 256048,
    "rate": 8.815931475162506,
    "requestedRate": 8.315033761535757,
    "time": 51542
  },
  {
    "temp": 211.36746215820312,
    "load": 257411,
    "rate": 8.772662014961243,
    "requestedRate": 8.315033761535757,
    "time": 51753
  },
  {
    "temp": 211.0543670654297,
    "load": 257613,
    "rate": 8.701344780921936,
    "requestedRate": 8.315033761535757,
    "time": 51914
  },
  {
    "temp": 210.91319274902344,
    "load": 258384,
    "rate": 8.63137974500656,
    "requestedRate": 8.315033761535757,
    "time": 52101
  },
  {
    "temp": 210.6177978515625,
    "load": 259671,
    "rate": 8.605297365188598,
    "requestedRate": 8.315033761535757,
    "time": 52260
  },
  {
    "temp": 210.2854766845703,
    "load": 261579,
    "rate": 8.47799367427826,
    "requestedRate": 8.315033761535757,
    "time": 52417
  },
  {
    "temp": 210.14456176757812,
    "load": 262364,
    "rate": 8.530400369167328,
    "requestedRate": 8.315033761535757,
    "time": 52598
  },
  {
    "temp": 209.8495635986328,
    "load": 264088,
    "rate": 8.260419981479645,
    "requestedRate": 8.315033761535757,
    "time": 52772
  },
  {
    "temp": 209.54307556152344,
    "load": 265301,
    "rate": 8.31446567773819,
    "requestedRate": 8.315033761535757,
    "time": 52947
  },
  {
    "temp": 209.22923278808594,
    "load": 266589,
    "rate": 8.338928411006927,
    "requestedRate": 8.315033761535757,
    "time": 53128
  },
  {
    "temp": 209.09490966796875,
    "load": 267496,
    "rate": 8.4033474111557,
    "requestedRate": 8.315033761535757,
    "time": 53309
  },
  {
    "temp": 208.79656982421875,
    "load": 269746,
    "rate": 8.353746285438538,
    "requestedRate": 8.315033761535757,
    "time": 53461
  },
  {
    "temp": 208.50074768066406,
    "load": 270261,
    "rate": 8.46770218849182,
    "requestedRate": 8.315033761535757,
    "time": 53627
  },
  {
    "temp": 208.3585968017578,
    "load": 271116,
    "rate": 8.399336564540864,
    "requestedRate": 8.315033761535757,
    "time": 53808
  },
  {
    "temp": 208.0490264892578,
    "load": 272381,
    "rate": 8.473120658397674,
    "requestedRate": 8.315033761535757,
    "time": 53994
  },
  {
    "temp": 207.72039794921875,
    "load": 272539,
    "rate": 8.368599350452422,
    "requestedRate": 8.315033761535757,
    "time": 54166
  },
  {
    "temp": 207.41796875,
    "load": 272761,
    "rate": 8.28882581949234,
    "requestedRate": 8.315033761535757,
    "time": 54351
  },
  {
    "temp": 207.1016082763672,
    "load": 273049,
    "rate": 8.251522042751311,
    "requestedRate": 8.315033761535757,
    "time": 54536
  },
  {
    "temp": 206.93228149414062,
    "load": 272752,
    "rate": 8.211766362190247,
    "requestedRate": 8.315033761535757,
    "time": 54716
  },
  {
    "temp": 206.6270294189453,
    "load": 272966,
    "rate": 8.283068640232086,
    "requestedRate": 8.315033761535757,
    "time": 54896
  },
  {
    "temp": 206.30886840820312,
    "load": 274513,
    "rate": 8.227027637958527,
    "requestedRate": 8.315033761535757,
    "time": 55072
  },
  {
    "temp": 206.0131378173828,
    "load": 275969,
    "rate": 8.331192641258239,
    "requestedRate": 8.315033761535757,
    "time": 55252
  },
  {
    "temp": 205.85682678222656,
    "load": 277284,
    "rate": 8.384986724853515,
    "requestedRate": 8.315033761535757,
    "time": 55427
  },
  {
    "temp": 205.54986572265625,
    "load": 279987,
    "rate": 8.43523711681366,
    "requestedRate": 8.315033761535757,
    "time": 55597
  },
  {
    "temp": 205.25106811523438,
    "load": 282708,
    "rate": 8.517813577651978,
    "requestedRate": 8.315033761535757,
    "time": 55756
  },
  {
    "temp": 204.9165496826172,
    "load": 283628,
    "rate": 8.409640367031097,
    "requestedRate": 8.315033761535757,
    "time": 55950
  },
  {
    "temp": 204.77487182617188,
    "load": 284028,
    "rate": 8.462758791446685,
    "requestedRate": 8.315033761535757,
    "time": 56139
  },
  {
    "temp": 204.478759765625,
    "load": 285355,
    "rate": 8.368454189300538,
    "requestedRate": 8.315033761535757,
    "time": 56318
  },
  {
    "temp": 204.15875244140625,
    "load": 283689,
    "rate": 8.212328531742095,
    "requestedRate": 8.315033761535757,
    "time": 56503
  },
  {
    "temp": 203.84906005859375,
    "load": 284078,
    "rate": 8.30236451625824,
    "requestedRate": 8.315033761535757,
    "time": 56697
  },
  {
    "temp": 203.55874633789062,
    "load": 285736,
    "rate": 8.400097560882568,
    "requestedRate": 8.315033761535757,
    "time": 56892
  },
  {
    "temp": 203.27059936523438,
    "load": 287104,
    "rate": 8.33018179178238,
    "requestedRate": 8.315033761535757,
    "time": 57072
  },
  {
    "temp": 202.97361755371094,
    "load": 286850,
    "rate": 8.39593979358673,
    "requestedRate": 8.315033761535757,
    "time": 57271
  },
  {
    "temp": 202.8111572265625,
    "load": 286368,
    "rate": 8.27407304763794,
    "requestedRate": 8.315033761535757,
    "time": 57445
  },
  {
    "temp": 202.52606201171875,
    "load": 285519,
    "rate": 8.206378684043884,
    "requestedRate": 8.315033761535757,
    "time": 57626
  },
  {
    "temp": 202.21058654785156,
    "load": 284749,
    "rate": 8.005722863674164,
    "requestedRate": 8.315033761535757,
    "time": 57796
  },
  {
    "temp": 201.91656494140625,
    "load": 284502,
    "rate": 8.33435275554657,
    "requestedRate": 8.315033761535757,
    "time": 57997
  },
  {
    "temp": 201.58509826660156,
    "load": 287349,
    "rate": 8.478286635875701,
    "requestedRate": 8.315033761535757,
    "time": 58185
  },
  {
    "temp": 201.28086853027344,
    "load": 289739,
    "rate": 8.452920384407044,
    "requestedRate": 8.315033761535757,
    "time": 58364
  },
  {
    "temp": 201.09878540039062,
    "load": 290385,
    "rate": 8.499010369777679,
    "requestedRate": 8.315033761535757,
    "time": 58528
  },
  {
    "temp": 200.78541564941406,
    "load": 292633,
    "rate": 8.547775719165802,
    "requestedRate": 8.315033761535757,
    "time": 58700
  },
  {
    "temp": 200.49839782714844,
    "load": 294380,
    "rate": 8.557690665721893,
    "requestedRate": 8.315033761535757,
    "time": 58871
  },
  {
    "temp": 200.33517456054688,
    "load": 293387,
    "rate": 8.525657558441162,
    "requestedRate": 8.315033761535757,
    "time": 59055
  },
  {
    "temp": 200.05917358398438,
    "load": 292444,
    "rate": 8.363642756938933,
    "requestedRate": 8.315033761535757,
    "time": 59219
  },
  {
    "temp": 199.76580810546875,
    "load": 292634,
    "rate": 8.502276935577392,
    "requestedRate": 8.315033761535757,
    "time": 59385
  },
  {
    "temp": 199.62625122070312,
    "load": 292740,
    "rate": 8.495495710372925,
    "requestedRate": 8.315033761535757,
    "time": 59552
  },
  {
    "temp": 199.3515625,
    "load": 293467,
    "rate": 8.416273791790008,
    "requestedRate": 8.315033761535757,
    "time": 59725
  },
  {
    "temp": 199.0611114501953,
    "load": 293779,
    "rate": 8.280520842075347,
    "requestedRate": 8.315033761535757,
    "time": 59895
  },
  {
    "temp": 198.801513671875,
    "load": 295656,
    "rate": 8.388152997493744,
    "requestedRate": 8.315033761535757,
    "time": 60079
  },
  {
    "temp": 198.66030883789062,
    "load": 297320,
    "rate": 8.376641278266906,
    "requestedRate": 8.315033761535757,
    "time": 60225
  },
  {
    "temp": 198.39759826660156,
    "load": 300219,
    "rate": 8.355643057823182,
    "requestedRate": 8.315033761535757,
    "time": 60396
  },
  {
    "temp": 198.28598022460938,
    "load": 303019,
    "rate": 8.23719067811966,
    "requestedRate": 8.315033761535757,
    "time": 60552
  },
  {
    "temp": 198.01060485839844,
    "load": 305281,
    "rate": 8.248383922576904,
    "requestedRate": 8.315033761535757,
    "time": 60725
  },
  {
    "temp": 197.76065063476562,
    "load": 306447,
    "rate": 8.182420935630798,
    "requestedRate": 8.315033761535757,
    "time": 60896
  },
  {
    "temp": 197.61264038085938,
    "load": 309974,
    "rate": 8.238059005737304,
    "requestedRate": 8.315033761535757,
    "time": 61076
  },
  {
    "temp": 197.35855102539062,
    "load": 313882,
    "rate": 8.234510035514832,
    "requestedRate": 8.315033761535757,
    "time": 61260
  },
  {
    "temp": 197.11402893066406,
    "load": 314081,
    "rate": 8.25280473947525,
    "requestedRate": 8.315033761535757,
    "time": 61466
  },
  {
    "temp": 196.84901428222656,
    "load": 314763,
    "rate": 8.448320095539092,
    "requestedRate": 8.315033761535757,
    "time": 61647
  },
  {
    "temp": 196.5749969482422,
    "load": 313693,
    "rate": 8.455715396404266,
    "requestedRate": 8.315033761535757,
    "time": 61819
  },
  {
    "temp": 196.31771850585938,
    "load": 312961,
    "rate": 8.397590231895446,
    "requestedRate": 8.315033761535757,
    "time": 61992
  },
  {
    "temp": 196.181884765625,
    "load": 311556,
    "rate": 8.51736401796341,
    "requestedRate": 8.315033761535757,
    "time": 62167
  },
  {
    "temp": 195.92691040039062,
    "load": 312714,
    "rate": 8.374639813899993,
    "requestedRate": 8.315033761535757,
    "time": 62355
  },
  {
    "temp": 195.65725708007812,
    "load": 313133,
    "rate": 8.389164726734162,
    "requestedRate": 8.315033761535757,
    "time": 62545
  },
  {
    "temp": 195.38026428222656,
    "load": 312531,
    "rate": 8.396063840389251,
    "requestedRate": 8.315033761535757,
    "time": 62740
  },
  {
    "temp": 195.11903381347656,
    "load": 310267,
    "rate": 8.329455106258392,
    "requestedRate": 8.315033761535757,
    "time": 62896
  },
  {
    "temp": 195.00794982910156,
    "load": 308608,
    "rate": 8.36756650686264,
    "requestedRate": 8.315033761535757,
    "time": 63057
  },
  {
    "temp": 194.73333740234375,
    "load": 307780,
    "rate": 8.326870357990265,
    "requestedRate": 8.315033761535757,
    "time": 63242
  },
  {
    "temp": 194.49412536621094,
    "load": 310907,
    "rate": 8.397665011882783,
    "requestedRate": 8.315033761535757,
    "time": 63406
  },
  {
    "temp": 194.35447692871094,
    "load": 313382,
    "rate": 8.343642189502717,
    "requestedRate": 8.315033761535757,
    "time": 63596
  },
  {
    "temp": 194.093994140625,
    "load": 319028,
    "rate": 8.29852082490921,
    "requestedRate": 8.315033761535757,
    "time": 63771
  },
  {
    "temp": 193.82901000976562,
    "load": 324357,
    "rate": 8.312051603794098,
    "requestedRate": 8.315033761535757,
    "time": 63952
  },
  {
    "temp": 193.56729125976562,
    "load": 328628,
    "rate": 8.321868896484375,
    "requestedRate": 8.315033761535757,
    "time": 64121
  },
  {
    "temp": 193.43898010253906,
    "load": 331446,
    "rate": 8.330034871101379,
    "requestedRate": 8.315033761535757,
    "time": 64297
  },
  {
    "temp": 193.1804962158203,
    "load": 333554,
    "rate": 8.409413387775421,
    "requestedRate": 8.315033761535757,
    "time": 64471
  },
  {
    "temp": 192.90040588378906,
    "load": 334917,
    "rate": 8.371418116092682,
    "requestedRate": 8.315033761535757,
    "time": 64662
  },
  {
    "temp": 192.63925170898438,
    "load": 334546,
    "rate": 8.56888303041458,
    "requestedRate": 8.315033761535757,
    "time": 64859
  },
  {
    "temp": 192.3738555908203,
    "load": 335091,
    "rate": 8.60646305322647,
    "requestedRate": 8.315033761535757,
    "time": 65033
  },
  {
    "temp": 192.23854064941406,
    "load": 335874,
    "rate": 8.496667556762695,
    "requestedRate": 8.315033761535757,
    "time": 65205
  },
  {
    "temp": 191.96995544433594,
    "load": 335480,
    "rate": 8.419106633663178,
    "requestedRate": 8.315033761535757,
    "time": 65374
  },
  {
    "temp": 191.6834259033203,
    "load": 338354,
    "rate": 8.364477653503418,
    "requestedRate": 8.315033761535757,
    "time": 65561
  },
  {
    "temp": 191.4263153076172,
    "load": 336694,
    "rate": 8.44290162563324,
    "requestedRate": 8.315033761535757,
    "time": 65729
  },
  {
    "temp": 191.2757568359375,
    "load": 335663,
    "rate": 8.326732234954834,
    "requestedRate": 8.315033761535757,
    "time": 65915
  },
  {
    "temp": 191.01800537109375,
    "load": 334092,
    "rate": 8.208030002117157,
    "requestedRate": 8.315033761535757,
    "time": 66098
  },
  {
    "temp": 190.7793426513672,
    "load": 333853,
    "rate": 8.320875642299653,
    "requestedRate": 8.315033761535757,
    "time": 66287
  },
  {
    "temp": 190.52012634277344,
    "load": 337426,
    "rate": 8.30194926738739,
    "requestedRate": 8.315033761535757,
    "time": 66471
  },
  {
    "temp": 190.24981689453125,
    "load": 341673,
    "rate": 8.195585732460021,
    "requestedRate": 8.315033761535757,
    "time": 66661
  },
  {
    "temp": 189.9928741455078,
    "load": 343447,
    "rate": 8.25101177930832,
    "requestedRate": 8.315033761535757,
    "time": 66825
  },
  {
    "temp": 189.88331604003906,
    "load": 348747,
    "rate": 8.233921473026275,
    "requestedRate": 8.315033761535757,
    "time": 67000
  },
  {
    "temp": 189.61090087890625,
    "load": 349769,
    "rate": 8.163163769245148,
    "requestedRate": 8.315033761535757,
    "time": 67165
  },
  {
    "temp": 189.36282348632812,
    "load": 348452,
    "rate": 8.254125266075134,
    "requestedRate": 8.315033761535757,
    "time": 67350
  },
  {
    "temp": 189.21548461914062,
    "load": 347240,
    "rate": 8.222699196338654,
    "requestedRate": 8.315033761535757,
    "time": 67522
  },
  {
    "temp": 188.9623565673828,
    "load": 347059,
    "rate": 8.211232345104218,
    "requestedRate": 8.315033761535757,
    "time": 67684
  },
  {
    "temp": 188.69390869140625,
    "load": 351005,
    "rate": 8.2644202709198,
    "requestedRate": 8.315033761535757,
    "time": 67868
  },
  {
    "temp": 188.5574951171875,
    "load": 356096,
    "rate": 8.120891082286835,
    "requestedRate": 8.315033761535757,
    "time": 68021
  },
  {
    "temp": 188.31192016601562,
    "load": 355825,
    "rate": 8.307279760837554,
    "requestedRate": 8.315033761535757,
    "time": 68208
  },
  {
    "temp": 188.05648803710938,
    "load": 354154,
    "rate": 8.313441631793976,
    "requestedRate": 8.315033761535757,
    "time": 68386
  },
  {
    "temp": 187.78857421875,
    "load": 354025,
    "rate": 8.263100624084473,
    "requestedRate": 8.315033761535757,
    "time": 68576
  },
  {
    "temp": 187.53317260742188,
    "load": 353296,
    "rate": 8.20910507440567,
    "requestedRate": 8.315033761535757,
    "time": 68741
  },
  {
    "temp": 187.39344787597656,
    "load": 352393,
    "rate": 8.228693912029266,
    "requestedRate": 8.315033761535757,
    "time": 68928
  },
  {
    "temp": 187.1328887939453,
    "load": 354686,
    "rate": 8.283083596229552,
    "requestedRate": 8.315033761535757,
    "time": 69096
  },
  {
    "temp": 186.8678436279297,
    "load": 355837,
    "rate": 8.196644968986512,
    "requestedRate": 8.315033761535757,
    "time": 69296
  },
  {
    "temp": 186.57537841796875,
    "load": 358202,
    "rate": 8.384948894977569,
    "requestedRate": 8.315033761535757,
    "time": 69476
  },
  {
    "temp": 186.2899169921875,
    "load": 358743,
    "rate": 8.463389582633972,
    "requestedRate": 8.315033761535757,
    "time": 69670
  },
  {
    "temp": 186.14292907714844,
    "load": 362152,
    "rate": 8.37789406299591,
    "requestedRate": 8.315033761535757,
    "time": 69862
  },
  {
    "temp": 185.87393188476562,
    "load": 367671,
    "rate": 8.298973023891449,
    "requestedRate": 8.315033761535757,
    "time": 70016
  },
  {
    "temp": 185.60142517089844,
    "load": 371659,
    "rate": 8.23927484035492,
    "requestedRate": 8.315033761535757,
    "time": 70181
  },
  {
    "temp": 185.4692840576172,
    "load": 371369,
    "rate": 8.259888603687287,
    "requestedRate": 8.315033761535757,
    "time": 70363
  },
  {
    "temp": 185.19505310058594,
    "load": 373477,
    "rate": 8.223325588703155,
    "requestedRate": 8.315033761535757,
    "time": 70562
  },
  {
    "temp": 184.91514587402344,
    "load": 372825,
    "rate": 8.249840812683106,
    "requestedRate": 8.315033761535757,
    "time": 70745
  },
  {
    "temp": 184.6622772216797,
    "load": 374890,
    "rate": 8.361114313602448,
    "requestedRate": 8.315033761535757,
    "time": 70944
  },
  {
    "temp": 184.39398193359375,
    "load": 376225,
    "rate": 8.390400795936584,
    "requestedRate": 8.315033761535757,
    "time": 71138
  },
  {
    "temp": 184.1076202392578,
    "load": 379504,
    "rate": 8.434431252479554,
    "requestedRate": 8.315033761535757,
    "time": 71330
  },
  {
    "temp": 183.85064697265625,
    "load": 383761,
    "rate": 8.459033868312835,
    "requestedRate": 8.315033761535757,
    "time": 71517
  },
  {
    "temp": 183.587890625,
    "load": 386062,
    "rate": 8.431012487411499,
    "requestedRate": 8.315033761535757,
    "time": 71682
  },
  {
    "temp": 183.29689025878906,
    "load": 386743,
    "rate": 8.408933916091918,
    "requestedRate": 8.315033761535757,
    "time": 71869
  },
  {
    "temp": 183.1752166748047,
    "load": 388545,
    "rate": 8.382913119792939,
    "requestedRate": 8.315033761535757,
    "time": 72055
  },
  {
    "temp": 182.9160614013672,
    "load": 391082,
    "rate": 8.369695537090301,
    "requestedRate": 8.315033761535757,
    "time": 72254
  },
  {
    "temp": 182.6457977294922,
    "load": 397366,
    "rate": 8.376078228950501,
    "requestedRate": 8.315033761535757,
    "time": 72423
  },
  {
    "temp": 182.39910888671875,
    "load": 403996,
    "rate": 8.416314260959625,
    "requestedRate": 8.315033761535757,
    "time": 72621
  },
  {
    "temp": 182.14295959472656,
    "load": 409389,
    "rate": 8.482449681758881,
    "requestedRate": 8.315033761535757,
    "time": 72787
  },
  {
    "temp": 182.00637817382812,
    "load": 414421,
    "rate": 8.460201315879821,
    "requestedRate": 8.315033761535757,
    "time": 72960
  },
  {
    "temp": 181.7523956298828,
    "load": 415596,
    "rate": 8.356265051364899,
    "requestedRate": 8.315033761535757,
    "time": 73131
  },
  {
    "temp": 181.489501953125,
    "load": 416277,
    "rate": 8.194240572452545,
    "requestedRate": 8.315033761535757,
    "time": 73311
  },
  {
    "temp": 181.2168426513672,
    "load": 416993,
    "rate": 8.088729529380798,
    "requestedRate": 8.315033761535757,
    "time": 73492
  },
  {
    "temp": 181.10169982910156,
    "load": 414125,
    "rate": 8.188347029685975,
    "requestedRate": 8.315033761535757,
    "time": 73660
  },
  {
    "temp": 180.82122802734375,
    "load": 415227,
    "rate": 8.229776902198791,
    "requestedRate": 8.315033761535757,
    "time": 73823
  },
  {
    "temp": 180.56802368164062,
    "load": 417143,
    "rate": 8.17674117565155,
    "requestedRate": 8.315033761535757,
    "time": 74012
  },
  {
    "temp": 180.31015014648438,
    "load": 420455,
    "rate": 8.15798635482788,
    "requestedRate": 8.315033761535757,
    "time": 74170
  },
  {
    "temp": 180.18431091308594,
    "load": 420535,
    "rate": 8.14224824666977,
    "requestedRate": 8.315033761535757,
    "time": 74343
  },
  {
    "temp": 179.924560546875,
    "load": 421584,
    "rate": 8.266855459213257,
    "requestedRate": 8.315033761535757,
    "time": 74497
  },
  {
    "temp": 179.8075408935547,
    "load": 422536,
    "rate": 8.251741983890533,
    "requestedRate": 8.315033761535757,
    "time": 74682
  },
  {
    "temp": 179.56048583984375,
    "load": 423778,
    "rate": 8.31743928194046,
    "requestedRate": 8.315033761535757,
    "time": 74860
  },
  {
    "temp": 179.32383728027344,
    "load": 425486,
    "rate": 8.33904629945755,
    "requestedRate": 8.315033761535757,
    "time": 75043
  },
  {
    "temp": 179.09042358398438,
    "load": 427075,
    "rate": 8.348539838790893,
    "requestedRate": 8.315033761535757,
    "time": 75203
  },
  {
    "temp": 178.969482421875,
    "load": 431574,
    "rate": 8.322358045578003,
    "requestedRate": 8.315033761535757,
    "time": 75390
  },
  {
    "temp": 178.74069213867188,
    "load": 439689,
    "rate": 8.317776231765746,
    "requestedRate": 8.315033761535757,
    "time": 75576
  },
  {
    "temp": 178.5089111328125,
    "load": 446930,
    "rate": 8.258411478996276,
    "requestedRate": 8.315033761535757,
    "time": 75765
  },
  {
    "temp": 178.28201293945312,
    "load": 449342,
    "rate": 8.29730674982071,
    "requestedRate": 8.315033761535757,
    "time": 75944
  },
  {
    "temp": 178.06851196289062,
    "load": 449959,
    "rate": 8.356794669628144,
    "requestedRate": 8.315033761535757,
    "time": 76156
  },
  {
    "temp": 177.8413848876953,
    "load": 447359,
    "rate": 8.17258692741394,
    "requestedRate": 8.315033761535757,
    "time": 76351
  },
  {
    "temp": 177.60894775390625,
    "load": 441657,
    "rate": 8.14282977104187,
    "requestedRate": 8.315033761535757,
    "time": 76558
  },
  {
    "temp": 177.3782196044922,
    "load": 439949,
    "rate": 8.180177536010742,
    "requestedRate": 8.315033761535757,
    "time": 76730
  },
  {
    "temp": 177.12811279296875,
    "load": 440718,
    "rate": 7.995798239707947,
    "requestedRate": 8.315033761535757,
    "time": 76941
  },
  {
    "temp": 176.90658569335938,
    "load": 443959,
    "rate": 8.134826552867889,
    "requestedRate": 8.315033761535757,
    "time": 77131
  },
  {
    "temp": 176.68966674804688,
    "load": 445007,
    "rate": 8.192093946933745,
    "requestedRate": 8.315033761535757,
    "time": 77331
  },
  {
    "temp": 176.57080078125,
    "load": 443832,
    "rate": 8.307468030452728,
    "requestedRate": 8.315033761535757,
    "time": 77496
  },
  {
    "temp": 176.35867309570312,
    "load": 438562,
    "rate": 8.50812912940979,
    "requestedRate": 8.315033761535757,
    "time": 77690
  },
  {
    "temp": 176.12387084960938,
    "load": 438883,
    "rate": 8.534464001655579,
    "requestedRate": 8.315033761535757,
    "time": 77860
  },
  {
    "temp": 175.89505004882812,
    "load": 440865,
    "rate": 8.481444110870362,
    "requestedRate": 8.315033761535757,
    "time": 78051
  },
  {
    "temp": 175.65982055664062,
    "load": 444376,
    "rate": 8.458869352340699,
    "requestedRate": 8.315033761535757,
    "time": 78227
  },
  {
    "temp": 175.54205322265625,
    "load": 447081,
    "rate": 8.495122690200805,
    "requestedRate": 8.315033761535757,
    "time": 78382
  },
  {
    "temp": 175.3024444580078,
    "load": 456581,
    "rate": 8.446802501678466,
    "requestedRate": 8.315033761535757,
    "time": 78557
  },
  {
    "temp": 175.06202697753906,
    "load": 464214,
    "rate": 8.397408120632171,
    "requestedRate": 8.315033761535757,
    "time": 78756
  },
  {
    "temp": 174.83985900878906,
    "load": 469480,
    "rate": 8.27019856452942,
    "requestedRate": 8.315033761535757,
    "time": 78930
  },
  {
    "temp": 174.71533203125,
    "load": 469346,
    "rate": 8.432769377231597,
    "requestedRate": 8.315033761535757,
    "time": 79115
  },
  {
    "temp": 174.46429443359375,
    "load": 467661,
    "rate": 8.257584500312806,
    "requestedRate": 8.315033761535757,
    "time": 79308
  },
  {
    "temp": 174.21827697753906,
    "load": 465485,
    "rate": 8.20265200138092,
    "requestedRate": 8.315033761535757,
    "time": 79476
  },
  {
    "temp": 173.9925079345703,
    "load": 468903,
    "rate": 8.152573163509368,
    "requestedRate": 8.315033761535757,
    "time": 79653
  },
  {
    "temp": 173.75753784179688,
    "load": 473769,
    "rate": 8.074662973880768,
    "requestedRate": 8.315033761535757,
    "time": 79845
  },
  {
    "temp": 173.5200653076172,
    "load": 477595,
    "rate": 8.02316859483719,
    "requestedRate": 8.315033761535757,
    "time": 80019
  },
  {
    "temp": 173.41192626953125,
    "load": 479824,
    "rate": 8.089281141757965,
    "requestedRate": 8.315033761535757,
    "time": 80210
  },
  {
    "temp": 173.17593383789062,
    "load": 484652,
    "rate": 8.143266134262085,
    "requestedRate": 8.315033761535757,
    "time": 80393
  },
  {
    "temp": 172.96343994140625,
    "load": 482311,
    "rate": 8.328818156719208,
    "requestedRate": 8.315033761535757,
    "time": 80596
  },
  {
    "temp": 172.73866271972656,
    "load": 481183,
    "rate": 8.432079641819,
    "requestedRate": 8.315033761535757,
    "time": 80777
  },
  {
    "temp": 172.49920654296875,
    "load": 487288,
    "rate": 8.368178822994231,
    "requestedRate": 8.315033761535757,
    "time": 80955
  },
  {
    "temp": 172.39889526367188,
    "load": 495413,
    "rate": 8.357955958843231,
    "requestedRate": 8.315033761535757,
    "time": 81122
  },
  {
    "temp": 172.1588134765625,
    "load": 501754,
    "rate": 8.364744222164154,
    "requestedRate": 8.315033761535757,
    "time": 81285
  },
  {
    "temp": 171.94369506835938,
    "load": 513268,
    "rate": 8.411453561782837,
    "requestedRate": 8.315033761535757,
    "time": 81467
  },
  {
    "temp": 171.7172393798828,
    "load": 516627,
    "rate": 8.300707919597626,
    "requestedRate": 8.315033761535757,
    "time": 81653
  },
  {
    "temp": 171.60256958007812,
    "load": 514042,
    "rate": 8.222122950553894,
    "requestedRate": 8.315033761535757,
    "time": 81826
  },
  {
    "temp": 171.3759765625,
    "load": 514914,
    "rate": 8.161180779933929,
    "requestedRate": 8.315033761535757,
    "time": 81970
  },
  {
    "temp": 171.26126098632812,
    "load": 520046,
    "rate": 8.286235792636871,
    "requestedRate": 8.315033761535757,
    "time": 82148
  },
  {
    "temp": 171.0175323486328,
    "load": 526974,
    "rate": 8.165078136920929,
    "requestedRate": 8.315033761535757,
    "time": 82321
  },
  {
    "temp": 170.78298950195312,
    "load": 527463,
    "rate": 8.178763754367829,
    "requestedRate": 8.315033761535757,
    "time": 82507
  },
  {
    "temp": 170.55093383789062,
    "load": 531051,
    "rate": 8.04472986459732,
    "requestedRate": 8.315033761535757,
    "time": 82702
  },
  {
    "temp": 170.3085174560547,
    "load": 532346,
    "rate": 8.15362888097763,
    "requestedRate": 8.315033761535757,
    "time": 82872
  },
  {
    "temp": 170.08334350585938,
    "load": 540883,
    "rate": 8.091735684871674,
    "requestedRate": 8.315033761535757,
    "time": 83055
  },
  {
    "temp": 169.95396423339844,
    "load": 541531,
    "rate": 8.07598965883255,
    "requestedRate": 8.315033761535757,
    "time": 83257
  },
  {
    "temp": 169.73350524902344,
    "load": 537813,
    "rate": 8.188677821159363,
    "requestedRate": 8.315033761535757,
    "time": 83442
  },
  {
    "temp": 169.51046752929688,
    "load": 539451,
    "rate": 8.247057237625121,
    "requestedRate": 8.315033761535757,
    "time": 83635
  },
  {
    "temp": 169.26528930664062,
    "load": 539857,
    "rate": 8.381177344322204,
    "requestedRate": 8.315033761535757,
    "time": 83828
  },
  {
    "temp": 169.0195770263672,
    "load": 545376,
    "rate": 8.494327383041382,
    "requestedRate": 8.315033761535757,
    "time": 84010
  },
  {
    "temp": 168.76670837402344,
    "load": 556073,
    "rate": 8.469129166603087,
    "requestedRate": 8.315033761535757,
    "time": 84207
  },
  {
    "temp": 168.5434112548828,
    "load": 558853,
    "rate": 8.463523306846618,
    "requestedRate": 8.315033761535757,
    "time": 84369
  },
  {
    "temp": 168.42323303222656,
    "load": 561272,
    "rate": 8.370981752872467,
    "requestedRate": 8.315033761535757,
    "time": 84546
  },
  {
    "temp": 168.2006378173828,
    "load": 548841,
    "rate": 8.29968739271164,
    "requestedRate": 8.315033761535757,
    "time": 84710
  },
  {
    "temp": 167.9694061279297,
    "load": 548246,
    "rate": 8.23192088842392,
    "requestedRate": 8.315033761535757,
    "time": 84882
  },
  {
    "temp": 167.85304260253906,
    "load": 555924,
    "rate": 8.064031898975372,
    "requestedRate": 8.315033761535757,
    "time": 85086
  },
  {
    "temp": 167.51388549804688,
    "load": 565151,
    "rate": 8.202263145446777,
    "requestedRate": 8.315033761535757,
    "time": 85274
  },
  {
    "temp": 167.39471435546875,
    "load": 565796,
    "rate": 8.131486966609955,
    "requestedRate": 8.315033761535757,
    "time": 85465
  },
  {
    "temp": 167.173583984375,
    "load": 569795,
    "rate": 8.129362335205078,
    "requestedRate": 8.315033761535757,
    "time": 85642
  },
  {
    "temp": 166.9432830810547,
    "load": 580025,
    "rate": 8.030100259780884,
    "requestedRate": 8.315033761535757,
    "time": 85829
  },
  {
    "temp": 166.70028686523438,
    "load": 608294,
    "rate": 7.993360412120819,
    "requestedRate": 8.315033761535757,
    "time": 86000
  },
  {
    "temp": 166.47647094726562,
    "load": 619180,
    "rate": 8.050910210609436,
    "requestedRate": 8.315033761535757,
    "time": 86180
  },
  {
    "temp": 166.3513641357422,
    "load": 617166,
    "rate": 8.07537118434906,
    "requestedRate": 8.315033761535757,
    "time": 86354
  },
  {
    "temp": 166.12339782714844,
    "load": 606656,
    "rate": 8.072599046230316,
    "requestedRate": 8.315033761535757,
    "time": 86554
  },
  {
    "temp": 165.8767547607422,
    "load": 604238,
    "rate": 8.184912428855895,
    "requestedRate": 8.315033761535757,
    "time": 86746
  },
  {
    "temp": 165.64889526367188,
    "load": 624183,
    "rate": 8.22941883802414,
    "requestedRate": 8.315033761535757,
    "time": 86926
  },
  {
    "temp": 165.41427612304688,
    "load": 641127,
    "rate": 8.317449839115143,
    "requestedRate": 8.315033761535757,
    "time": 87098
  },
  {
    "temp": 165.1685028076172,
    "load": 646432,
    "rate": 8.293513205051422,
    "requestedRate": 8.315033761535757,
    "time": 87305
  },
  {
    "temp": 164.9497528076172,
    "load": 642246,
    "rate": 8.278690931797028,
    "requestedRate": 8.315033761535757,
    "time": 87509
  },
  {
    "temp": 164.71926879882812,
    "load": 615460,
    "rate": 8.192504796981812,
    "requestedRate": 8.315033761535757,
    "time": 87691
  },
  {
    "temp": 164.60411071777344,
    "load": 609267,
    "rate": 8.123326270580291,
    "requestedRate": 8.315033761535757,
    "time": 87876
  },
  {
    "temp": 164.37680053710938,
    "load": 632381,
    "rate": 8.042599954605102,
    "requestedRate": 8.315033761535757,
    "time": 88071
  },
  {
    "temp": 164.13572692871094,
    "load": 673913,
    "rate": 7.901710939407349,
    "requestedRate": 8.315033761535757,
    "time": 88241
  },
  {
    "temp": 163.9063262939453,
    "load": 684800,
    "rate": 8.036091456413269,
    "requestedRate": 8.315033761535757,
    "time": 88424
  },
  {
    "temp": 163.6433868408203,
    "load": 664228,
    "rate": 8.08087499141693,
    "requestedRate": 8.315033761535757,
    "time": 88599
  },
  {
    "temp": 163.50437927246094,
    "load": 672274,
    "rate": 8.01798590183258,
    "requestedRate": 8.315033761535757,
    "time": 88778
  },
  {
    "temp": 163.23419189453125,
    "load": 691795,
    "rate": 8.029276800155639,
    "requestedRate": 8.315033761535757,
    "time": 88975
  },
  {
    "temp": 162.9741973876953,
    "load": 694438,
    "rate": 7.991410853862762,
    "requestedRate": 8.315033761535757,
    "time": 89174
  },
  {
    "temp": 162.732666015625,
    "load": 696996,
    "rate": 8.065240695476533,
    "requestedRate": 8.315033761535757,
    "time": 89338
  },
  {
    "temp": 162.4944305419922,
    "load": 696128,
    "rate": 8.117669384479523,
    "requestedRate": 8.315033761535757,
    "time": 89522
  },
  {
    "temp": 162.25486755371094,
    "load": 697087,
    "rate": 8.031830756664275,
    "requestedRate": 8.315033761535757,
    "time": 89705
  },
  {
    "temp": 162.15451049804688,
    "load": 705672,
    "rate": 8.116242406368256,
    "requestedRate": 8.315033761535757,
    "time": 89860
  },
  {
    "temp": 161.9143829345703,
    "load": 721182,
    "rate": 8.16433473587036,
    "requestedRate": 8.315033761535757,
    "time": 90038
  },
  {
    "temp": 161.69923400878906,
    "load": 744568,
    "rate": 5.020118232965469,
    "requestedRate": 8.315033761535757,
    "time": 90218
  },
  {
    "temp": 161.60755920410156,
    "load": 561691,
    "rate": 6.156102780103684,
    "requestedRate": 8.315033761535757,
    "time": 90393
  }
]